,idx,nominal,anomaly
0,1.0,0.0,1.0
1,193.0,0.0,1.0
2,194.0,0.0,1.0
3,195.0,0.0,1.0
4,196.0,0.0,1.0
5,198.0,0.0,1.0
6,203.0,0.0,1.0
7,205.0,0.0,1.0
8,207.0,0.0,1.0
9,208.0,0.0,1.0
10,209.0,0.0,1.0
11,210.0,0.0,1.0
12,211.0,0.0,1.0
13,214.0,0.0,1.0
14,215.0,0.0,1.0
15,217.0,0.0,1.0
16,219.0,0.0,1.0
17,220.0,0.0,1.0
18,225.0,0.0,1.0
19,226.0,0.0,1.0
20,228.0,0.0,1.0
21,232.0,0.0,1.0
22,235.0,0.0,1.0
23,237.0,0.0,1.0
24,239.0,0.0,1.0
25,240.0,0.0,1.0
26,243.0,0.0,1.0
27,244.0,0.0,1.0
28,192.0,0.0,1.0
29,245.0,0.0,1.0
30,191.0,0.0,1.0
31,187.0,0.0,1.0
32,134.0,0.0,1.0
33,135.0,0.0,1.0
34,136.0,0.0,1.0
35,141.0,0.0,1.0
36,142.0,0.0,1.0
37,143.0,0.0,1.0
38,144.0,0.0,1.0
39,146.0,0.0,1.0
40,149.0,0.0,1.0
41,152.0,0.0,1.0
42,153.0,0.0,1.0
43,155.0,0.0,1.0
44,156.0,0.0,1.0
45,157.0,0.0,1.0
46,158.0,0.0,1.0
47,160.0,0.0,1.0
48,161.0,0.0,1.0
49,163.0,0.0,1.0
50,166.0,0.0,1.0
51,169.0,0.0,1.0
52,171.0,0.0,1.0
53,172.0,0.0,1.0
54,173.0,0.0,1.0
55,176.0,0.0,1.0
56,178.0,0.0,1.0
57,358.0,0.0,1.0
58,185.0,0.0,1.0
59,190.0,0.0,1.0
60,246.0,0.0,1.0
61,247.0,0.0,1.0
62,248.0,0.0,1.0
63,302.0,0.0,1.0
64,303.0,0.0,1.0
65,304.0,0.0,1.0
66,305.0,0.0,1.0
67,306.0,0.0,1.0
68,308.0,0.0,1.0
69,309.0,0.0,1.0
70,315.0,0.0,1.0
71,317.0,0.0,1.0
72,318.0,0.0,1.0
73,321.0,0.0,1.0
74,322.0,0.0,1.0
75,323.0,0.0,1.0
76,328.0,0.0,1.0
77,330.0,0.0,1.0
78,333.0,0.0,1.0
79,336.0,0.0,1.0
80,338.0,0.0,1.0
81,339.0,0.0,1.0
82,340.0,0.0,1.0
83,345.0,0.0,1.0
84,346.0,0.0,1.0
85,349.0,0.0,1.0
86,350.0,0.0,1.0
87,353.0,0.0,1.0
88,356.0,0.0,1.0
89,357.0,0.0,1.0
90,301.0,0.0,1.0
91,299.0,0.0,1.0
92,297.0,0.0,1.0
93,296.0,0.0,1.0
94,249.0,0.0,1.0
95,250.0,0.0,1.0
96,251.0,0.0,1.0
97,253.0,0.0,1.0
98,256.0,0.0,1.0
99,261.0,0.0,1.0
100,262.0,0.0,1.0
101,266.0,0.0,1.0
102,267.0,0.0,1.0
103,268.0,0.0,1.0
104,269.0,0.0,1.0
105,270.0,0.0,1.0
106,271.0,0.0,1.0
107,131.0,0.0,1.0
108,273.0,0.0,1.0
109,277.0,0.0,1.0
110,279.0,0.0,1.0
111,280.0,0.0,1.0
112,281.0,0.0,1.0
113,282.0,0.0,1.0
114,284.0,0.0,1.0
115,285.0,0.0,1.0
116,287.0,0.0,1.0
117,289.0,0.0,1.0
118,291.0,0.0,1.0
119,292.0,0.0,1.0
120,294.0,0.0,1.0
121,295.0,0.0,1.0
122,275.0,0.0,1.0
123,127.0,0.0,1.0
124,180.0,0.0,1.0
125,359.0,0.0,1.0
126,98.0,0.0,1.0
127,50.0,0.0,1.0
128,99.0,0.0,1.0
129,49.0,0.0,1.0
130,100.0,0.0,1.0
131,101.0,0.0,1.0
132,52.0,0.0,1.0
133,47.0,0.0,1.0
134,43.0,0.0,1.0
135,42.0,0.0,1.0
136,40.0,0.0,1.0
137,39.0,0.0,1.0
138,85.0,0.0,1.0
139,105.0,0.0,1.0
140,46.0,0.0,1.0
141,36.0,0.0,1.0
142,53.0,0.0,1.0
143,57.0,0.0,1.0
144,83.0,0.0,1.0
145,80.0,0.0,1.0
146,79.0,0.0,1.0
147,88.0,0.0,1.0
148,89.0,0.0,1.0
149,75.0,0.0,1.0
150,55.0,0.0,1.0
151,74.0,0.0,1.0
152,67.0,0.0,1.0
153,125.0,0.0,1.0
154,66.0,0.0,1.0
155,64.0,0.0,1.0
156,61.0,0.0,1.0
157,58.0,0.0,1.0
158,72.0,0.0,1.0
159,106.0,0.0,1.0
160,38.0,0.0,1.0
161,34.0,0.0,1.0
162,2.0,0.0,1.0
163,4.0,0.0,1.0
164,7.0,0.0,1.0
165,9.0,0.0,1.0
166,10.0,0.0,1.0
167,122.0,0.0,1.0
168,121.0,0.0,1.0
169,11.0,0.0,1.0
170,12.0,0.0,1.0
171,18.0,0.0,1.0
172,19.0,0.0,1.0
173,117.0,0.0,1.0
174,116.0,0.0,1.0
175,20.0,0.0,1.0
176,119.0,0.0,1.0
177,86.0,0.0,1.0
178,22.0,0.0,1.0
179,33.0,0.0,1.0
180,114.0,0.0,1.0
181,23.0,0.0,1.0
182,24.0,0.0,1.0
183,113.0,0.0,1.0
184,110.0,0.0,1.0
185,115.0,0.0,1.0
186,112.0,0.0,1.0
187,26.0,0.0,1.0
188,29.0,0.0,1.0
189,82.0,0.111111,0.888889
190,31.0,0.111111,0.888889
191,351.0,0.111111,0.888889
192,343.0,0.111111,0.888889
193,310.0,0.111111,0.888889
194,278.0,0.111111,0.888889
195,241.0,0.111111,0.888889
196,334.0,0.111111,0.888889
197,319.0,0.111111,0.888889
198,35.0,0.111111,0.888889
199,272.0,0.111111,0.888889
200,78.0,0.111111,0.888889
201,234.0,0.111111,0.888889
202,242.0,0.111111,0.888889
203,139.0,0.111111,0.888889
204,102.0,0.111111,0.888889
205,200.0,0.111111,0.888889
206,186.0,0.111111,0.888889
207,54.0,0.230769,0.769231
208,147.0,0.230769,0.769231
209,307.0,0.230769,0.769231
210,238.0,0.230769,0.769231
211,189.0,0.230769,0.769231
212,95.0,0.230769,0.769231
213,337.0,0.230769,0.769231
214,37.0,0.230769,0.769231
215,274.0,0.230769,0.769231
216,201.0,0.230769,0.769231
217,314.0,0.230769,0.769231
218,59.0,0.284639,0.715361
219,183.0,0.284639,0.715361
220,97.0,0.284639,0.715361
221,93.0,0.284639,0.715361
222,48.0,0.284639,0.715361
223,312.0,0.284639,0.715361
224,231.0,0.284639,0.715361
225,213.0,0.284639,0.715361
226,348.0,0.284639,0.715361
227,130.0,0.284639,0.715361
228,13.0,0.284639,0.715361
229,118.0,0.3,0.7
230,325.0,0.3,0.7
231,229.0,0.3,0.7
232,331.0,0.3,0.7
233,68.0,0.3,0.7
234,21.0,0.310241,0.689759
235,179.0,0.310241,0.689759
236,168.0,0.363636,0.636364
237,44.0,0.363636,0.636364
238,276.0,0.363636,0.636364
239,252.0,0.363636,0.636364
240,3.0,0.363636,0.636364
241,257.0,0.363636,0.636364
242,352.0,0.363636,0.636364
243,123.0,0.363636,0.636364
244,138.0,0.363636,0.636364
245,216.0,0.363636,0.636364
246,236.0,0.363636,0.636364
247,154.0,0.363636,0.636364
248,233.0,0.363636,0.636364
249,150.0,0.363636,0.636364
250,326.0,0.363636,0.636364
251,293.0,0.363636,0.636364
252,313.0,0.428571,0.571429
253,62.0,0.428571,0.571429
254,111.0,0.428571,0.571429
255,129.0,0.428571,0.571429
256,230.0,0.428571,0.571429
257,126.0,0.428571,0.571429
258,69.0,0.488143,0.511857
259,204.0,0.571429,0.428571
260,63.0,0.571429,0.428571
261,87.0,0.571429,0.428571
262,90.0,0.571429,0.428571
263,184.0,0.637937,0.362063
264,45.0,0.637937,0.362063
265,128.0,0.637937,0.362063
266,335.0,0.637937,0.362063
267,354.0,0.666667,0.333333
268,15.0,0.666667,0.333333
269,324.0,0.666667,0.333333
270,329.0,0.666667,0.333333
271,347.0,0.666667,0.333333
272,197.0,0.666667,0.333333
273,109.0,0.666667,0.333333
274,81.0,0.666667,0.333333
275,56.0,0.666667,0.333333
276,264.0,0.666667,0.333333
277,137.0,0.666667,0.333333
278,96.0,0.666667,0.333333
279,221.0,0.666667,0.333333
280,199.0,0.666667,0.333333
281,140.0,0.666667,0.333333
282,258.0,0.666667,0.333333
283,177.0,0.666667,0.333333
284,60.0,0.666667,0.333333
285,28.0,0.714286,0.285714
286,327.0,0.714286,0.285714
287,167.0,0.714286,0.285714
288,212.0,0.714286,0.285714
289,332.0,0.714286,0.285714
290,170.0,0.714286,0.285714
291,6.0,0.714286,0.285714
292,206.0,0.714286,0.285714
293,32.0,0.798465,0.201535
294,91.0,0.951983,0.048017
295,17.0,0.951983,0.048017
296,320.0,0.951983,0.048017
297,222.0,0.951983,0.048017
298,76.0,0.951983,0.048017
299,14.0,0.951983,0.048017
300,132.0,0.951983,0.048017
301,77.0,0.951983,0.048017
302,120.0,0.951983,0.048017
303,133.0,0.951983,0.048017
304,145.0,0.951983,0.048017
305,341.0,0.951983,0.048017
306,342.0,0.951983,0.048017
307,344.0,0.951983,0.048017
308,8.0,0.951983,0.048017
309,5.0,0.951983,0.048017
310,84.0,0.951983,0.048017
311,355.0,0.951983,0.048017
312,124.0,0.951983,0.048017
313,218.0,0.951983,0.048017
314,316.0,0.951983,0.048017
315,181.0,0.951983,0.048017
316,224.0,0.951983,0.048017
317,223.0,0.951983,0.048017
318,290.0,0.951983,0.048017
319,288.0,0.951983,0.048017
320,164.0,0.951983,0.048017
321,165.0,0.951983,0.048017
322,283.0,0.951983,0.048017
323,41.0,0.951983,0.048017
324,107.0,0.951983,0.048017
325,202.0,0.951983,0.048017
326,182.0,0.951983,0.048017
327,254.0,0.951983,0.048017
328,174.0,0.951983,0.048017
329,255.0,0.951983,0.048017
330,175.0,0.951983,0.048017
331,51.0,0.951983,0.048017
332,265.0,0.951983,0.048017
333,103.0,0.951983,0.048017
334,65.0,0.951983,0.048017
335,227.0,0.951983,0.048017
336,108.0,0.951983,0.048017
337,92.0,0.951983,0.048017
338,73.0,0.951983,0.048017
339,311.0,0.951983,0.048017
340,260.0,0.951983,0.048017
341,148.0,0.951983,0.048017
342,159.0,0.951983,0.048017
343,25.0,0.951983,0.048017
344,94.0,0.951983,0.048017
345,188.0,0.951983,0.048017
346,300.0,0.951983,0.048017
347,298.0,0.951983,0.048017
348,70.0,0.951983,0.048017
349,104.0,1.0,0.0
350,151.0,1.0,0.0
351,27.0,1.0,0.0
352,71.0,1.0,0.0
353,16.0,1.0,0.0
354,286.0,1.0,0.0
355,30.0,1.0,0.0
356,263.0,1.0,0.0
357,259.0,1.0,0.0
358,162.0,1.0,0.0
