,idx,nominal,anomaly
0,205.0,0.498924,0.501076
1,207.0,0.499019,0.500981
2,197.0,0.499087,0.500913
3,137.0,0.499228,0.500772
4,12.0,0.499316,0.500684
5,67.0,0.499402,0.500598
6,112.0,0.49954,0.50046
7,217.0,0.499784,0.500216
8,237.0,0.499799,0.500201
9,131.0,0.499902,0.500098
10,41.0,0.499905,0.500095
11,60.0,0.499959,0.500041
12,86.0,0.500003,0.499997
13,106.0,0.500005,0.499995
14,75.0,0.500069,0.499931
15,319.0,0.50009,0.49991
16,295.0,0.500141,0.499859
17,130.0,0.500175,0.499825
18,147.0,0.500258,0.499742
19,154.0,0.500345,0.499655
20,334.0,0.500346,0.499654
21,103.0,0.500382,0.499618
22,157.0,0.50042,0.49958
23,228.0,0.500437,0.499563
24,14.0,0.500444,0.499556
25,13.0,0.500453,0.499547
26,33.0,0.500458,0.499542
27,330.0,0.500478,0.499522
28,317.0,0.500522,0.499478
29,4.0,0.5006,0.4994
30,278.0,0.500654,0.499346
31,326.0,0.500654,0.499346
32,10.0,0.500663,0.499337
33,296.0,0.500672,0.499328
34,139.0,0.500678,0.499322
35,149.0,0.500681,0.499319
36,222.0,0.500733,0.499267
37,36.0,0.500751,0.499249
38,360.0,0.500763,0.499237
39,210.0,0.500769,0.499231
40,376.0,0.500774,0.499226
41,102.0,0.500784,0.499216
42,226.0,0.500791,0.499209
43,235.0,0.500856,0.499144
44,250.0,0.500867,0.499133
45,126.0,0.500879,0.499121
46,370.0,0.50089,0.49911
47,168.0,0.5009,0.4991
48,218.0,0.500978,0.499022
49,337.0,0.500982,0.499018
50,133.0,0.501007,0.498993
51,52.0,0.501053,0.498947
52,272.0,0.501055,0.498945
53,90.0,0.50106,0.49894
54,261.0,0.501068,0.498932
55,69.0,0.501072,0.498928
56,310.0,0.501128,0.498872
57,76.0,0.501165,0.498835
58,258.0,0.501217,0.498783
59,190.0,0.501247,0.498753
60,22.0,0.501284,0.498716
61,349.0,0.501307,0.498693
62,173.0,0.50131,0.49869
63,42.0,0.501326,0.498674
64,324.0,0.501346,0.498654
65,284.0,0.501347,0.498653
66,48.0,0.501384,0.498616
67,124.0,0.501409,0.498591
68,26.0,0.501411,0.498589
69,39.0,0.501427,0.498573
70,219.0,0.501444,0.498556
71,252.0,0.501444,0.498556
72,153.0,0.501467,0.498533
73,165.0,0.50148,0.49852
74,84.0,0.501485,0.498515
75,129.0,0.501508,0.498492
76,243.0,0.501513,0.498487
77,193.0,0.501539,0.498461
78,20.0,0.501544,0.498456
79,174.0,0.501546,0.498454
80,152.0,0.501555,0.498445
81,281.0,0.501566,0.498434
82,164.0,0.501575,0.498425
83,199.0,0.501597,0.498403
84,156.0,0.501636,0.498364
85,177.0,0.501641,0.498359
86,141.0,0.501646,0.498354
87,368.0,0.501651,0.498349
88,107.0,0.501677,0.498323
89,11.0,0.501683,0.498317
90,120.0,0.5017,0.4983
91,214.0,0.501704,0.498296
92,201.0,0.501708,0.498292
93,24.0,0.501718,0.498282
94,343.0,0.501734,0.498266
95,325.0,0.501738,0.498262
96,216.0,0.501739,0.498261
97,339.0,0.501753,0.498247
98,341.0,0.501762,0.498238
99,45.0,0.501766,0.498234
100,123.0,0.501773,0.498227
101,184.0,0.501775,0.498225
102,336.0,0.501789,0.498211
103,104.0,0.501807,0.498193
104,178.0,0.501807,0.498193
105,136.0,0.501842,0.498158
106,7.0,0.501845,0.498155
107,158.0,0.501851,0.498149
108,40.0,0.501851,0.498149
109,304.0,0.501864,0.498136
110,374.0,0.501895,0.498105
111,373.0,0.501944,0.498056
112,56.0,0.501945,0.498055
113,361.0,0.501957,0.498043
114,189.0,0.501966,0.498034
115,344.0,0.501975,0.498025
116,92.0,0.501978,0.498022
117,94.0,0.501981,0.498019
118,269.0,0.501982,0.498018
119,21.0,0.501982,0.498018
120,311.0,0.50202,0.49798
121,371.0,0.502044,0.497956
122,96.0,0.502052,0.497948
123,241.0,0.502095,0.497905
124,234.0,0.502098,0.497902
125,17.0,0.502112,0.497888
126,99.0,0.502119,0.497881
127,140.0,0.502129,0.497871
128,159.0,0.502162,0.497838
129,113.0,0.502167,0.497833
130,264.0,0.502169,0.497831
131,372.0,0.502171,0.497829
132,38.0,0.502193,0.497807
133,171.0,0.502202,0.497798
134,115.0,0.502209,0.497791
135,208.0,0.50221,0.49779
136,256.0,0.502226,0.497774
137,271.0,0.502227,0.497773
138,3.0,0.50223,0.49777
139,200.0,0.502278,0.497722
140,270.0,0.502304,0.497696
141,65.0,0.502304,0.497696
142,181.0,0.502314,0.497686
143,268.0,0.502325,0.497675
144,350.0,0.502345,0.497655
145,314.0,0.502361,0.497639
146,35.0,0.502362,0.497638
147,55.0,0.502375,0.497625
148,299.0,0.502383,0.497617
149,313.0,0.502397,0.497603
150,88.0,0.5024,0.4976
151,345.0,0.502402,0.497598
152,28.0,0.502414,0.497586
153,95.0,0.502416,0.497584
154,89.0,0.502438,0.497562
155,91.0,0.502444,0.497556
156,352.0,0.502468,0.497532
157,101.0,0.502474,0.497526
158,49.0,0.502475,0.497525
159,285.0,0.502476,0.497524
160,188.0,0.502515,0.497485
161,267.0,0.502531,0.497469
162,98.0,0.502573,0.497427
163,255.0,0.502583,0.497417
164,203.0,0.502589,0.497411
165,364.0,0.502631,0.497369
166,5.0,0.502639,0.497361
167,340.0,0.502653,0.497347
168,215.0,0.502681,0.497319
169,16.0,0.502683,0.497317
170,37.0,0.502687,0.497313
171,367.0,0.50269,0.49731
172,150.0,0.50272,0.49728
173,353.0,0.502733,0.497267
174,365.0,0.50274,0.49726
175,276.0,0.502755,0.497245
176,46.0,0.502768,0.497232
177,232.0,0.502776,0.497224
178,78.0,0.502776,0.497224
179,238.0,0.502792,0.497208
180,329.0,0.502797,0.497203
181,63.0,0.502812,0.497188
182,225.0,0.502835,0.497165
183,57.0,0.502844,0.497156
184,64.0,0.502845,0.497155
185,162.0,0.502846,0.497154
186,97.0,0.50288,0.49712
187,68.0,0.50292,0.49708
188,327.0,0.502924,0.497076
189,127.0,0.502938,0.497062
190,229.0,0.502955,0.497045
191,265.0,0.502961,0.497039
192,242.0,0.503062,0.496938
193,160.0,0.503077,0.496923
194,2.0,0.503096,0.496904
195,280.0,0.503106,0.496894
196,254.0,0.50311,0.49689
197,233.0,0.503152,0.496848
198,175.0,0.503153,0.496847
199,125.0,0.503191,0.496809
200,220.0,0.50321,0.49679
201,288.0,0.503218,0.496782
202,357.0,0.50322,0.49678
203,71.0,0.50328,0.49672
204,100.0,0.503291,0.496709
205,240.0,0.503302,0.496698
206,206.0,0.503302,0.496698
207,191.0,0.503309,0.496691
208,135.0,0.503311,0.496689
209,212.0,0.503317,0.496683
210,224.0,0.503329,0.496671
211,116.0,0.50334,0.49666
212,74.0,0.503354,0.496646
213,251.0,0.503378,0.496622
214,128.0,0.503381,0.496619
215,213.0,0.503389,0.496611
216,47.0,0.503391,0.496609
217,248.0,0.503396,0.496604
218,163.0,0.503423,0.496577
219,359.0,0.503505,0.496495
220,273.0,0.503521,0.496479
221,81.0,0.503538,0.496462
222,169.0,0.503545,0.496455
223,19.0,0.503547,0.496453
224,298.0,0.503548,0.496452
225,260.0,0.503613,0.496387
226,306.0,0.503642,0.496358
227,204.0,0.503642,0.496358
228,155.0,0.503642,0.496358
229,277.0,0.503648,0.496352
230,366.0,0.503698,0.496302
231,262.0,0.503712,0.496288
232,1.0,0.503717,0.496283
233,363.0,0.50373,0.49627
234,347.0,0.503733,0.496267
235,230.0,0.503736,0.496264
236,333.0,0.503757,0.496243
237,308.0,0.503816,0.496184
238,30.0,0.503847,0.496153
239,369.0,0.503862,0.496138
240,211.0,0.503883,0.496117
241,354.0,0.50389,0.49611
242,31.0,0.503891,0.496109
243,83.0,0.503905,0.496095
244,300.0,0.503916,0.496084
245,82.0,0.503927,0.496073
246,111.0,0.503944,0.496056
247,114.0,0.503956,0.496044
248,342.0,0.504012,0.495988
249,375.0,0.504016,0.495984
250,316.0,0.504025,0.495975
251,263.0,0.504057,0.495943
252,151.0,0.504106,0.495894
253,266.0,0.504177,0.495823
254,348.0,0.50419,0.49581
255,25.0,0.504198,0.495802
256,186.0,0.50421,0.49579
257,321.0,0.504246,0.495754
258,286.0,0.504261,0.495739
259,53.0,0.504321,0.495679
260,93.0,0.504329,0.495671
261,351.0,0.504342,0.495658
262,166.0,0.504376,0.495624
263,29.0,0.504417,0.495583
264,231.0,0.504422,0.495578
265,122.0,0.504437,0.495563
266,301.0,0.50447,0.49553
267,59.0,0.504597,0.495403
268,134.0,0.504611,0.495389
269,15.0,0.504704,0.495296
270,185.0,0.504711,0.495289
271,257.0,0.504729,0.495271
272,221.0,0.504753,0.495247
273,80.0,0.504781,0.495219
274,322.0,0.504783,0.495217
275,8.0,0.504784,0.495216
276,50.0,0.504788,0.495212
277,119.0,0.504825,0.495175
278,358.0,0.504848,0.495152
279,32.0,0.504856,0.495144
280,61.0,0.504868,0.495132
281,282.0,0.504951,0.495049
282,309.0,0.504965,0.495035
283,77.0,0.505048,0.494952
284,183.0,0.505132,0.494868
285,66.0,0.505135,0.494865
286,161.0,0.505135,0.494865
287,172.0,0.50519,0.49481
288,244.0,0.50519,0.49481
289,73.0,0.50519,0.49481
290,292.0,0.505212,0.494788
291,132.0,0.505212,0.494788
292,303.0,0.505213,0.494787
293,346.0,0.505266,0.494734
294,44.0,0.505288,0.494712
295,287.0,0.505337,0.494663
296,355.0,0.505345,0.494655
297,108.0,0.505507,0.494493
298,338.0,0.505522,0.494478
299,253.0,0.505548,0.494452
300,70.0,0.505548,0.494452
301,34.0,0.50568,0.49432
302,198.0,0.505697,0.494303
303,283.0,0.505726,0.494274
304,27.0,0.505729,0.494271
305,328.0,0.505757,0.494243
306,143.0,0.505812,0.494188
307,318.0,0.505819,0.494181
308,179.0,0.505819,0.494181
309,297.0,0.505848,0.494152
310,144.0,0.505871,0.494129
311,245.0,0.505923,0.494077
312,223.0,0.505925,0.494075
313,362.0,0.505942,0.494058
314,335.0,0.505996,0.494004
315,294.0,0.506003,0.493997
316,170.0,0.506007,0.493993
317,249.0,0.506018,0.493982
318,356.0,0.50604,0.49396
319,332.0,0.506048,0.493952
320,109.0,0.506142,0.493858
321,236.0,0.506157,0.493843
322,275.0,0.50617,0.49383
323,305.0,0.50618,0.49382
324,239.0,0.506186,0.493814
325,23.0,0.506229,0.493771
326,195.0,0.506355,0.493645
327,85.0,0.506471,0.493529
328,145.0,0.50648,0.49352
329,323.0,0.506538,0.493462
330,87.0,0.506558,0.493442
331,194.0,0.506603,0.493397
332,117.0,0.506657,0.493343
333,279.0,0.50678,0.49322
334,105.0,0.50678,0.49322
335,72.0,0.506797,0.493203
336,142.0,0.506905,0.493095
337,293.0,0.506941,0.493059
338,320.0,0.506941,0.493059
339,121.0,0.506942,0.493058
340,146.0,0.506942,0.493058
341,58.0,0.506942,0.493058
342,79.0,0.506942,0.493058
343,51.0,0.506942,0.493058
344,290.0,0.506942,0.493058
345,6.0,0.507058,0.492942
346,9.0,0.507111,0.492889
347,202.0,0.507131,0.492869
348,18.0,0.507157,0.492843
349,187.0,0.507199,0.492801
350,315.0,0.507217,0.492783
351,43.0,0.507224,0.492776
352,331.0,0.507261,0.492739
353,259.0,0.507409,0.492591
354,246.0,0.507416,0.492584
355,167.0,0.507435,0.492565
356,274.0,0.507447,0.492553
357,192.0,0.507457,0.492543
358,291.0,0.507457,0.492543
359,312.0,0.507457,0.492543
360,54.0,0.507457,0.492543
361,209.0,0.507457,0.492543
362,247.0,0.507482,0.492518
363,182.0,0.507681,0.492319
364,302.0,0.507725,0.492275
365,118.0,0.507833,0.492167
366,62.0,0.507956,0.492044
367,138.0,0.508164,0.491836
368,289.0,0.508609,0.491391
369,180.0,0.508642,0.491358
370,227.0,0.508735,0.491265
371,110.0,0.508755,0.491245
372,307.0,0.508961,0.491039
373,148.0,0.509261,0.490739
374,196.0,0.509779,0.490221
375,176.0,0.510424,0.489576
