,idx,nominal,anomaly
0,71.0,0.00144,0.99856
1,8.0,0.001755,0.998245
2,16.0,0.015435,0.984565
3,60.0,0.016789,0.983211
4,78.0,0.02325,0.97675
5,14.0,0.023805,0.976195
6,94.0,0.05202,0.94798
7,50.0,0.086923,0.913077
8,25.0,0.097178,0.902822
9,95.0,0.099582,0.900418
10,34.0,0.103636,0.896364
11,96.0,0.113566,0.886434
12,84.0,0.126605,0.873395
13,79.0,0.139758,0.860242
14,91.0,0.142202,0.857798
15,89.0,0.149389,0.850611
16,80.0,0.164957,0.835043
17,21.0,0.167051,0.832949
18,1.0,0.186528,0.813472
19,68.0,0.194387,0.805613
20,64.0,0.211603,0.788397
21,49.0,0.223766,0.776234
22,35.0,0.257874,0.742126
23,57.0,0.274144,0.725856
24,61.0,0.282668,0.717332
25,52.0,0.288776,0.711224
26,7.0,0.291949,0.708051
27,5.0,0.29205,0.70795
28,47.0,0.295424,0.704576
29,44.0,0.305226,0.694774
30,82.0,0.319256,0.680744
31,22.0,0.340211,0.659789
32,97.0,0.349845,0.650155
33,67.0,0.368001,0.631999
34,98.0,0.37869,0.62131
35,3.0,0.409993,0.590007
36,20.0,0.423566,0.576434
37,88.0,0.435134,0.564866
38,74.0,0.437643,0.562357
39,63.0,0.454379,0.545621
40,93.0,0.459084,0.540916
41,27.0,0.460945,0.539055
42,48.0,0.46317,0.53683
43,58.0,0.473298,0.526702
44,18.0,0.493798,0.506202
45,13.0,0.49875,0.50125
46,85.0,0.500148,0.499852
47,4.0,0.512951,0.487049
48,12.0,0.544143,0.455857
49,28.0,0.546944,0.453056
50,40.0,0.5495,0.4505
51,38.0,0.551114,0.448886
52,41.0,0.552453,0.447547
53,75.0,0.560583,0.439417
54,9.0,0.563191,0.436809
55,73.0,0.563533,0.436467
56,11.0,0.565847,0.434153
57,24.0,0.570473,0.429527
58,56.0,0.5751,0.4249
59,36.0,0.57638,0.42362
60,6.0,0.591148,0.408852
61,72.0,0.608611,0.391389
62,37.0,0.612156,0.387844
63,53.0,0.614919,0.385081
64,32.0,0.666077,0.333923
65,33.0,0.667088,0.332912
66,66.0,0.673336,0.326664
67,62.0,0.683237,0.316763
68,45.0,0.683299,0.316701
69,59.0,0.683403,0.316597
70,39.0,0.693779,0.306221
71,77.0,0.695391,0.304609
72,76.0,0.696215,0.303785
73,10.0,0.696215,0.303785
74,23.0,0.696215,0.303785
75,90.0,0.697446,0.302554
76,2.0,0.703916,0.296084
77,54.0,0.712202,0.287798
78,81.0,0.721973,0.278027
79,92.0,0.724233,0.275767
80,29.0,0.728037,0.271963
81,42.0,0.728037,0.271963
82,15.0,0.730127,0.269873
83,51.0,0.730127,0.269873
84,31.0,0.730127,0.269873
85,70.0,0.730127,0.269873
86,69.0,0.745206,0.254794
87,26.0,0.761738,0.238262
88,30.0,0.761738,0.238262
89,87.0,0.761738,0.238262
90,86.0,0.761738,0.238262
91,43.0,0.761738,0.238262
92,46.0,0.761738,0.238262
93,83.0,0.761738,0.238262
94,55.0,0.761738,0.238262
95,65.0,0.761738,0.238262
96,19.0,0.761738,0.238262
97,17.0,0.761738,0.238262
