,idx,nominal,anomaly
0,71.0,0.28,0.72
1,8.0,0.32,0.68
2,78.0,0.32,0.68
3,25.0,0.36,0.64
4,21.0,0.36,0.64
5,16.0,0.36,0.64
6,14.0,0.36,0.64
7,95.0,0.4,0.6
8,35.0,0.4,0.6
9,60.0,0.4,0.6
10,57.0,0.44,0.56
11,64.0,0.44,0.56
12,1.0,0.44,0.56
13,89.0,0.44,0.56
14,94.0,0.44,0.56
15,82.0,0.48,0.52
16,88.0,0.48,0.52
17,91.0,0.48,0.52
18,50.0,0.48,0.52
19,97.0,0.48,0.52
20,96.0,0.48,0.52
21,34.0,0.48,0.52
22,67.0,0.48,0.52
23,49.0,0.48,0.52
24,5.0,0.48,0.52
25,61.0,0.52,0.48
26,18.0,0.52,0.48
27,52.0,0.52,0.48
28,63.0,0.52,0.48
29,12.0,0.52,0.48
30,22.0,0.52,0.48
31,68.0,0.52,0.48
32,80.0,0.52,0.48
33,84.0,0.52,0.48
34,93.0,0.52,0.48
35,79.0,0.52,0.48
36,47.0,0.52,0.48
37,48.0,0.56,0.44
38,85.0,0.56,0.44
39,24.0,0.56,0.44
40,58.0,0.56,0.44
41,7.0,0.56,0.44
42,98.0,0.56,0.44
43,27.0,0.56,0.44
44,28.0,0.56,0.44
45,41.0,0.56,0.44
46,20.0,0.56,0.44
47,36.0,0.56,0.44
48,11.0,0.6,0.4
49,3.0,0.6,0.4
50,73.0,0.6,0.4
51,72.0,0.6,0.4
52,33.0,0.6,0.4
53,13.0,0.6,0.4
54,38.0,0.6,0.4
55,32.0,0.64,0.36
56,44.0,0.64,0.36
57,56.0,0.64,0.36
58,53.0,0.68,0.32
59,37.0,0.72,0.28
60,6.0,0.72,0.28
61,4.0,0.76,0.24
62,74.0,0.76,0.24
63,40.0,0.76,0.24
64,9.0,0.76,0.24
65,75.0,0.8,0.2
66,83.0,0.92,0.08
67,30.0,0.92,0.08
68,29.0,0.92,0.08
69,86.0,0.92,0.08
70,87.0,0.92,0.08
71,42.0,0.92,0.08
72,2.0,0.92,0.08
73,90.0,0.92,0.08
74,46.0,0.92,0.08
75,92.0,0.92,0.08
76,26.0,0.92,0.08
77,45.0,0.92,0.08
78,81.0,0.92,0.08
79,10.0,0.92,0.08
80,19.0,0.92,0.08
81,59.0,0.92,0.08
82,15.0,0.92,0.08
83,62.0,0.92,0.08
84,55.0,0.92,0.08
85,54.0,0.92,0.08
86,65.0,0.92,0.08
87,31.0,0.92,0.08
88,39.0,0.92,0.08
89,70.0,0.92,0.08
90,43.0,0.92,0.08
91,51.0,0.92,0.08
92,76.0,0.92,0.08
93,77.0,0.92,0.08
94,17.0,0.92,0.08
95,69.0,0.92,0.08
96,23.0,0.92,0.08
97,66.0,0.96,0.04
