,idx,nominal,anomaly
0,663.0,1e-06,0.999999
1,399.0,1e-06,0.999999
2,515.0,2e-06,0.999998
3,352.0,3e-06,0.999997
4,273.0,9e-06,0.999991
5,612.0,6.8e-05,0.999932
6,260.0,0.000729,0.999271
7,106.0,0.000779,0.999221
8,206.0,0.000779,0.999221
9,500.0,0.000812,0.999188
10,639.0,0.000825,0.999175
11,454.0,0.000831,0.999169
12,728.0,0.000909,0.999091
13,414.0,0.001169,0.998831
14,659.0,0.001228,0.998772
15,419.0,0.0014,0.9986
16,670.0,0.0014,0.9986
17,648.0,0.001737,0.998263
18,742.0,0.001861,0.998139
19,46.0,0.00199,0.99801
20,383.0,0.002654,0.997346
21,362.0,0.002654,0.997346
22,437.0,0.003528,0.996472
23,720.0,0.004152,0.995848
24,388.0,0.004307,0.995693
25,232.0,0.007051,0.992949
26,221.0,0.009219,0.990781
27,649.0,0.009706,0.990294
28,315.0,0.012828,0.987172
29,529.0,0.015601,0.984399
30,636.0,0.017387,0.982613
31,440.0,0.018598,0.981402
32,254.0,0.018685,0.981315
33,52.0,0.019493,0.980507
34,396.0,0.021815,0.978185
35,351.0,0.022297,0.977703
36,127.0,0.023026,0.976974
37,94.0,0.023078,0.976922
38,426.0,0.023118,0.976882
39,519.0,0.02375,0.97625
40,464.0,0.02375,0.97625
41,434.0,0.024083,0.975917
42,472.0,0.026094,0.973906
43,18.0,0.029358,0.970642
44,611.0,0.029676,0.970324
45,601.0,0.031903,0.968097
46,607.0,0.034081,0.965919
47,141.0,0.038232,0.961768
48,617.0,0.040331,0.959669
49,591.0,0.051949,0.948051
50,705.0,0.052288,0.947712
51,664.0,0.055084,0.944916
52,93.0,0.056463,0.943537
53,427.0,0.057551,0.942449
54,565.0,0.067322,0.932678
55,518.0,0.071708,0.928292
56,615.0,0.075208,0.924792
57,442.0,0.075208,0.924792
58,538.0,0.076907,0.923093
59,731.0,0.078305,0.921695
60,488.0,0.08183,0.91817
61,558.0,0.093906,0.906094
62,527.0,0.094563,0.905437
63,517.0,0.102473,0.897527
64,300.0,0.102637,0.897363
65,676.0,0.102942,0.897058
66,40.0,0.105927,0.894073
67,570.0,0.105999,0.894001
68,325.0,0.109853,0.890147
69,447.0,0.109913,0.890087
70,191.0,0.11858,0.88142
71,525.0,0.119865,0.880135
72,711.0,0.122721,0.877279
73,148.0,0.124019,0.875981
74,39.0,0.124974,0.875026
75,258.0,0.131467,0.868533
76,342.0,0.132377,0.867623
77,465.0,0.162198,0.837802
78,620.0,0.170486,0.829514
79,233.0,0.170486,0.829514
80,586.0,0.170486,0.829514
81,516.0,0.176063,0.823937
82,245.0,0.237065,0.762935
83,329.0,0.237065,0.762935
84,31.0,0.237065,0.762935
85,684.0,0.257598,0.742402
86,552.0,0.274667,0.725333
87,306.0,0.278247,0.721753
88,524.0,0.279386,0.720614
89,704.0,0.27988,0.72012
90,478.0,0.29793,0.70207
91,583.0,0.327779,0.672221
92,98.0,0.327779,0.672221
93,385.0,0.376221,0.623779
94,350.0,0.391032,0.608968
95,112.0,0.391032,0.608968
96,102.0,0.393266,0.606734
97,378.0,0.400391,0.599609
98,692.0,0.439405,0.560595
99,296.0,0.472835,0.527165
100,328.0,0.474723,0.525277
101,14.0,0.481442,0.518558
102,567.0,0.506414,0.493586
103,689.0,0.518149,0.481851
104,73.0,0.528077,0.471923
105,259.0,0.530917,0.469083
106,356.0,0.531015,0.468985
107,54.0,0.532366,0.467634
108,64.0,0.534522,0.465478
109,263.0,0.534522,0.465478
110,482.0,0.54541,0.45459
111,402.0,0.54541,0.45459
112,715.0,0.557609,0.442391
113,669.0,0.557609,0.442391
114,334.0,0.562506,0.437494
115,392.0,0.574846,0.425154
116,621.0,0.57615,0.42385
117,195.0,0.589529,0.410471
118,475.0,0.598414,0.401586
119,270.0,0.601981,0.398019
120,348.0,0.610594,0.389406
121,202.0,0.612585,0.387415
122,545.0,0.629656,0.370344
123,303.0,0.648309,0.351691
124,276.0,0.649528,0.350472
125,304.0,0.654653,0.345347
126,312.0,0.656157,0.343843
127,394.0,0.658113,0.341887
128,699.0,0.663148,0.336852
129,224.0,0.66598,0.33402
130,444.0,0.666698,0.333302
131,600.0,0.672756,0.327244
132,248.0,0.674334,0.325666
133,734.0,0.676695,0.323305
134,416.0,0.678605,0.321395
135,1.0,0.687908,0.312092
136,49.0,0.690216,0.309784
137,80.0,0.693603,0.306397
138,726.0,0.697376,0.302624
139,190.0,0.699381,0.300619
140,344.0,0.700554,0.299446
141,523.0,0.732251,0.267749
142,401.0,0.732507,0.267493
143,365.0,0.734374,0.265626
144,732.0,0.737597,0.262403
145,119.0,0.744862,0.255138
146,79.0,0.74862,0.25138
147,638.0,0.749189,0.250811
148,654.0,0.750379,0.249621
149,366.0,0.755805,0.244195
150,180.0,0.757,0.243
151,372.0,0.757873,0.242127
152,698.0,0.759881,0.240119
153,379.0,0.762066,0.237934
154,152.0,0.764301,0.235699
155,553.0,0.770375,0.229625
156,635.0,0.771836,0.228164
157,161.0,0.772367,0.227633
158,701.0,0.773085,0.226915
159,322.0,0.773644,0.226356
160,499.0,0.773872,0.226128
161,467.0,0.779829,0.220171
162,288.0,0.783802,0.216198
163,307.0,0.784487,0.215513
164,505.0,0.78464,0.21536
165,89.0,0.784733,0.215267
166,274.0,0.78731,0.21269
167,403.0,0.78731,0.21269
168,103.0,0.787522,0.212478
169,466.0,0.792116,0.207884
170,123.0,0.792521,0.207479
171,168.0,0.792814,0.207186
172,616.0,0.793009,0.206991
173,134.0,0.793085,0.206915
174,682.0,0.793917,0.206083
175,78.0,0.793917,0.206083
176,222.0,0.794625,0.205375
177,333.0,0.797195,0.202805
178,338.0,0.797782,0.202218
179,412.0,0.799603,0.200397
180,435.0,0.800829,0.199171
181,145.0,0.801113,0.198887
182,99.0,0.802186,0.197814
183,280.0,0.804413,0.195587
184,50.0,0.804413,0.195587
185,501.0,0.80458,0.19542
186,703.0,0.805355,0.194645
187,531.0,0.807476,0.192524
188,521.0,0.807596,0.192404
189,264.0,0.808929,0.191071
190,559.0,0.809296,0.190704
191,681.0,0.809428,0.190572
192,286.0,0.80978,0.19022
193,105.0,0.810294,0.189706
194,578.0,0.810534,0.189466
195,214.0,0.810677,0.189323
196,377.0,0.81173,0.18827
197,625.0,0.812034,0.187966
198,696.0,0.814092,0.185908
199,227.0,0.814283,0.185717
200,428.0,0.815593,0.184407
201,680.0,0.815994,0.184006
202,239.0,0.8166,0.1834
203,431.0,0.819388,0.180612
204,70.0,0.819388,0.180612
205,542.0,0.820974,0.179026
206,121.0,0.821207,0.178793
207,710.0,0.822127,0.177873
208,208.0,0.822977,0.177023
209,337.0,0.823149,0.176851
210,560.0,0.823863,0.176137
211,406.0,0.823863,0.176137
212,688.0,0.826229,0.173771
213,498.0,0.826905,0.173095
214,533.0,0.828068,0.171932
215,725.0,0.828159,0.171841
216,48.0,0.828732,0.171268
217,594.0,0.828884,0.171116
218,231.0,0.829753,0.170247
219,491.0,0.831242,0.168758
220,723.0,0.831577,0.168423
221,380.0,0.832063,0.167937
222,199.0,0.83383,0.16617
223,556.0,0.834491,0.165509
224,177.0,0.834817,0.165183
225,295.0,0.834895,0.165105
226,587.0,0.83577,0.16423
227,183.0,0.835942,0.164058
228,592.0,0.836095,0.163905
229,340.0,0.836274,0.163726
230,28.0,0.836274,0.163726
231,418.0,0.8363,0.1637
232,463.0,0.836399,0.163601
233,485.0,0.836795,0.163205
234,631.0,0.836852,0.163148
235,471.0,0.836852,0.163148
236,724.0,0.836892,0.163108
237,382.0,0.837306,0.162694
238,45.0,0.838301,0.161699
239,69.0,0.839054,0.160946
240,469.0,0.839187,0.160813
241,12.0,0.839187,0.160813
242,268.0,0.839213,0.160787
243,59.0,0.839503,0.160497
244,693.0,0.840922,0.159078
245,91.0,0.840922,0.159078
246,193.0,0.840922,0.159078
247,130.0,0.840964,0.159036
248,5.0,0.842444,0.157556
249,585.0,0.842444,0.157556
250,75.0,0.843055,0.156945
251,30.0,0.844798,0.155202
252,279.0,0.844846,0.155154
253,610.0,0.844998,0.155002
254,596.0,0.8456,0.1544
255,450.0,0.845768,0.154232
256,651.0,0.845919,0.154081
257,386.0,0.847235,0.152765
258,24.0,0.847294,0.152706
259,582.0,0.848012,0.151988
260,238.0,0.849185,0.150815
261,595.0,0.849854,0.150146
262,298.0,0.849973,0.150027
263,727.0,0.850133,0.149867
264,200.0,0.850478,0.149522
265,95.0,0.85202,0.14798
266,308.0,0.852221,0.147779
267,84.0,0.852221,0.147779
268,628.0,0.853022,0.146978
269,508.0,0.853027,0.146973
270,320.0,0.854734,0.145266
271,173.0,0.855945,0.144055
272,489.0,0.855963,0.144037
273,371.0,0.856623,0.143377
274,712.0,0.856876,0.143124
275,353.0,0.856876,0.143124
276,662.0,0.856884,0.143116
277,60.0,0.857063,0.142937
278,605.0,0.858211,0.141789
279,539.0,0.858211,0.141789
280,85.0,0.859404,0.140596
281,57.0,0.861924,0.138076
282,449.0,0.862001,0.137999
283,142.0,0.862417,0.137583
284,640.0,0.862791,0.137209
285,262.0,0.863181,0.136819
286,257.0,0.863257,0.136743
287,250.0,0.864626,0.135374
288,397.0,0.864711,0.135289
289,522.0,0.865402,0.134598
290,237.0,0.865553,0.134447
291,19.0,0.865553,0.134447
292,400.0,0.866319,0.133681
293,425.0,0.866319,0.133681
294,506.0,0.866602,0.133398
295,165.0,0.868141,0.131859
296,150.0,0.868643,0.131357
297,557.0,0.86893,0.13107
298,42.0,0.869074,0.130926
299,331.0,0.874143,0.125857
300,652.0,0.874143,0.125857
301,562.0,0.874143,0.125857
302,216.0,0.874267,0.125733
303,104.0,0.874267,0.125733
304,335.0,0.875374,0.124626
305,128.0,0.875446,0.124554
306,554.0,0.876456,0.123544
307,332.0,0.876736,0.123264
308,247.0,0.876795,0.123205
309,632.0,0.876825,0.123175
310,452.0,0.877648,0.122352
311,223.0,0.878543,0.121457
312,655.0,0.879962,0.120038
313,115.0,0.880963,0.119037
314,564.0,0.881683,0.118317
315,76.0,0.88343,0.11657
316,17.0,0.884621,0.115379
317,548.0,0.885459,0.114541
318,671.0,0.885459,0.114541
319,67.0,0.885799,0.114201
320,11.0,0.886099,0.113901
321,53.0,0.886234,0.113766
322,327.0,0.887886,0.112114
323,685.0,0.889762,0.110238
324,417.0,0.890084,0.109916
325,634.0,0.890595,0.109405
326,546.0,0.891052,0.108948
327,675.0,0.891118,0.108882
328,575.0,0.894855,0.105145
329,536.0,0.895657,0.104343
330,324.0,0.895657,0.104343
331,722.0,0.896701,0.103299
332,413.0,0.896953,0.103047
333,706.0,0.898218,0.101782
334,645.0,0.898296,0.101704
335,361.0,0.899473,0.100527
336,470.0,0.899473,0.100527
337,92.0,0.899473,0.100527
338,547.0,0.899473,0.100527
339,733.0,0.900717,0.099283
340,56.0,0.900736,0.099264
341,430.0,0.903155,0.096845
342,217.0,0.903175,0.096825
343,188.0,0.903331,0.096669
344,240.0,0.903905,0.096095
345,210.0,0.904303,0.095697
346,359.0,0.90678,0.09322
347,476.0,0.907295,0.092705
348,534.0,0.907391,0.092609
349,207.0,0.909047,0.090953
350,540.0,0.909587,0.090413
351,176.0,0.910895,0.089105
352,741.0,0.91258,0.08742
353,226.0,0.914302,0.085698
354,429.0,0.914612,0.085388
355,339.0,0.91494,0.08506
356,110.0,0.915935,0.084065
357,376.0,0.916744,0.083256
358,211.0,0.918142,0.081858
359,120.0,0.918259,0.081741
360,34.0,0.920803,0.079197
361,576.0,0.92121,0.07879
362,65.0,0.921263,0.078737
363,374.0,0.922075,0.077925
364,665.0,0.927283,0.072717
365,571.0,0.928378,0.071622
366,572.0,0.928917,0.071083
367,398.0,0.92899,0.07101
368,244.0,0.92952,0.07048
369,714.0,0.929612,0.070388
370,194.0,0.929943,0.070057
371,277.0,0.931493,0.068507
372,735.0,0.933652,0.066348
373,408.0,0.933889,0.066111
374,9.0,0.934375,0.065625
375,456.0,0.934905,0.065095
376,346.0,0.935048,0.064952
377,364.0,0.935063,0.064937
378,462.0,0.935312,0.064688
379,275.0,0.937692,0.062308
380,310.0,0.937809,0.062191
381,255.0,0.937929,0.062071
382,61.0,0.939048,0.060952
383,83.0,0.939498,0.060502
384,81.0,0.94177,0.05823
385,420.0,0.941779,0.058221
386,566.0,0.942199,0.057801
387,490.0,0.942784,0.057216
388,143.0,0.943063,0.056937
389,577.0,0.943449,0.056551
390,33.0,0.943929,0.056071
391,265.0,0.944045,0.055955
392,171.0,0.947334,0.052666
393,138.0,0.947523,0.052477
394,137.0,0.948469,0.051531
395,82.0,0.94906,0.05094
396,189.0,0.949823,0.050177
397,458.0,0.94985,0.05015
398,62.0,0.950753,0.049247
399,55.0,0.951798,0.048202
400,35.0,0.95275,0.04725
401,687.0,0.95275,0.04725
402,284.0,0.95402,0.04598
403,683.0,0.954898,0.045102
404,599.0,0.95544,0.04456
405,716.0,0.9556,0.0444
406,159.0,0.956556,0.043444
407,421.0,0.956556,0.043444
408,236.0,0.956887,0.043113
409,299.0,0.956887,0.043113
410,422.0,0.957417,0.042583
411,477.0,0.957417,0.042583
412,297.0,0.958593,0.041407
413,739.0,0.958776,0.041224
414,358.0,0.959252,0.040748
415,532.0,0.959252,0.040748
416,695.0,0.959566,0.040434
417,650.0,0.959901,0.040099
418,242.0,0.960541,0.039459
419,316.0,0.961171,0.038829
420,544.0,0.961792,0.038208
421,513.0,0.961792,0.038208
422,311.0,0.962195,0.037805
423,229.0,0.962835,0.037165
424,289.0,0.963452,0.036548
425,535.0,0.963655,0.036345
426,187.0,0.964239,0.035761
427,256.0,0.964678,0.035322
428,186.0,0.965217,0.034783
429,203.0,0.965822,0.034178
430,196.0,0.965968,0.034032
431,441.0,0.966734,0.033266
432,579.0,0.96723,0.03277
433,530.0,0.967588,0.032412
434,473.0,0.96786,0.03214
435,146.0,0.968047,0.031953
436,129.0,0.968523,0.031477
437,738.0,0.968789,0.031211
438,584.0,0.968884,0.031116
439,656.0,0.968884,0.031116
440,272.0,0.969095,0.030905
441,8.0,0.969112,0.030888
442,423.0,0.969246,0.030754
443,446.0,0.969346,0.030654
444,29.0,0.969564,0.030436
445,424.0,0.970883,0.029117
446,528.0,0.971082,0.028918
447,246.0,0.971082,0.028918
448,381.0,0.971652,0.028348
449,643.0,0.97212,0.02788
450,445.0,0.97285,0.02715
451,175.0,0.97387,0.02613
452,32.0,0.97394,0.02606
453,433.0,0.974631,0.025369
454,509.0,0.974631,0.025369
455,360.0,0.974631,0.025369
456,618.0,0.974784,0.025216
457,624.0,0.974801,0.025199
458,494.0,0.975045,0.024955
459,502.0,0.975045,0.024955
460,589.0,0.975453,0.024547
461,313.0,0.975453,0.024547
462,153.0,0.975453,0.024547
463,480.0,0.975453,0.024547
464,234.0,0.975637,0.024363
465,700.0,0.975854,0.024146
466,404.0,0.975854,0.024146
467,285.0,0.97783,0.02217
468,292.0,0.977923,0.022077
469,251.0,0.978155,0.021845
470,170.0,0.978822,0.021178
471,574.0,0.979556,0.020444
472,569.0,0.980062,0.019938
473,702.0,0.980062,0.019938
474,526.0,0.980062,0.019938
475,514.0,0.980362,0.019638
476,709.0,0.9804,0.0196
477,109.0,0.980661,0.019339
478,133.0,0.980702,0.019298
479,389.0,0.980713,0.019287
480,172.0,0.981511,0.018489
481,495.0,0.981542,0.018458
482,252.0,0.982095,0.017905
483,220.0,0.982204,0.017796
484,395.0,0.982387,0.017613
485,319.0,0.983739,0.016261
486,157.0,0.984008,0.015992
487,326.0,0.984129,0.015871
488,281.0,0.984493,0.015507
489,630.0,0.984593,0.015407
490,118.0,0.985113,0.014887
491,287.0,0.986043,0.013957
492,192.0,0.986043,0.013957
493,479.0,0.986509,0.013491
494,201.0,0.986798,0.013202
495,613.0,0.986909,0.013091
496,140.0,0.987529,0.012471
497,132.0,0.988789,0.011211
498,26.0,0.988929,0.011071
499,114.0,0.989845,0.010155
500,278.0,0.989909,0.010091
501,10.0,0.990213,0.009787
502,690.0,0.990617,0.009383
503,86.0,0.991589,0.008411
504,47.0,0.992204,0.007796
505,642.0,0.992708,0.007292
506,672.0,0.992756,0.007244
507,97.0,0.992809,0.007191
508,606.0,0.992827,0.007173
509,166.0,0.993309,0.006691
510,155.0,0.993471,0.006529
511,602.0,0.993572,0.006428
512,282.0,0.993623,0.006377
513,373.0,0.993835,0.006165
514,668.0,0.994157,0.005843
515,481.0,0.994193,0.005807
516,405.0,0.994435,0.005565
517,204.0,0.994539,0.005461
518,660.0,0.994752,0.005248
519,679.0,0.994831,0.005169
520,154.0,0.994974,0.005026
521,439.0,0.994974,0.005026
522,619.0,0.994993,0.005007
523,455.0,0.994993,0.005007
524,323.0,0.995277,0.004723
525,510.0,0.99528,0.00472
526,345.0,0.995362,0.004638
527,124.0,0.995576,0.004424
528,677.0,0.995713,0.004287
529,460.0,0.995951,0.004049
530,623.0,0.996159,0.003841
531,36.0,0.996312,0.003688
532,253.0,0.996312,0.003688
533,169.0,0.996373,0.003627
534,162.0,0.996424,0.003576
535,243.0,0.996454,0.003546
536,317.0,0.996545,0.003455
537,43.0,0.996973,0.003027
538,261.0,0.997378,0.002622
539,151.0,0.997381,0.002619
540,37.0,0.997466,0.002534
541,691.0,0.997558,0.002442
542,707.0,0.997575,0.002425
543,125.0,0.997603,0.002397
544,357.0,0.997608,0.002392
545,541.0,0.997678,0.002322
546,384.0,0.997731,0.002269
547,354.0,0.997745,0.002255
548,561.0,0.997776,0.002224
549,713.0,0.997822,0.002178
550,468.0,0.997915,0.002085
551,653.0,0.997962,0.002038
552,497.0,0.998008,0.001992
553,225.0,0.998012,0.001988
554,111.0,0.998067,0.001933
555,641.0,0.998067,0.001933
556,451.0,0.998125,0.001875
557,443.0,0.998164,0.001836
558,633.0,0.998181,0.001819
559,375.0,0.998194,0.001806
560,72.0,0.998234,0.001766
561,131.0,0.998313,0.001687
562,736.0,0.998425,0.001575
563,721.0,0.998512,0.001488
564,438.0,0.998563,0.001437
565,77.0,0.998563,0.001437
566,21.0,0.998563,0.001437
567,487.0,0.998567,0.001433
568,504.0,0.998574,0.001426
569,179.0,0.998605,0.001395
570,241.0,0.998634,0.001366
571,563.0,0.998645,0.001355
572,71.0,0.998646,0.001354
573,719.0,0.998684,0.001316
574,436.0,0.998782,0.001218
575,453.0,0.99879,0.00121
576,391.0,0.998793,0.001207
577,604.0,0.998799,0.001201
578,349.0,0.998921,0.001079
579,410.0,0.998961,0.001039
580,614.0,0.999064,0.000936
581,588.0,0.999071,0.000929
582,66.0,0.999096,0.000904
583,730.0,0.999138,0.000862
584,590.0,0.999155,0.000845
585,555.0,0.999249,0.000751
586,116.0,0.999372,0.000628
587,318.0,0.999398,0.000602
588,100.0,0.999417,0.000583
589,674.0,0.999429,0.000571
590,160.0,0.999456,0.000544
591,347.0,0.999464,0.000536
592,219.0,0.999499,0.000501
593,415.0,0.999521,0.000479
594,694.0,0.999559,0.000441
595,68.0,0.999559,0.000441
596,58.0,0.999637,0.000363
597,235.0,0.999686,0.000314
598,74.0,0.999737,0.000263
599,6.0,0.999754,0.000246
600,215.0,0.999783,0.000217
601,267.0,0.999783,0.000217
602,314.0,0.999791,0.000209
603,228.0,0.999797,0.000203
604,627.0,0.999827,0.000173
605,15.0,0.999854,0.000146
606,608.0,0.999855,0.000145
607,492.0,0.99987,0.00013
608,293.0,0.999874,0.000126
609,355.0,0.999874,0.000126
610,580.0,0.999878,0.000122
611,205.0,0.999884,0.000116
612,41.0,0.99989,0.00011
613,341.0,0.999891,0.000109
614,163.0,0.999894,0.000106
615,198.0,0.999911,8.9e-05
616,409.0,0.999917,8.3e-05
617,708.0,0.999923,7.7e-05
618,27.0,0.999935,6.5e-05
619,629.0,0.999937,6.3e-05
620,667.0,0.999946,5.4e-05
621,432.0,0.999955,4.5e-05
622,113.0,0.999955,4.5e-05
623,158.0,0.999958,4.2e-05
624,283.0,0.999958,4.2e-05
625,626.0,0.999962,3.8e-05
626,697.0,0.999963,3.7e-05
627,213.0,0.999963,3.7e-05
628,369.0,0.999969,3.1e-05
629,512.0,0.99997,3e-05
630,167.0,0.999971,2.9e-05
631,646.0,0.999971,2.9e-05
632,370.0,0.999971,2.9e-05
633,486.0,0.999974,2.6e-05
634,390.0,0.999976,2.4e-05
635,164.0,0.999981,1.9e-05
636,740.0,0.999982,1.8e-05
637,302.0,0.999983,1.7e-05
638,156.0,0.999983,1.7e-05
639,44.0,0.999983,1.7e-05
640,3.0,0.999984,1.6e-05
641,87.0,0.999984,1.6e-05
642,387.0,0.999986,1.4e-05
643,520.0,0.999988,1.2e-05
644,461.0,0.999988,1.2e-05
645,507.0,0.99999,1e-05
646,147.0,0.999991,9e-06
647,321.0,0.999992,8e-06
648,484.0,0.999992,8e-06
649,336.0,0.999993,7e-06
650,496.0,0.999993,7e-06
651,38.0,0.999993,7e-06
652,4.0,0.999993,7e-06
653,126.0,0.999993,7e-06
654,269.0,0.999993,7e-06
655,686.0,0.999993,7e-06
656,363.0,0.999993,7e-06
657,101.0,0.999993,7e-06
658,144.0,0.999994,6e-06
659,393.0,0.999994,6e-06
660,581.0,0.999994,6e-06
661,249.0,0.999994,6e-06
662,330.0,0.999994,6e-06
663,51.0,0.999994,6e-06
664,301.0,0.999994,6e-06
665,551.0,0.999994,6e-06
666,108.0,0.999994,6e-06
667,737.0,0.999994,6e-06
668,543.0,0.999994,6e-06
669,96.0,0.999994,6e-06
670,666.0,0.999994,6e-06
671,678.0,0.999994,6e-06
672,185.0,0.999994,6e-06
673,305.0,0.999994,6e-06
674,483.0,0.999994,6e-06
675,63.0,0.999994,6e-06
676,2.0,0.999994,6e-06
677,573.0,0.999994,6e-06
678,657.0,0.999994,6e-06
679,290.0,0.999994,6e-06
680,88.0,0.999994,6e-06
681,597.0,0.999994,6e-06
682,266.0,0.999995,5e-06
683,212.0,0.999995,5e-06
684,673.0,0.999995,5e-06
685,474.0,0.999995,5e-06
686,181.0,0.999995,5e-06
687,149.0,0.999995,5e-06
688,411.0,0.999995,5e-06
689,271.0,0.999995,5e-06
690,537.0,0.999995,5e-06
691,182.0,0.999995,5e-06
692,294.0,0.999995,5e-06
693,661.0,0.999995,5e-06
694,367.0,0.999995,5e-06
695,717.0,0.999995,5e-06
696,117.0,0.999995,5e-06
697,197.0,0.999995,5e-06
698,230.0,0.999995,5e-06
699,25.0,0.999995,5e-06
700,343.0,0.999995,5e-06
701,122.0,0.999995,5e-06
702,503.0,0.999995,5e-06
703,622.0,0.999995,5e-06
704,718.0,0.999995,5e-06
705,16.0,0.999995,5e-06
706,457.0,0.999995,5e-06
707,647.0,0.999995,5e-06
708,23.0,0.999995,5e-06
709,174.0,0.999995,5e-06
710,593.0,0.999995,5e-06
711,658.0,0.999995,5e-06
712,637.0,0.999995,5e-06
713,136.0,0.999995,5e-06
714,218.0,0.999995,5e-06
715,135.0,0.999995,5e-06
716,729.0,0.999995,5e-06
717,13.0,0.999995,5e-06
718,603.0,0.999995,5e-06
719,459.0,0.999995,5e-06
720,568.0,0.999996,4e-06
721,7.0,0.999997,3e-06
722,550.0,0.999998,2e-06
723,139.0,0.999998,2e-06
724,493.0,0.999999,1e-06
725,609.0,0.999999,1e-06
726,368.0,0.999999,1e-06
727,20.0,1.0,0.0
728,448.0,1.0,0.0
729,184.0,1.0,0.0
730,90.0,1.0,0.0
731,644.0,1.0,0.0
732,291.0,1.0,0.0
733,549.0,1.0,0.0
734,107.0,1.0,0.0
735,178.0,1.0,0.0
736,598.0,1.0,0.0
737,407.0,1.0,0.0
738,209.0,1.0,0.0
739,511.0,1.0,0.0
740,309.0,1.0,0.0
741,22.0,1.0,0.0
