,idx,nominal,anomaly
0,440.0,0.48157,0.51843
1,15.0,0.483915,0.516085
2,153.0,0.486924,0.513076
3,202.0,0.48708,0.51292
4,7.0,0.488054,0.511946
5,53.0,0.488236,0.511764
6,210.0,0.489509,0.510491
7,352.0,0.490802,0.509198
8,98.0,0.491421,0.508579
9,324.0,0.491432,0.508568
10,415.0,0.491966,0.508034
11,32.0,0.49232,0.50768
12,57.0,0.492459,0.507541
13,212.0,0.492749,0.507251
14,1.0,0.493013,0.506987
15,368.0,0.493014,0.506986
16,90.0,0.493038,0.506962
17,332.0,0.493095,0.506905
18,243.0,0.493384,0.506616
19,56.0,0.493453,0.506547
20,83.0,0.494344,0.505656
21,343.0,0.494393,0.505607
22,327.0,0.494604,0.505396
23,176.0,0.494734,0.505266
24,29.0,0.494789,0.505211
25,361.0,0.495082,0.504918
26,310.0,0.495259,0.504741
27,431.0,0.495459,0.504541
28,113.0,0.495666,0.504334
29,97.0,0.495685,0.504315
30,198.0,0.496201,0.503799
31,220.0,0.496565,0.503435
32,317.0,0.496606,0.503394
33,79.0,0.496666,0.503334
34,213.0,0.496824,0.503176
35,95.0,0.497148,0.502852
36,162.0,0.497223,0.502777
37,172.0,0.497291,0.502709
38,407.0,0.497745,0.502255
39,121.0,0.497775,0.502225
40,405.0,0.497887,0.502113
41,268.0,0.497928,0.502072
42,311.0,0.497979,0.502021
43,65.0,0.498031,0.501969
44,70.0,0.49806,0.50194
45,194.0,0.498207,0.501793
46,91.0,0.498278,0.501722
47,4.0,0.49828,0.50172
48,67.0,0.498337,0.501663
49,235.0,0.498349,0.501651
50,413.0,0.498402,0.501598
51,328.0,0.498641,0.501359
52,281.0,0.498891,0.501109
53,306.0,0.498941,0.501059
54,27.0,0.498953,0.501047
55,315.0,0.498962,0.501038
56,300.0,0.499013,0.500987
57,178.0,0.499077,0.500923
58,285.0,0.49908,0.50092
59,223.0,0.499083,0.500917
60,421.0,0.499092,0.500908
61,292.0,0.499105,0.500895
62,433.0,0.499187,0.500813
63,94.0,0.499254,0.500746
64,139.0,0.499263,0.500737
65,308.0,0.499323,0.500677
66,236.0,0.499325,0.500675
67,168.0,0.499326,0.500674
68,75.0,0.499469,0.500531
69,341.0,0.499501,0.500499
70,298.0,0.499576,0.500424
71,424.0,0.499612,0.500388
72,257.0,0.499675,0.500325
73,201.0,0.499701,0.500299
74,164.0,0.499719,0.500281
75,152.0,0.499741,0.500259
76,412.0,0.49979,0.50021
77,339.0,0.499875,0.500125
78,21.0,0.49988,0.50012
79,20.0,0.499895,0.500105
80,138.0,0.499926,0.500074
81,406.0,0.499926,0.500074
82,33.0,0.499933,0.500067
83,418.0,0.499968,0.500032
84,414.0,0.499986,0.500014
85,426.0,0.500004,0.499996
86,23.0,0.500022,0.499978
87,132.0,0.500027,0.499973
88,239.0,0.500046,0.499954
89,419.0,0.500079,0.499921
90,227.0,0.50008,0.49992
91,290.0,0.500092,0.499908
92,46.0,0.500115,0.499885
93,397.0,0.500146,0.499854
94,38.0,0.500172,0.499828
95,363.0,0.500211,0.499789
96,378.0,0.500246,0.499754
97,103.0,0.500258,0.499742
98,393.0,0.500265,0.499735
99,77.0,0.500269,0.499731
100,435.0,0.50029,0.49971
101,387.0,0.500317,0.499683
102,273.0,0.500342,0.499658
103,80.0,0.500363,0.499637
104,211.0,0.500363,0.499637
105,3.0,0.500389,0.499611
106,392.0,0.500403,0.499597
107,52.0,0.500412,0.499588
108,335.0,0.500462,0.499538
109,294.0,0.500466,0.499534
110,356.0,0.500468,0.499532
111,293.0,0.50049,0.49951
112,120.0,0.500506,0.499494
113,279.0,0.500527,0.499473
114,438.0,0.500529,0.499471
115,219.0,0.50054,0.49946
116,346.0,0.500548,0.499452
117,135.0,0.500548,0.499452
118,102.0,0.50056,0.49944
119,147.0,0.500566,0.499434
120,394.0,0.500631,0.499369
121,88.0,0.500678,0.499322
122,173.0,0.500685,0.499315
123,276.0,0.5007,0.4993
124,145.0,0.500722,0.499278
125,12.0,0.500722,0.499278
126,320.0,0.500732,0.499268
127,260.0,0.500779,0.499221
128,411.0,0.500782,0.499218
129,142.0,0.500813,0.499187
130,161.0,0.500825,0.499175
131,384.0,0.500869,0.499131
132,224.0,0.500884,0.499116
133,49.0,0.500909,0.499091
134,402.0,0.500937,0.499063
135,288.0,0.500943,0.499057
136,301.0,0.500953,0.499047
137,353.0,0.500955,0.499045
138,196.0,0.500979,0.499021
139,259.0,0.500994,0.499006
140,215.0,0.500996,0.499004
141,76.0,0.501022,0.498978
142,316.0,0.501028,0.498972
143,254.0,0.501049,0.498951
144,354.0,0.501049,0.498951
145,148.0,0.501056,0.498944
146,443.0,0.501125,0.498875
147,111.0,0.501163,0.498837
148,390.0,0.501165,0.498835
149,151.0,0.501183,0.498817
150,297.0,0.501194,0.498806
151,416.0,0.501203,0.498797
152,366.0,0.501241,0.498759
153,313.0,0.501301,0.498699
154,101.0,0.501318,0.498682
155,442.0,0.50132,0.49868
156,410.0,0.501339,0.498661
157,58.0,0.501339,0.498661
158,248.0,0.501346,0.498654
159,373.0,0.501363,0.498637
160,379.0,0.501373,0.498627
161,380.0,0.501393,0.498607
162,420.0,0.501415,0.498585
163,377.0,0.50146,0.49854
164,432.0,0.501485,0.498515
165,55.0,0.501507,0.498493
166,193.0,0.501514,0.498486
167,445.0,0.501517,0.498483
168,61.0,0.501532,0.498468
169,216.0,0.501547,0.498453
170,200.0,0.50155,0.49845
171,34.0,0.501561,0.498439
172,197.0,0.501676,0.498324
173,180.0,0.50168,0.49832
174,359.0,0.501686,0.498314
175,362.0,0.50171,0.49829
176,336.0,0.501723,0.498277
177,230.0,0.501746,0.498254
178,249.0,0.501751,0.498249
179,100.0,0.501778,0.498222
180,404.0,0.501784,0.498216
181,283.0,0.501796,0.498204
182,187.0,0.501798,0.498202
183,304.0,0.501813,0.498187
184,124.0,0.501813,0.498187
185,238.0,0.501825,0.498175
186,399.0,0.501828,0.498172
187,150.0,0.501833,0.498167
188,275.0,0.501834,0.498166
189,137.0,0.501839,0.498161
190,89.0,0.501862,0.498138
191,265.0,0.501864,0.498136
192,401.0,0.501875,0.498125
193,81.0,0.501875,0.498125
194,167.0,0.501888,0.498112
195,192.0,0.501895,0.498105
196,131.0,0.501901,0.498099
197,166.0,0.501918,0.498082
198,42.0,0.501919,0.498081
199,409.0,0.501919,0.498081
200,232.0,0.501925,0.498075
201,45.0,0.501926,0.498074
202,182.0,0.501938,0.498062
203,118.0,0.501969,0.498031
204,376.0,0.501987,0.498013
205,240.0,0.501991,0.498009
206,274.0,0.502015,0.497985
207,8.0,0.502018,0.497982
208,348.0,0.502038,0.497962
209,133.0,0.502064,0.497936
210,429.0,0.502075,0.497925
211,226.0,0.502084,0.497916
212,261.0,0.502092,0.497908
213,337.0,0.502114,0.497886
214,349.0,0.502121,0.497879
215,277.0,0.50215,0.49785
216,347.0,0.502154,0.497846
217,222.0,0.502184,0.497816
218,228.0,0.502185,0.497815
219,217.0,0.50219,0.49781
220,125.0,0.502191,0.497809
221,74.0,0.502193,0.497807
222,154.0,0.502194,0.497806
223,245.0,0.502201,0.497799
224,417.0,0.502235,0.497765
225,386.0,0.502259,0.497741
226,10.0,0.502273,0.497727
227,19.0,0.502309,0.497691
228,171.0,0.502316,0.497684
229,282.0,0.502319,0.497681
230,365.0,0.50232,0.49768
231,126.0,0.502322,0.497678
232,122.0,0.50236,0.49764
233,73.0,0.502362,0.497638
234,358.0,0.502365,0.497635
235,66.0,0.502394,0.497606
236,44.0,0.502411,0.497589
237,253.0,0.502423,0.497577
238,434.0,0.502428,0.497572
239,234.0,0.502442,0.497558
240,314.0,0.502454,0.497546
241,272.0,0.502459,0.497541
242,357.0,0.50247,0.49753
243,289.0,0.502481,0.497519
244,307.0,0.502521,0.497479
245,338.0,0.502536,0.497464
246,181.0,0.50254,0.49746
247,50.0,0.502555,0.497445
248,11.0,0.502564,0.497436
249,41.0,0.502569,0.497431
250,2.0,0.502571,0.497429
251,6.0,0.502577,0.497423
252,189.0,0.502585,0.497415
253,251.0,0.502607,0.497393
254,266.0,0.50261,0.49739
255,318.0,0.502639,0.497361
256,241.0,0.502655,0.497345
257,47.0,0.502659,0.497341
258,22.0,0.502665,0.497335
259,110.0,0.50267,0.49733
260,374.0,0.502709,0.497291
261,312.0,0.502733,0.497267
262,233.0,0.50275,0.49725
263,87.0,0.50276,0.49724
264,270.0,0.502779,0.497221
265,205.0,0.502788,0.497212
266,371.0,0.502833,0.497167
267,39.0,0.502841,0.497159
268,269.0,0.502843,0.497157
269,221.0,0.502865,0.497135
270,9.0,0.502903,0.497097
271,344.0,0.502907,0.497093
272,140.0,0.502914,0.497086
273,16.0,0.502945,0.497055
274,165.0,0.502949,0.497051
275,351.0,0.502983,0.497017
276,127.0,0.503008,0.496992
277,381.0,0.50303,0.49697
278,30.0,0.503057,0.496943
279,280.0,0.503057,0.496943
280,408.0,0.503057,0.496943
281,437.0,0.503073,0.496927
282,396.0,0.503126,0.496874
283,28.0,0.503131,0.496869
284,334.0,0.503132,0.496868
285,208.0,0.503153,0.496847
286,372.0,0.503156,0.496844
287,391.0,0.503158,0.496842
288,326.0,0.503168,0.496832
289,93.0,0.503184,0.496816
290,59.0,0.503188,0.496812
291,117.0,0.503194,0.496806
292,450.0,0.503206,0.496794
293,342.0,0.503224,0.496776
294,209.0,0.503238,0.496762
295,62.0,0.503243,0.496757
296,355.0,0.503296,0.496704
297,370.0,0.503304,0.496696
298,40.0,0.503304,0.496696
299,130.0,0.503309,0.496691
300,447.0,0.503361,0.496639
301,382.0,0.503427,0.496573
302,284.0,0.503452,0.496548
303,43.0,0.503455,0.496545
304,207.0,0.503459,0.496541
305,309.0,0.503465,0.496535
306,218.0,0.503479,0.496521
307,319.0,0.503486,0.496514
308,18.0,0.503486,0.496514
309,425.0,0.503559,0.496441
310,179.0,0.503561,0.496439
311,160.0,0.503566,0.496434
312,169.0,0.503582,0.496418
313,134.0,0.503587,0.496413
314,423.0,0.503611,0.496389
315,31.0,0.50362,0.49638
316,400.0,0.503631,0.496369
317,163.0,0.503644,0.496356
318,321.0,0.503716,0.496284
319,85.0,0.503726,0.496274
320,256.0,0.503726,0.496274
321,203.0,0.503734,0.496266
322,51.0,0.503742,0.496258
323,206.0,0.503786,0.496214
324,86.0,0.503794,0.496206
325,360.0,0.503812,0.496188
326,287.0,0.503848,0.496152
327,263.0,0.503852,0.496148
328,229.0,0.503867,0.496133
329,449.0,0.503884,0.496116
330,439.0,0.50389,0.49611
331,322.0,0.503904,0.496096
332,116.0,0.503909,0.496091
333,186.0,0.503916,0.496084
334,250.0,0.50393,0.49607
335,383.0,0.503936,0.496064
336,105.0,0.504007,0.495993
337,17.0,0.504048,0.495952
338,82.0,0.504058,0.495942
339,37.0,0.504063,0.495937
340,119.0,0.504065,0.495935
341,48.0,0.504135,0.495865
342,183.0,0.504146,0.495854
343,14.0,0.504183,0.495817
344,278.0,0.504187,0.495813
345,369.0,0.504189,0.495811
346,422.0,0.504242,0.495758
347,25.0,0.504245,0.495755
348,286.0,0.504245,0.495755
349,295.0,0.50425,0.49575
350,177.0,0.504293,0.495707
351,175.0,0.504294,0.495706
352,191.0,0.504305,0.495695
353,258.0,0.504306,0.495694
354,350.0,0.504308,0.495692
355,291.0,0.504337,0.495663
356,444.0,0.504361,0.495639
357,72.0,0.504377,0.495623
358,225.0,0.504406,0.495594
359,364.0,0.504406,0.495594
360,185.0,0.504415,0.495585
361,78.0,0.504419,0.495581
362,299.0,0.504428,0.495572
363,271.0,0.504449,0.495551
364,446.0,0.504466,0.495534
365,195.0,0.504499,0.495501
366,441.0,0.5045,0.4955
367,24.0,0.504511,0.495489
368,237.0,0.504528,0.495472
369,430.0,0.504533,0.495467
370,99.0,0.504589,0.495411
371,199.0,0.504608,0.495392
372,389.0,0.504635,0.495365
373,204.0,0.504647,0.495353
374,71.0,0.504649,0.495351
375,388.0,0.5047,0.4953
376,146.0,0.504705,0.495295
377,54.0,0.504714,0.495286
378,92.0,0.504723,0.495277
379,242.0,0.504804,0.495196
380,96.0,0.504816,0.495184
381,69.0,0.504835,0.495165
382,60.0,0.504842,0.495158
383,68.0,0.504892,0.495108
384,115.0,0.504909,0.495091
385,252.0,0.504955,0.495045
386,333.0,0.50497,0.49503
387,170.0,0.504977,0.495023
388,296.0,0.504998,0.495002
389,114.0,0.505005,0.494995
390,302.0,0.505007,0.494993
391,157.0,0.505013,0.494987
392,158.0,0.505048,0.494952
393,398.0,0.50508,0.49492
394,305.0,0.505081,0.494919
395,136.0,0.505081,0.494919
396,331.0,0.505081,0.494919
397,244.0,0.505081,0.494919
398,267.0,0.505111,0.494889
399,144.0,0.505118,0.494882
400,149.0,0.505171,0.494829
401,123.0,0.505459,0.494541
402,143.0,0.505461,0.494539
403,26.0,0.505552,0.494448
404,375.0,0.505552,0.494448
405,104.0,0.505571,0.494429
406,109.0,0.505656,0.494344
407,330.0,0.505656,0.494344
408,345.0,0.505691,0.494309
409,84.0,0.505737,0.494263
410,35.0,0.50578,0.49422
411,5.0,0.505815,0.494185
412,214.0,0.505837,0.494163
413,448.0,0.505856,0.494144
414,340.0,0.506048,0.493952
415,255.0,0.506064,0.493936
416,264.0,0.506067,0.493933
417,155.0,0.506077,0.493923
418,108.0,0.506159,0.493841
419,247.0,0.506403,0.493597
420,329.0,0.506442,0.493558
421,403.0,0.506556,0.493444
422,188.0,0.506556,0.493444
423,231.0,0.506779,0.493221
424,112.0,0.506825,0.493175
425,325.0,0.506837,0.493163
426,159.0,0.506858,0.493142
427,63.0,0.506867,0.493133
428,262.0,0.50689,0.49311
429,106.0,0.507262,0.492738
430,303.0,0.507379,0.492621
431,141.0,0.507629,0.492371
432,385.0,0.507769,0.492231
433,13.0,0.507993,0.492007
434,129.0,0.508133,0.491867
435,156.0,0.508156,0.491844
436,64.0,0.508474,0.491526
437,395.0,0.508707,0.491293
438,428.0,0.508934,0.491066
439,128.0,0.508967,0.491033
440,436.0,0.509295,0.490705
441,367.0,0.509411,0.490589
442,184.0,0.509482,0.490518
443,174.0,0.510235,0.489765
444,107.0,0.510357,0.489643
445,246.0,0.51072,0.48928
446,427.0,0.511863,0.488137
447,323.0,0.512152,0.487848
448,36.0,0.512938,0.487062
449,190.0,0.513339,0.486661
