,idx,nominal,anomaly
0,1.0,0.38955,0.61045
1,210.0,0.38955,0.61045
2,213.0,0.38955,0.61045
3,220.0,0.38955,0.61045
4,235.0,0.38955,0.61045
5,236.0,0.38955,0.61045
6,56.0,0.38955,0.61045
7,55.0,0.38955,0.61045
8,202.0,0.38955,0.61045
9,238.0,0.38955,0.61045
10,246.0,0.38955,0.61045
11,255.0,0.38955,0.61045
12,257.0,0.38955,0.61045
13,264.0,0.38955,0.61045
14,265.0,0.38955,0.61045
15,268.0,0.38955,0.61045
16,46.0,0.38955,0.61045
17,53.0,0.38955,0.61045
18,65.0,0.38955,0.61045
19,198.0,0.38955,0.61045
20,194.0,0.38955,0.61045
21,95.0,0.38955,0.61045
22,97.0,0.38955,0.61045
23,98.0,0.38955,0.61045
24,83.0,0.38955,0.61045
25,101.0,0.38955,0.61045
26,103.0,0.38955,0.61045
27,112.0,0.38955,0.61045
28,113.0,0.38955,0.61045
29,121.0,0.38955,0.61045
30,124.0,0.38955,0.61045
31,143.0,0.38955,0.61045
32,147.0,0.38955,0.61045
33,153.0,0.38955,0.61045
34,157.0,0.38955,0.61045
35,170.0,0.38955,0.61045
36,178.0,0.38955,0.61045
37,190.0,0.38955,0.61045
38,91.0,0.38955,0.61045
39,42.0,0.38955,0.61045
40,274.0,0.38955,0.61045
41,295.0,0.38955,0.61045
42,294.0,0.38955,0.61045
43,19.0,0.38955,0.61045
44,381.0,0.38955,0.61045
45,393.0,0.38955,0.61045
46,399.0,0.38955,0.61045
47,15.0,0.38955,0.61045
48,405.0,0.38955,0.61045
49,410.0,0.38955,0.61045
50,361.0,0.38955,0.61045
51,412.0,0.38955,0.61045
52,415.0,0.38955,0.61045
53,421.0,0.38955,0.61045
54,426.0,0.38955,0.61045
55,7.0,0.38955,0.61045
56,431.0,0.38955,0.61045
57,435.0,0.38955,0.61045
58,3.0,0.38955,0.61045
59,440.0,0.38955,0.61045
60,11.0,0.38955,0.61045
61,356.0,0.38955,0.61045
62,90.0,0.38955,0.61045
63,32.0,0.38955,0.61045
64,311.0,0.38955,0.61045
65,23.0,0.38955,0.61045
66,315.0,0.38955,0.61045
67,324.0,0.38955,0.61045
68,300.0,0.38955,0.61045
69,308.0,0.38955,0.61045
70,332.0,0.38955,0.61045
71,328.0,0.38955,0.61045
72,28.0,0.38955,0.61045
73,27.0,0.38955,0.61045
74,337.0,0.38955,0.61045
75,339.0,0.38955,0.61045
76,352.0,0.38955,0.61045
77,29.0,0.38955,0.61045
78,304.0,0.38955,0.61045
79,86.0,0.450277,0.549723
80,94.0,0.475709,0.524291
81,313.0,0.479801,0.520199
82,279.0,0.494635,0.505365
83,212.0,0.498454,0.501546
84,77.0,0.502348,0.497652
85,287.0,0.508282,0.491718
86,379.0,0.522312,0.477688
87,4.0,0.527633,0.472367
88,105.0,0.54199,0.45801
89,216.0,0.542829,0.457171
90,450.0,0.545638,0.454362
91,298.0,0.551675,0.448325
92,402.0,0.565183,0.434817
93,301.0,0.576512,0.423488
94,139.0,0.585197,0.414803
95,17.0,0.587774,0.412226
96,49.0,0.594332,0.405668
97,158.0,0.604549,0.395451
98,424.0,0.613643,0.386357
99,253.0,0.616038,0.383962
100,341.0,0.6246,0.3754
101,272.0,0.633381,0.366619
102,447.0,0.645062,0.354938
103,251.0,0.656322,0.343678
104,407.0,0.660116,0.339884
105,283.0,0.665389,0.334611
106,416.0,0.66788,0.33212
107,273.0,0.670432,0.329568
108,219.0,0.672543,0.327457
109,199.0,0.672547,0.327453
110,164.0,0.673037,0.326963
111,371.0,0.679163,0.320837
112,290.0,0.68245,0.31755
113,148.0,0.686553,0.313447
114,387.0,0.694294,0.305706
115,84.0,0.696768,0.303232
116,33.0,0.701802,0.298198
117,340.0,0.706171,0.293829
118,172.0,0.707431,0.292569
119,228.0,0.711416,0.288584
120,335.0,0.713938,0.286062
121,254.0,0.715688,0.284312
122,243.0,0.723633,0.276367
123,307.0,0.724132,0.275868
124,189.0,0.729497,0.270503
125,187.0,0.73148,0.26852
126,67.0,0.735146,0.264854
127,373.0,0.739278,0.260722
128,40.0,0.753754,0.246246
129,370.0,0.755905,0.244095
130,369.0,0.757784,0.242216
131,223.0,0.759634,0.240366
132,343.0,0.766702,0.233298
133,276.0,0.767304,0.232696
134,51.0,0.776443,0.223557
135,176.0,0.776699,0.223301
136,218.0,0.77728,0.22272
137,422.0,0.784334,0.215666
138,161.0,0.784835,0.215165
139,206.0,0.787099,0.212901
140,346.0,0.793583,0.206417
141,360.0,0.794803,0.205197
142,191.0,0.797131,0.202869
143,377.0,0.79863,0.20137
144,227.0,0.806275,0.193725
145,433.0,0.811572,0.188428
146,167.0,0.815535,0.184465
147,76.0,0.819148,0.180852
148,232.0,0.826772,0.173228
149,34.0,0.829612,0.170388
150,347.0,0.830039,0.169961
151,21.0,0.830353,0.169647
152,120.0,0.830972,0.169028
153,183.0,0.833818,0.166182
154,179.0,0.837304,0.162696
155,437.0,0.838236,0.161764
156,126.0,0.839084,0.160916
157,237.0,0.841449,0.158551
158,88.0,0.842833,0.157167
159,47.0,0.844383,0.155617
160,446.0,0.845342,0.154658
161,427.0,0.846435,0.153565
162,196.0,0.847721,0.152279
163,12.0,0.847885,0.152115
164,260.0,0.852774,0.147226
165,168.0,0.854224,0.145776
166,200.0,0.854644,0.145356
167,430.0,0.857004,0.142996
168,211.0,0.858855,0.141145
169,397.0,0.860062,0.139938
170,169.0,0.861967,0.138033
171,288.0,0.862846,0.137154
172,401.0,0.864978,0.135022
173,154.0,0.866421,0.133579
174,144.0,0.866709,0.133291
175,368.0,0.867373,0.132627
176,310.0,0.867674,0.132326
177,292.0,0.868788,0.131212
178,89.0,0.869511,0.130489
179,195.0,0.871094,0.128906
180,404.0,0.87148,0.12852
181,182.0,0.874416,0.125584
182,323.0,0.874925,0.125075
183,130.0,0.878923,0.121077
184,378.0,0.880716,0.119284
185,209.0,0.880921,0.119079
186,193.0,0.88118,0.11882
187,270.0,0.884103,0.115897
188,37.0,0.884377,0.115623
189,160.0,0.885909,0.114091
190,117.0,0.886684,0.113316
191,372.0,0.888524,0.111476
192,400.0,0.890306,0.109694
193,429.0,0.892678,0.107322
194,115.0,0.893747,0.106253
195,318.0,0.894272,0.105728
196,43.0,0.898962,0.101038
197,58.0,0.900473,0.099527
198,282.0,0.901416,0.098584
199,443.0,0.90178,0.09822
200,215.0,0.901967,0.098033
201,152.0,0.902702,0.097298
202,357.0,0.90536,0.09464
203,205.0,0.906174,0.093826
204,398.0,0.906611,0.093389
205,241.0,0.907269,0.092731
206,224.0,0.908133,0.091867
207,159.0,0.908243,0.091757
208,349.0,0.90875,0.09125
209,358.0,0.910371,0.089629
210,9.0,0.910506,0.089494
211,197.0,0.910652,0.089348
212,234.0,0.910681,0.089319
213,71.0,0.912345,0.087655
214,35.0,0.913654,0.086346
215,249.0,0.913699,0.086301
216,80.0,0.915294,0.084706
217,87.0,0.915342,0.084658
218,177.0,0.918366,0.081634
219,100.0,0.919448,0.080552
220,351.0,0.920002,0.079998
221,192.0,0.922742,0.077258
222,93.0,0.924008,0.075992
223,151.0,0.924886,0.075114
224,222.0,0.926355,0.073645
225,240.0,0.926567,0.073433
226,175.0,0.927368,0.072632
227,2.0,0.928511,0.071489
228,252.0,0.929322,0.070678
229,322.0,0.92986,0.07014
230,203.0,0.929901,0.070099
231,366.0,0.931299,0.068701
232,201.0,0.932368,0.067632
233,68.0,0.933208,0.066792
234,82.0,0.934032,0.065968
235,326.0,0.934648,0.065352
236,127.0,0.935344,0.064656
237,102.0,0.935432,0.064568
238,142.0,0.936281,0.063719
239,413.0,0.936467,0.063533
240,48.0,0.936843,0.063157
241,207.0,0.937271,0.062729
242,411.0,0.937405,0.062595
243,386.0,0.938663,0.061337
244,417.0,0.940494,0.059506
245,63.0,0.94055,0.05945
246,54.0,0.940926,0.059074
247,74.0,0.941474,0.058526
248,291.0,0.942291,0.057709
249,327.0,0.942423,0.057577
250,138.0,0.942959,0.057041
251,319.0,0.943815,0.056185
252,354.0,0.944167,0.055833
253,141.0,0.945253,0.054747
254,314.0,0.945292,0.054708
255,79.0,0.945424,0.054576
256,320.0,0.946251,0.053749
257,338.0,0.946691,0.053309
258,325.0,0.946995,0.053005
259,131.0,0.947835,0.052165
260,420.0,0.947911,0.052089
261,173.0,0.948068,0.051932
262,108.0,0.948324,0.051676
263,423.0,0.948538,0.051462
264,132.0,0.949504,0.050496
265,245.0,0.950033,0.049967
266,165.0,0.950066,0.049934
267,289.0,0.950691,0.049309
268,439.0,0.951439,0.048561
269,18.0,0.951584,0.048416
270,92.0,0.951657,0.048343
271,284.0,0.952042,0.047958
272,269.0,0.952595,0.047405
273,359.0,0.952673,0.047327
274,14.0,0.952698,0.047302
275,444.0,0.952957,0.047043
276,281.0,0.953657,0.046343
277,122.0,0.953659,0.046341
278,180.0,0.953703,0.046297
279,137.0,0.954991,0.045009
280,390.0,0.95505,0.04495
281,5.0,0.95542,0.04458
282,185.0,0.95561,0.04439
283,104.0,0.95613,0.04387
284,166.0,0.956597,0.043403
285,348.0,0.957037,0.042963
286,45.0,0.957627,0.042373
287,181.0,0.957893,0.042107
288,445.0,0.958123,0.041877
289,119.0,0.958467,0.041533
290,336.0,0.958856,0.041144
291,111.0,0.958872,0.041128
292,334.0,0.958971,0.041029
293,31.0,0.959441,0.040559
294,266.0,0.959689,0.040311
295,384.0,0.959926,0.040074
296,293.0,0.960293,0.039707
297,362.0,0.961004,0.038996
298,44.0,0.961517,0.038483
299,8.0,0.961645,0.038355
300,441.0,0.961825,0.038175
301,133.0,0.962362,0.037638
302,317.0,0.96241,0.03759
303,85.0,0.963648,0.036352
304,256.0,0.963648,0.036352
305,391.0,0.963957,0.036043
306,155.0,0.963972,0.036028
307,434.0,0.964456,0.035544
308,406.0,0.964696,0.035304
309,312.0,0.964708,0.035292
310,20.0,0.96514,0.03486
311,204.0,0.965329,0.034671
312,6.0,0.965466,0.034534
313,299.0,0.966065,0.033935
314,140.0,0.967391,0.032609
315,363.0,0.967834,0.032166
316,428.0,0.967901,0.032099
317,355.0,0.967918,0.032082
318,75.0,0.9686,0.0314
319,41.0,0.968912,0.031088
320,72.0,0.968921,0.031079
321,38.0,0.969197,0.030803
322,146.0,0.96992,0.03008
323,344.0,0.969948,0.030052
324,350.0,0.970006,0.029994
325,389.0,0.970403,0.029597
326,24.0,0.970412,0.029588
327,364.0,0.970481,0.029519
328,449.0,0.970628,0.029372
329,345.0,0.970924,0.029076
330,52.0,0.97097,0.02903
331,383.0,0.971216,0.028784
332,221.0,0.971328,0.028672
333,61.0,0.97168,0.02832
334,263.0,0.972102,0.027898
335,302.0,0.972197,0.027803
336,174.0,0.972248,0.027752
337,134.0,0.972582,0.027418
338,208.0,0.973428,0.026572
339,403.0,0.973743,0.026257
340,188.0,0.973743,0.026257
341,128.0,0.974362,0.025638
342,296.0,0.974508,0.025492
343,217.0,0.975399,0.024601
344,145.0,0.975628,0.024372
345,285.0,0.97576,0.02424
346,248.0,0.977409,0.022591
347,277.0,0.978186,0.021814
348,275.0,0.978388,0.021612
349,271.0,0.978822,0.021178
350,16.0,0.979105,0.020895
351,267.0,0.979339,0.020661
352,316.0,0.979654,0.020346
353,374.0,0.979706,0.020294
354,96.0,0.980233,0.019767
355,385.0,0.980349,0.019651
356,66.0,0.980672,0.019328
357,60.0,0.981193,0.018807
358,261.0,0.981289,0.018711
359,239.0,0.981946,0.018054
360,107.0,0.981966,0.018034
361,309.0,0.982077,0.017923
362,171.0,0.982252,0.017748
363,225.0,0.982399,0.017601
364,186.0,0.982446,0.017554
365,303.0,0.982915,0.017085
366,333.0,0.982948,0.017052
367,329.0,0.983501,0.016499
368,163.0,0.984104,0.015896
369,247.0,0.984462,0.015538
370,109.0,0.984666,0.015334
371,330.0,0.984666,0.015334
372,414.0,0.984889,0.015111
373,394.0,0.985044,0.014956
374,376.0,0.985142,0.014858
375,22.0,0.98524,0.01476
376,419.0,0.985416,0.014584
377,278.0,0.985423,0.014577
378,242.0,0.985451,0.014549
379,116.0,0.985497,0.014503
380,425.0,0.985627,0.014373
381,10.0,0.985901,0.014099
382,297.0,0.985976,0.014024
383,353.0,0.98605,0.01395
384,388.0,0.987628,0.012372
385,418.0,0.987945,0.012055
386,380.0,0.988261,0.011739
387,432.0,0.988695,0.011305
388,150.0,0.989034,0.010966
389,409.0,0.989525,0.010475
390,73.0,0.990076,0.009924
391,365.0,0.990146,0.009854
392,59.0,0.990314,0.009686
393,81.0,0.990394,0.009606
394,162.0,0.991097,0.008903
395,118.0,0.991364,0.008636
396,78.0,0.991529,0.008471
397,306.0,0.991897,0.008103
398,342.0,0.992134,0.007866
399,135.0,0.992217,0.007783
400,156.0,0.992477,0.007523
401,229.0,0.99258,0.00742
402,392.0,0.992718,0.007282
403,57.0,0.992733,0.007267
404,39.0,0.992766,0.007234
405,438.0,0.993132,0.006868
406,114.0,0.993144,0.006856
407,99.0,0.993326,0.006674
408,125.0,0.993529,0.006471
409,110.0,0.993538,0.006462
410,442.0,0.993783,0.006217
411,149.0,0.993806,0.006194
412,233.0,0.993887,0.006113
413,69.0,0.994124,0.005876
414,448.0,0.994341,0.005659
415,62.0,0.994611,0.005389
416,375.0,0.995011,0.004989
417,26.0,0.995011,0.004989
418,230.0,0.995297,0.004703
419,396.0,0.995331,0.004669
420,250.0,0.995451,0.004549
421,382.0,0.995457,0.004543
422,258.0,0.995835,0.004165
423,64.0,0.996238,0.003762
424,70.0,0.996881,0.003119
425,367.0,0.997014,0.002986
426,226.0,0.997222,0.002778
427,25.0,0.997227,0.002773
428,286.0,0.997227,0.002773
429,321.0,0.997623,0.002377
430,50.0,0.997844,0.002156
431,395.0,0.997845,0.002155
432,30.0,0.997903,0.002097
433,408.0,0.997903,0.002097
434,280.0,0.997903,0.002097
435,123.0,0.998075,0.001925
436,262.0,0.99831,0.00169
437,259.0,0.998369,0.001631
438,106.0,0.998565,0.001435
439,184.0,0.998641,0.001359
440,244.0,0.998893,0.001107
441,305.0,0.998893,0.001107
442,136.0,0.998893,0.001107
443,331.0,0.998893,0.001107
444,436.0,0.999089,0.000911
445,13.0,0.999774,0.000226
446,129.0,0.999894,0.000106
447,214.0,0.999982,1.8e-05
448,36.0,0.999991,9e-06
449,231.0,0.999998,2e-06
