,idx,nominal,anomaly
0,2743.0,0.0,1.0
1,387.0,0.0,1.0
2,3079.0,0.0,1.0
3,2809.0,0.0,1.0
4,1157.0,0.0,1.0
5,2695.0,0.0,1.0
6,2408.0,0.0,1.0
7,3142.0,0.0,1.0
8,2025.0,0.0,1.0
9,2219.0,0.0,1.0
10,2463.0,0.0,1.0
11,2253.0,0.0,1.0
12,582.0,0.0,1.0
13,324.0,0.0,1.0
14,451.0,0.0,1.0
15,739.0,0.0,1.0
16,1245.0,0.0,1.0
17,1952.0,0.0,1.0
18,2885.0,0.0,1.0
19,362.0,0.0,1.0
20,1961.0,1e-06,0.999999
21,3240.0,1e-06,0.999999
22,1737.0,1e-06,0.999999
23,1218.0,1e-06,0.999999
24,1875.0,1e-06,0.999999
25,1606.0,1e-06,0.999999
26,1975.0,2e-06,0.999998
27,132.0,2e-06,0.999998
28,518.0,3e-06,0.999997
29,1858.0,5e-06,0.999995
30,2614.0,5e-06,0.999995
31,2753.0,6e-06,0.999994
32,119.0,7e-06,0.999993
33,3081.0,7e-06,0.999993
34,1725.0,7e-06,0.999993
35,1627.0,8e-06,0.999992
36,2137.0,1.1e-05,0.999989
37,529.0,1.3e-05,0.999987
38,2863.0,1.4e-05,0.999986
39,2033.0,2e-05,0.99998
40,815.0,2.3e-05,0.999977
41,261.0,3.2e-05,0.999968
42,941.0,3.6e-05,0.999964
43,1549.0,3.6e-05,0.999964
44,3012.0,3.8e-05,0.999962
45,3250.0,5.4e-05,0.999946
46,284.0,5.9e-05,0.999941
47,1843.0,6.6e-05,0.999934
48,893.0,7.2e-05,0.999928
49,891.0,7.5e-05,0.999925
50,2223.0,0.000116,0.999884
51,1242.0,0.00012,0.99988
52,364.0,0.000124,0.999876
53,1582.0,0.000125,0.999875
54,526.0,0.000134,0.999866
55,1454.0,0.000135,0.999865
56,2125.0,0.000138,0.999862
57,841.0,0.000139,0.999861
58,1572.0,0.000142,0.999858
59,1713.0,0.000143,0.999857
60,555.0,0.000146,0.999854
61,1431.0,0.000168,0.999832
62,1829.0,0.000169,0.999831
63,272.0,0.000181,0.999819
64,3206.0,0.000187,0.999813
65,168.0,0.000196,0.999804
66,1742.0,0.000217,0.999783
67,2894.0,0.000257,0.999743
68,1223.0,0.000267,0.999733
69,2152.0,0.000268,0.999732
70,2943.0,0.000278,0.999722
71,283.0,0.000311,0.999689
72,996.0,0.00032,0.99968
73,1249.0,0.000323,0.999677
74,2878.0,0.000353,0.999647
75,2929.0,0.000389,0.999611
76,2234.0,0.000408,0.999592
77,1577.0,0.000429,0.999571
78,2806.0,0.000467,0.999533
79,699.0,0.000474,0.999526
80,2187.0,0.000477,0.999523
81,2247.0,0.000479,0.999521
82,1480.0,0.000506,0.999494
83,1806.0,0.000507,0.999493
84,810.0,0.000509,0.999491
85,3263.0,0.000522,0.999478
86,2090.0,0.000525,0.999475
87,2990.0,0.000551,0.999449
88,2189.0,0.000571,0.999429
89,2959.0,0.000585,0.999415
90,54.0,0.000672,0.999328
91,869.0,0.000696,0.999304
92,847.0,0.000737,0.999263
93,1588.0,0.000756,0.999244
94,2498.0,0.000775,0.999225
95,1187.0,0.00083,0.99917
96,203.0,0.000853,0.999147
97,1104.0,0.000861,0.999139
98,1429.0,0.000866,0.999134
99,1248.0,0.000879,0.999121
100,3055.0,0.000886,0.999114
101,2353.0,0.000915,0.999085
102,1352.0,0.000921,0.999079
103,122.0,0.000923,0.999077
104,1476.0,0.000962,0.999038
105,561.0,0.001069,0.998931
106,2625.0,0.001073,0.998927
107,267.0,0.001124,0.998876
108,1070.0,0.001143,0.998857
109,2324.0,0.001181,0.998819
110,709.0,0.001187,0.998813
111,161.0,0.00121,0.99879
112,2928.0,0.001243,0.998757
113,1874.0,0.001267,0.998733
114,1844.0,0.00131,0.99869
115,2000.0,0.001364,0.998636
116,1559.0,0.001486,0.998514
117,2006.0,0.001506,0.998494
118,2821.0,0.001506,0.998494
119,705.0,0.001532,0.998468
120,3052.0,0.001587,0.998413
121,1768.0,0.00161,0.99839
122,1800.0,0.001657,0.998343
123,1348.0,0.001737,0.998263
124,2576.0,0.001745,0.998255
125,62.0,0.001854,0.998146
126,1833.0,0.001867,0.998133
127,1297.0,0.001905,0.998095
128,560.0,0.002074,0.997926
129,1950.0,0.002156,0.997844
130,2196.0,0.002279,0.997721
131,141.0,0.002301,0.997699
132,3119.0,0.002462,0.997538
133,1020.0,0.002491,0.997509
134,22.0,0.002537,0.997463
135,1107.0,0.002557,0.997443
136,2858.0,0.00256,0.99744
137,1548.0,0.002625,0.997375
138,2022.0,0.002748,0.997252
139,156.0,0.002859,0.997141
140,939.0,0.002877,0.997123
141,1361.0,0.002987,0.997013
142,769.0,0.003013,0.996987
143,2113.0,0.003064,0.996936
144,3022.0,0.003132,0.996868
145,2356.0,0.00318,0.99682
146,2692.0,0.003237,0.996763
147,2350.0,0.00325,0.99675
148,2513.0,0.003358,0.996642
149,1551.0,0.003404,0.996596
150,2056.0,0.003624,0.996376
151,1061.0,0.00366,0.99634
152,129.0,0.003741,0.996259
153,3049.0,0.003823,0.996177
154,755.0,0.00385,0.99615
155,265.0,0.003876,0.996124
156,2960.0,0.003941,0.996059
157,1175.0,0.003958,0.996042
158,947.0,0.003991,0.996009
159,1937.0,0.004019,0.995981
160,643.0,0.004122,0.995878
161,2051.0,0.004133,0.995867
162,765.0,0.004175,0.995825
163,593.0,0.004218,0.995782
164,2217.0,0.004242,0.995758
165,491.0,0.004304,0.995696
166,2019.0,0.004443,0.995557
167,1626.0,0.004454,0.995546
168,3140.0,0.004636,0.995364
169,632.0,0.004733,0.995267
170,1355.0,0.004822,0.995178
171,994.0,0.004923,0.995077
172,698.0,0.004947,0.995053
173,1282.0,0.00495,0.99505
174,3262.0,0.005032,0.994968
175,1301.0,0.005066,0.994934
176,1360.0,0.005298,0.994702
177,1049.0,0.005331,0.994669
178,639.0,0.005459,0.994541
179,2946.0,0.00547,0.99453
180,268.0,0.005573,0.994427
181,3054.0,0.005737,0.994263
182,824.0,0.00576,0.99424
183,2758.0,0.005806,0.994194
184,2562.0,0.00586,0.99414
185,2520.0,0.005902,0.994098
186,1085.0,0.006075,0.993925
187,3205.0,0.006172,0.993828
188,2941.0,0.006215,0.993785
189,2851.0,0.006505,0.993495
190,1436.0,0.006641,0.993359
191,2062.0,0.006689,0.993311
192,3024.0,0.006784,0.993216
193,425.0,0.007055,0.992945
194,3164.0,0.007075,0.992925
195,1037.0,0.007109,0.992891
196,2341.0,0.007142,0.992858
197,42.0,0.007164,0.992836
198,693.0,0.007194,0.992806
199,3247.0,0.007232,0.992768
200,901.0,0.007422,0.992578
201,330.0,0.007523,0.992477
202,2124.0,0.007659,0.992341
203,983.0,0.007929,0.992071
204,2734.0,0.008189,0.991811
205,2850.0,0.008292,0.991708
206,2277.0,0.008367,0.991633
207,1005.0,0.008385,0.991615
208,1614.0,0.008441,0.991559
209,2147.0,0.008523,0.991477
210,2003.0,0.008595,0.991405
211,1601.0,0.008637,0.991363
212,826.0,0.008641,0.991359
213,1419.0,0.008882,0.991118
214,1211.0,0.008895,0.991105
215,1023.0,0.008919,0.991081
216,2242.0,0.008926,0.991074
217,1460.0,0.008944,0.991056
218,2951.0,0.009057,0.990943
219,640.0,0.009067,0.990933
220,2413.0,0.009094,0.990906
221,87.0,0.009135,0.990865
222,303.0,0.00917,0.99083
223,2001.0,0.009331,0.990669
224,1523.0,0.009381,0.990619
225,79.0,0.009764,0.990236
226,1379.0,0.010043,0.989957
227,812.0,0.010047,0.989953
228,1347.0,0.010556,0.989444
229,1106.0,0.010577,0.989423
230,2852.0,0.010578,0.989422
231,722.0,0.010582,0.989418
232,229.0,0.010711,0.989289
233,1147.0,0.010728,0.989272
234,337.0,0.010827,0.989173
235,2942.0,0.010884,0.989116
236,497.0,0.010908,0.989092
237,3199.0,0.011083,0.988917
238,1908.0,0.01149,0.98851
239,1235.0,0.011559,0.988441
240,1944.0,0.011636,0.988364
241,499.0,0.011891,0.988109
242,562.0,0.011934,0.988066
243,2767.0,0.011947,0.988053
244,347.0,0.01203,0.98797
245,2588.0,0.012255,0.987745
246,856.0,0.01239,0.98761
247,2694.0,0.012773,0.987227
248,2421.0,0.012816,0.987184
249,307.0,0.012993,0.987007
250,446.0,0.013153,0.986847
251,201.0,0.013397,0.986603
252,384.0,0.013503,0.986497
253,301.0,0.013692,0.986308
254,1263.0,0.013843,0.986157
255,2991.0,0.013859,0.986141
256,1069.0,0.014196,0.985804
257,278.0,0.014453,0.985547
258,1201.0,0.014563,0.985437
259,1253.0,0.01467,0.98533
260,2683.0,0.014724,0.985276
261,1052.0,0.014947,0.985053
262,2026.0,0.014975,0.985025
263,1237.0,0.015392,0.984608
264,2208.0,0.015547,0.984453
265,2684.0,0.015785,0.984215
266,1354.0,0.015926,0.984074
267,629.0,0.016535,0.983465
268,2818.0,0.016586,0.983414
269,448.0,0.016698,0.983302
270,612.0,0.016853,0.983147
271,1364.0,0.016865,0.983135
272,579.0,0.017179,0.982821
273,2399.0,0.017318,0.982682
274,3259.0,0.01754,0.98246
275,2297.0,0.017603,0.982397
276,143.0,0.017844,0.982156
277,192.0,0.018006,0.981994
278,2338.0,0.018112,0.981888
279,1945.0,0.01823,0.98177
280,966.0,0.018353,0.981647
281,2154.0,0.018437,0.981563
282,2754.0,0.019248,0.980752
283,3037.0,0.01926,0.98074
284,1325.0,0.019639,0.980361
285,1629.0,0.019703,0.980297
286,679.0,0.019798,0.980202
287,464.0,0.02056,0.97944
288,1339.0,0.020599,0.979401
289,396.0,0.021102,0.978898
290,2330.0,0.021385,0.978615
291,1620.0,0.02201,0.97799
292,919.0,0.022099,0.977901
293,1072.0,0.022323,0.977677
294,1031.0,0.022883,0.977117
295,2647.0,0.02289,0.97711
296,2920.0,0.022902,0.977098
297,2817.0,0.022974,0.977026
298,477.0,0.02318,0.97682
299,63.0,0.023484,0.976516
300,3128.0,0.02366,0.97634
301,1456.0,0.024123,0.975877
302,2975.0,0.024175,0.975825
303,314.0,0.024267,0.975733
304,1183.0,0.024505,0.975495
305,70.0,0.024602,0.975398
306,2798.0,0.024618,0.975382
307,814.0,0.024871,0.975129
308,1658.0,0.024879,0.975121
309,2540.0,0.025374,0.974626
310,3041.0,0.025848,0.974152
311,2913.0,0.02593,0.97407
312,2902.0,0.02604,0.97396
313,1215.0,0.026526,0.973474
314,1409.0,0.026533,0.973467
315,1341.0,0.026553,0.973447
316,671.0,0.026787,0.973213
317,1467.0,0.027331,0.972669
318,1946.0,0.027536,0.972464
319,2185.0,0.027541,0.972459
320,64.0,0.027542,0.972458
321,2717.0,0.027601,0.972399
322,870.0,0.027681,0.972319
323,1615.0,0.027792,0.972208
324,1920.0,0.028263,0.971737
325,2383.0,0.028401,0.971599
326,2058.0,0.028686,0.971314
327,1757.0,0.029545,0.970455
328,1443.0,0.02958,0.97042
329,2352.0,0.029691,0.970309
330,3016.0,0.029801,0.970199
331,333.0,0.029928,0.970072
332,1734.0,0.030247,0.969753
333,6.0,0.03026,0.96974
334,787.0,0.031147,0.968853
335,2700.0,0.03136,0.96864
336,1139.0,0.031449,0.968551
337,1506.0,0.03145,0.96855
338,2746.0,0.031952,0.968048
339,2653.0,0.031985,0.968015
340,1567.0,0.032003,0.967997
341,2640.0,0.032062,0.967938
342,1486.0,0.032293,0.967707
343,3171.0,0.032513,0.967487
344,244.0,0.032926,0.967074
345,2405.0,0.03293,0.96707
346,2766.0,0.033376,0.966624
347,2349.0,0.033445,0.966555
348,2801.0,0.033596,0.966404
349,552.0,0.034078,0.965922
350,2916.0,0.034358,0.965642
351,2116.0,0.034726,0.965274
352,1342.0,0.035013,0.964987
353,3004.0,0.035149,0.964851
354,641.0,0.035716,0.964284
355,1855.0,0.035966,0.964034
356,2034.0,0.036118,0.963882
357,80.0,0.036119,0.963881
358,554.0,0.036173,0.963827
359,1411.0,0.036327,0.963673
360,694.0,0.036327,0.963673
361,1997.0,0.036327,0.963673
362,1746.0,0.036644,0.963356
363,1747.0,0.036673,0.963327
364,1690.0,0.03694,0.96306
365,2764.0,0.037682,0.962318
366,1930.0,0.038129,0.961871
367,786.0,0.038908,0.961092
368,2105.0,0.039686,0.960314
369,1687.0,0.040194,0.959806
370,589.0,0.040207,0.959793
371,463.0,0.040215,0.959785
372,2150.0,0.041355,0.958645
373,2998.0,0.04195,0.95805
374,1847.0,0.042579,0.957421
375,1159.0,0.043349,0.956651
376,574.0,0.043578,0.956422
377,911.0,0.043668,0.956332
378,2010.0,0.044899,0.955101
379,2409.0,0.04503,0.95497
380,2345.0,0.045894,0.954106
381,3005.0,0.046066,0.953934
382,1164.0,0.046256,0.953744
383,3038.0,0.046379,0.953621
384,677.0,0.046578,0.953422
385,523.0,0.046721,0.953279
386,2884.0,0.047064,0.952936
387,2527.0,0.047079,0.952921
388,3065.0,0.047259,0.952741
389,2536.0,0.047856,0.952144
390,2448.0,0.048048,0.951952
391,2925.0,0.048078,0.951922
392,2155.0,0.048094,0.951906
393,291.0,0.049062,0.950938
394,1621.0,0.049111,0.950889
395,2593.0,0.049953,0.950047
396,934.0,0.050124,0.949876
397,493.0,0.050295,0.949705
398,2733.0,0.050741,0.949259
399,2947.0,0.050896,0.949104
400,1736.0,0.051114,0.948886
401,1482.0,0.052224,0.947776
402,1575.0,0.05252,0.94748
403,3019.0,0.052767,0.947233
404,1600.0,0.053052,0.946948
405,1065.0,0.053504,0.946496
406,2145.0,0.053835,0.946165
407,2912.0,0.054018,0.945982
408,251.0,0.054156,0.945844
409,1956.0,0.054576,0.945424
410,2143.0,0.054706,0.945294
411,1889.0,0.054725,0.945275
412,3252.0,0.055485,0.944515
413,2485.0,0.05577,0.94423
414,1982.0,0.055779,0.944221
415,2118.0,0.05641,0.94359
416,321.0,0.057645,0.942355
417,2930.0,0.057822,0.942178
418,1264.0,0.057867,0.942133
419,3192.0,0.058006,0.941994
420,866.0,0.058186,0.941814
421,2891.0,0.058634,0.941366
422,56.0,0.058641,0.941359
423,871.0,0.058693,0.941307
424,2896.0,0.05894,0.94106
425,1508.0,0.058979,0.941021
426,104.0,0.059003,0.940997
427,2117.0,0.059806,0.940194
428,907.0,0.059884,0.940116
429,1241.0,0.060131,0.939869
430,2226.0,0.060966,0.939034
431,186.0,0.061107,0.938893
432,878.0,0.06136,0.93864
433,1803.0,0.061511,0.938489
434,987.0,0.061716,0.938284
435,2965.0,0.062063,0.937937
436,1220.0,0.062505,0.937495
437,1771.0,0.06262,0.93738
438,736.0,0.062711,0.937289
439,653.0,0.062982,0.937018
440,1433.0,0.063615,0.936385
441,360.0,0.063666,0.936334
442,391.0,0.064112,0.935888
443,751.0,0.064464,0.935536
444,927.0,0.064825,0.935175
445,2506.0,0.064965,0.935035
446,108.0,0.065057,0.934943
447,3208.0,0.065228,0.934772
448,1302.0,0.065483,0.934517
449,2761.0,0.065912,0.934088
450,1819.0,0.06609,0.93391
451,328.0,0.066245,0.933755
452,3210.0,0.066934,0.933066
453,531.0,0.067638,0.932362
454,1509.0,0.068114,0.931886
455,993.0,0.068153,0.931847
456,1029.0,0.068213,0.931787
457,2680.0,0.068489,0.931511
458,2254.0,0.068525,0.931475
459,2243.0,0.068536,0.931464
460,543.0,0.068693,0.931307
461,1599.0,0.069171,0.930829
462,1208.0,0.069582,0.930418
463,271.0,0.070419,0.929581
464,383.0,0.070426,0.929574
465,973.0,0.071454,0.928546
466,2781.0,0.071846,0.928154
467,2100.0,0.072115,0.927885
468,3235.0,0.072278,0.927722
469,422.0,0.073042,0.926958
470,734.0,0.073484,0.926516
471,721.0,0.073613,0.926387
472,1135.0,0.07384,0.92616
473,238.0,0.074057,0.925943
474,187.0,0.074454,0.925546
475,1581.0,0.074865,0.925135
476,3153.0,0.074905,0.925095
477,982.0,0.075048,0.924952
478,121.0,0.07514,0.92486
479,2737.0,0.075427,0.924573
480,3213.0,0.075657,0.924343
481,943.0,0.075717,0.924283
482,1528.0,0.075759,0.924241
483,1170.0,0.076307,0.923693
484,2945.0,0.076436,0.923564
485,1320.0,0.076538,0.923462
486,2194.0,0.076929,0.923071
487,2974.0,0.078084,0.921916
488,2186.0,0.078117,0.921883
489,781.0,0.0783,0.9217
490,1465.0,0.078525,0.921475
491,167.0,0.078597,0.921403
492,125.0,0.078609,0.921391
493,2132.0,0.078733,0.921267
494,1649.0,0.079096,0.920904
495,55.0,0.079592,0.920408
496,489.0,0.079736,0.920264
497,1172.0,0.079892,0.920108
498,1210.0,0.0802,0.9198
499,2424.0,0.080404,0.919596
500,2643.0,0.080408,0.919592
501,3191.0,0.080621,0.919379
502,1227.0,0.080746,0.919254
503,1870.0,0.081297,0.918703
504,745.0,0.082661,0.917339
505,1036.0,0.084443,0.915557
506,1312.0,0.084484,0.915516
507,350.0,0.084924,0.915076
508,944.0,0.085539,0.914461
509,1353.0,0.08602,0.91398
510,1987.0,0.086518,0.913482
511,2545.0,0.086737,0.913263
512,669.0,0.086862,0.913138
513,1552.0,0.087058,0.912942
514,1814.0,0.087248,0.912752
515,1834.0,0.08751,0.91249
516,264.0,0.087624,0.912376
517,916.0,0.087661,0.912339
518,1786.0,0.087756,0.912244
519,2556.0,0.08784,0.91216
520,898.0,0.088375,0.911625
521,2382.0,0.088912,0.911088
522,1851.0,0.089599,0.910401
523,1148.0,0.089789,0.910211
524,2430.0,0.089999,0.910001
525,921.0,0.090147,0.909853
526,2443.0,0.090288,0.909712
527,2805.0,0.0904,0.9096
528,457.0,0.090813,0.909187
529,642.0,0.091526,0.908474
530,305.0,0.091747,0.908253
531,2228.0,0.091789,0.908211
532,1039.0,0.092306,0.907694
533,2768.0,0.092558,0.907442
534,1594.0,0.09297,0.90703
535,1735.0,0.092992,0.907008
536,2514.0,0.093569,0.906431
537,1564.0,0.093585,0.906415
538,2393.0,0.093749,0.906251
539,2052.0,0.093824,0.906176
540,3181.0,0.09447,0.90553
541,3149.0,0.094922,0.905078
542,232.0,0.095229,0.904771
543,163.0,0.09532,0.90468
544,762.0,0.095665,0.904335
545,3145.0,0.095841,0.904159
546,3092.0,0.09603,0.90397
547,2865.0,0.096275,0.903725
548,1181.0,0.096648,0.903352
549,2659.0,0.096964,0.903036
550,1688.0,0.098206,0.901794
551,2933.0,0.098659,0.901341
552,2361.0,0.099153,0.900847
553,2046.0,0.099991,0.900009
554,137.0,0.100689,0.899311
555,1743.0,0.101009,0.898991
556,1934.0,0.101681,0.898319
557,975.0,0.102182,0.897818
558,3167.0,0.102665,0.897335
559,2666.0,0.103064,0.896936
560,37.0,0.10331,0.89669
561,180.0,0.103696,0.896304
562,610.0,0.10379,0.89621
563,516.0,0.103825,0.896175
564,2846.0,0.104041,0.895959
565,2910.0,0.104239,0.895761
566,1799.0,0.104275,0.895725
567,2672.0,0.104289,0.895711
568,1475.0,0.104303,0.895697
569,2797.0,0.104854,0.895146
570,1714.0,0.104913,0.895087
571,1117.0,0.105284,0.894716
572,1034.0,0.106054,0.893946
573,2828.0,0.106449,0.893551
574,483.0,0.106693,0.893307
575,3125.0,0.107073,0.892927
576,3137.0,0.107102,0.892898
577,311.0,0.107196,0.892804
578,2510.0,0.107513,0.892487
579,2486.0,0.108165,0.891835
580,1781.0,0.108943,0.891057
581,2483.0,0.11007,0.88993
582,697.0,0.110515,0.889485
583,963.0,0.110615,0.889385
584,2932.0,0.111099,0.888901
585,2713.0,0.11126,0.88874
586,2641.0,0.111517,0.888483
587,1817.0,0.111872,0.888128
588,504.0,0.111913,0.888087
589,3224.0,0.112081,0.887919
590,3133.0,0.112194,0.887806
591,988.0,0.112254,0.887746
592,2094.0,0.112454,0.887546
593,890.0,0.112515,0.887485
594,1835.0,0.113268,0.886732
595,926.0,0.113389,0.886611
596,385.0,0.113729,0.886271
597,570.0,0.114579,0.885421
598,1896.0,0.114772,0.885228
599,1067.0,0.114841,0.885159
600,1033.0,0.115249,0.884751
601,2699.0,0.115851,0.884149
602,3221.0,0.11711,0.88289
603,1951.0,0.117539,0.882461
604,965.0,0.117712,0.882288
605,91.0,0.118124,0.881876
606,1027.0,0.118378,0.881622
607,2371.0,0.119564,0.880436
608,843.0,0.119756,0.880244
609,630.0,0.119981,0.880019
610,1413.0,0.120216,0.879784
611,3068.0,0.120617,0.879383
612,2098.0,0.120728,0.879272
613,109.0,0.121114,0.878886
614,1098.0,0.122944,0.877056
615,1704.0,0.123025,0.876975
616,482.0,0.123111,0.876889
617,1043.0,0.124228,0.875772
618,3182.0,0.124475,0.875525
619,23.0,0.124541,0.875459
620,1668.0,0.12566,0.87434
621,2111.0,0.125955,0.874045
622,1332.0,0.126055,0.873945
623,710.0,0.126298,0.873702
624,1825.0,0.126489,0.873511
625,2130.0,0.127676,0.872324
626,809.0,0.128059,0.871941
627,309.0,0.128268,0.871732
628,2606.0,0.128625,0.871375
629,2403.0,0.129705,0.870295
630,2807.0,0.130007,0.869993
631,2875.0,0.130358,0.869642
632,2589.0,0.130429,0.869571
633,1134.0,0.130858,0.869142
634,1239.0,0.131064,0.868936
635,3002.0,0.131103,0.868897
636,1276.0,0.131297,0.868703
637,1780.0,0.132186,0.867814
638,3255.0,0.132468,0.867532
639,1943.0,0.132661,0.867339
640,2981.0,0.134022,0.865978
641,274.0,0.134038,0.865962
642,2669.0,0.134946,0.865054
643,2605.0,0.135207,0.864793
644,2765.0,0.13528,0.86472
645,1880.0,0.135413,0.864587
646,319.0,0.135604,0.864396
647,317.0,0.136565,0.863435
648,1214.0,0.13797,0.86203
649,1666.0,0.138221,0.861779
650,2363.0,0.138325,0.861675
651,2715.0,0.138828,0.861172
652,1099.0,0.139281,0.860719
653,2473.0,0.139716,0.860284
654,1178.0,0.139908,0.860092
655,2639.0,0.139993,0.860007
656,968.0,0.140715,0.859285
657,1350.0,0.140892,0.859108
658,1021.0,0.141454,0.858546
659,696.0,0.141676,0.858324
660,257.0,0.141894,0.858106
661,76.0,0.141958,0.858042
662,1645.0,0.142141,0.857859
663,2747.0,0.142725,0.857275
664,2620.0,0.142725,0.857275
665,3058.0,0.143336,0.856664
666,1004.0,0.143953,0.856047
667,2652.0,0.144059,0.855941
668,2580.0,0.144277,0.855723
669,1062.0,0.144351,0.855649
670,8.0,0.144544,0.855456
671,1101.0,0.144953,0.855047
672,2332.0,0.145065,0.854935
673,2936.0,0.146279,0.853721
674,2529.0,0.148236,0.851764
675,2227.0,0.149721,0.850279
676,894.0,0.149859,0.850141
677,260.0,0.150584,0.849416
678,2708.0,0.151325,0.848675
679,1640.0,0.151641,0.848359
680,225.0,0.152053,0.847947
681,1579.0,0.152094,0.847906
682,2071.0,0.152198,0.847802
683,1570.0,0.152293,0.847707
684,126.0,0.152371,0.847629
685,2201.0,0.152502,0.847498
686,1076.0,0.153024,0.846976
687,1458.0,0.153171,0.846829
688,1932.0,0.153559,0.846441
689,1311.0,0.153618,0.846382
690,723.0,0.153902,0.846098
691,688.0,0.153982,0.846018
692,881.0,0.154215,0.845785
693,1586.0,0.154479,0.845521
694,1310.0,0.15564,0.84436
695,1893.0,0.155892,0.844108
696,71.0,0.156249,0.843751
697,354.0,0.156774,0.843226
698,2164.0,0.157759,0.842241
699,75.0,0.158341,0.841659
700,2199.0,0.15927,0.84073
701,1726.0,0.159491,0.840509
702,221.0,0.160019,0.839981
703,2024.0,0.160678,0.839322
704,2170.0,0.160843,0.839157
705,2631.0,0.161036,0.838964
706,2777.0,0.16154,0.83846
707,2791.0,0.162252,0.837748
708,686.0,0.162255,0.837745
709,1014.0,0.162609,0.837391
710,977.0,0.162609,0.837391
711,613.0,0.162813,0.837187
712,2395.0,0.163361,0.836639
713,2390.0,0.163411,0.836589
714,882.0,0.163549,0.836451
715,2468.0,0.163657,0.836343
716,638.0,0.16397,0.83603
717,2396.0,0.164144,0.835856
718,1853.0,0.164774,0.835226
719,1389.0,0.164875,0.835125
720,1300.0,0.164926,0.835074
721,2456.0,0.165026,0.834974
722,149.0,0.165351,0.834649
723,2276.0,0.166369,0.833631
724,2139.0,0.168019,0.831981
725,530.0,0.168296,0.831704
726,175.0,0.169438,0.830562
727,2866.0,0.169831,0.830169
728,1168.0,0.172016,0.827984
729,2088.0,0.172675,0.827325
730,2121.0,0.173019,0.826981
731,2523.0,0.173596,0.826404
732,1017.0,0.17394,0.82606
733,133.0,0.173989,0.826011
734,1628.0,0.174139,0.825861
735,3113.0,0.174181,0.825819
736,3025.0,0.174942,0.825058
737,2662.0,0.17528,0.82472
738,2547.0,0.175282,0.824718
739,577.0,0.175352,0.824648
740,2677.0,0.175551,0.824449
741,2997.0,0.17598,0.82402
742,2420.0,0.176735,0.823265
743,2636.0,0.176744,0.823256
744,1839.0,0.176927,0.823073
745,1985.0,0.177009,0.822991
746,1269.0,0.177052,0.822948
747,1694.0,0.177753,0.822247
748,2516.0,0.178409,0.821591
749,1876.0,0.178722,0.821278
750,644.0,0.178867,0.821133
751,496.0,0.178955,0.821045
752,1448.0,0.179393,0.820607
753,2678.0,0.179739,0.820261
754,2400.0,0.179949,0.820051
755,777.0,0.180848,0.819152
756,1492.0,0.181879,0.818121
757,26.0,0.182372,0.817628
758,2050.0,0.182566,0.817434
759,2178.0,0.182832,0.817168
760,3234.0,0.183285,0.816715
761,1403.0,0.1833,0.8167
762,415.0,0.183559,0.816441
763,2106.0,0.18382,0.81618
764,2503.0,0.184103,0.815897
765,748.0,0.185879,0.814121
766,906.0,0.185946,0.814054
767,720.0,0.18669,0.81331
768,2258.0,0.186729,0.813271
769,3013.0,0.187874,0.812126
770,352.0,0.188688,0.811312
771,1685.0,0.188851,0.811149
772,2233.0,0.189219,0.810781
773,1451.0,0.18965,0.81035
774,288.0,0.189755,0.810245
775,2459.0,0.189971,0.810029
776,3212.0,0.190077,0.809923
777,1846.0,0.190332,0.809668
778,522.0,0.191161,0.808839
779,2718.0,0.192567,0.807433
780,1924.0,0.192605,0.807395
781,136.0,0.193059,0.806941
782,1911.0,0.194253,0.805747
783,661.0,0.194588,0.805412
784,2027.0,0.194658,0.805342
785,1238.0,0.195229,0.804771
786,89.0,0.195262,0.804738
787,1054.0,0.195487,0.804513
788,3165.0,0.195554,0.804446
789,1230.0,0.196119,0.803881
790,2246.0,0.196268,0.803732
791,2466.0,0.196789,0.803211
792,85.0,0.196866,0.803134
793,2271.0,0.196965,0.803035
794,2903.0,0.197283,0.802717
795,2739.0,0.197446,0.802554
796,1392.0,0.197796,0.802204
797,1120.0,0.19855,0.80145
798,1657.0,0.198675,0.801325
799,2714.0,0.199394,0.800606
800,1188.0,0.199666,0.800334
801,517.0,0.20012,0.79988
802,2313.0,0.200487,0.799513
803,2907.0,0.200487,0.799513
804,3011.0,0.200783,0.799217
805,974.0,0.201027,0.798973
806,946.0,0.201031,0.798969
807,528.0,0.201124,0.798876
808,2131.0,0.20142,0.79858
809,2617.0,0.201746,0.798254
810,2441.0,0.201821,0.798179
811,2387.0,0.201891,0.798109
812,2909.0,0.201924,0.798076
813,1873.0,0.201978,0.798022
814,2862.0,0.202035,0.797965
815,2899.0,0.202988,0.797012
816,2949.0,0.203204,0.796796
817,435.0,0.203309,0.796691
818,3248.0,0.203603,0.796397
819,2410.0,0.204313,0.795687
820,1189.0,0.204774,0.795226
821,381.0,0.204855,0.795145
822,2321.0,0.206106,0.793894
823,2059.0,0.206212,0.793788
824,1206.0,0.206564,0.793436
825,423.0,0.206852,0.793148
826,1109.0,0.207363,0.792637
827,1113.0,0.207441,0.792559
828,1848.0,0.207477,0.792523
829,1632.0,0.209043,0.790957
830,2159.0,0.209148,0.790852
831,348.0,0.209224,0.790776
832,2213.0,0.209253,0.790747
833,1818.0,0.210023,0.789977
834,3135.0,0.210025,0.789975
835,976.0,0.210131,0.789869
836,2279.0,0.210573,0.789427
837,556.0,0.210736,0.789264
838,357.0,0.210853,0.789147
839,1836.0,0.2109,0.7891
840,2782.0,0.2109,0.7891
841,2803.0,0.211251,0.788749
842,111.0,0.211517,0.788483
843,3036.0,0.212743,0.787257
844,1898.0,0.212768,0.787232
845,2351.0,0.213344,0.786656
846,756.0,0.21405,0.78595
847,2161.0,0.214593,0.785407
848,1470.0,0.215119,0.784881
849,1583.0,0.215127,0.784873
850,1529.0,0.215533,0.784467
851,2416.0,0.215648,0.784352
852,766.0,0.215916,0.784084
853,1936.0,0.216568,0.783432
854,1371.0,0.216831,0.783169
855,66.0,0.216997,0.783003
856,2823.0,0.217639,0.782361
857,500.0,0.217696,0.782304
858,1047.0,0.218105,0.781895
859,565.0,0.219003,0.780997
860,3222.0,0.219672,0.780328
861,2146.0,0.219725,0.780275
862,1716.0,0.220015,0.779985
863,355.0,0.220073,0.779927
864,1782.0,0.22071,0.77929
865,1868.0,0.221304,0.778696
866,3109.0,0.221338,0.778662
867,390.0,0.221372,0.778628
868,2838.0,0.222058,0.777942
869,2568.0,0.222262,0.777738
870,3085.0,0.222421,0.777579
871,1461.0,0.222421,0.777579
872,559.0,0.222421,0.777579
873,2250.0,0.222839,0.777161
874,1562.0,0.223093,0.776907
875,758.0,0.223224,0.776776
876,1708.0,0.224195,0.775805
877,1142.0,0.224353,0.775647
878,2837.0,0.224587,0.775413
879,3110.0,0.22475,0.77525
880,3015.0,0.224929,0.775071
881,38.0,0.224941,0.775059
882,1322.0,0.225216,0.774784
883,2308.0,0.225437,0.774563
884,2648.0,0.225487,0.774513
885,700.0,0.225789,0.774211
886,2103.0,0.225896,0.774104
887,2937.0,0.226026,0.773974
888,1892.0,0.226026,0.773974
889,346.0,0.226138,0.773862
890,3156.0,0.22697,0.77303
891,1051.0,0.227231,0.772769
892,564.0,0.227784,0.772216
893,2668.0,0.228036,0.771964
894,1963.0,0.228508,0.771492
895,1195.0,0.228942,0.771058
896,250.0,0.229732,0.770268
897,652.0,0.230004,0.769996
898,2439.0,0.230089,0.769911
899,82.0,0.231094,0.768906
900,1703.0,0.231836,0.768164
901,2571.0,0.23184,0.76816
902,663.0,0.232671,0.767329
903,318.0,0.232862,0.767138
904,3008.0,0.232945,0.767055
905,1681.0,0.233,0.767
906,1790.0,0.233514,0.766486
907,2373.0,0.233605,0.766395
908,246.0,0.233865,0.766135
909,48.0,0.234517,0.765483
910,997.0,0.234772,0.765228
911,2122.0,0.234772,0.765228
912,575.0,0.235172,0.764828
913,2559.0,0.235395,0.764605
914,193.0,0.236103,0.763897
915,2856.0,0.236488,0.763512
916,88.0,0.23669,0.76331
917,2989.0,0.238227,0.761773
918,742.0,0.238978,0.761022
919,1925.0,0.239538,0.760462
920,83.0,0.239869,0.760131
921,1262.0,0.241116,0.758884
922,2905.0,0.241188,0.758812
923,164.0,0.24126,0.75874
924,580.0,0.241467,0.758533
925,2901.0,0.24297,0.75703
926,372.0,0.243021,0.756979
927,1143.0,0.243208,0.756792
928,1011.0,0.243749,0.756251
929,325.0,0.243935,0.756065
930,245.0,0.24416,0.75584
931,1722.0,0.244389,0.755611
932,155.0,0.244538,0.755462
933,802.0,0.244962,0.755038
934,2982.0,0.245048,0.754952
935,2973.0,0.245142,0.754858
936,3007.0,0.245864,0.754136
937,711.0,0.245897,0.754103
938,1149.0,0.247056,0.752944
939,3010.0,0.247416,0.752584
940,1295.0,0.247613,0.752387
941,2880.0,0.247653,0.752347
942,964.0,0.247737,0.752263
943,1305.0,0.248276,0.751724
944,623.0,0.248299,0.751701
945,2515.0,0.248376,0.751624
946,624.0,0.24864,0.75136
947,1524.0,0.248658,0.751342
948,2075.0,0.248942,0.751058
949,2149.0,0.249015,0.750985
950,2646.0,0.249222,0.750778
951,967.0,0.250344,0.749656
952,1174.0,0.250392,0.749608
953,2785.0,0.250856,0.749144
954,2011.0,0.251161,0.748839
955,2658.0,0.251165,0.748835
956,732.0,0.251251,0.748749
957,1739.0,0.251564,0.748436
958,351.0,0.252288,0.747712
959,2176.0,0.252475,0.747525
960,33.0,0.252677,0.747323
961,2462.0,0.252721,0.747279
962,1667.0,0.252956,0.747044
963,859.0,0.253648,0.746352
964,713.0,0.253702,0.746298
965,917.0,0.253738,0.746262
966,2017.0,0.254157,0.745843
967,3051.0,0.254238,0.745762
968,2867.0,0.255201,0.744799
969,103.0,0.256022,0.743978
970,2757.0,0.256375,0.743625
971,819.0,0.256454,0.743546
972,2509.0,0.257007,0.742993
973,1100.0,0.257103,0.742897
974,1068.0,0.257253,0.742747
975,2181.0,0.257548,0.742452
976,2895.0,0.257735,0.742265
977,1882.0,0.257758,0.742242
978,2108.0,0.258333,0.741667
979,668.0,0.258998,0.741002
980,2314.0,0.259567,0.740433
981,2316.0,0.260311,0.739689
982,1530.0,0.260415,0.739585
983,2065.0,0.260433,0.739567
984,3172.0,0.260621,0.739379
985,2002.0,0.260784,0.739216
986,1369.0,0.260981,0.739019
987,1283.0,0.26105,0.73895
988,840.0,0.261134,0.738866
989,1958.0,0.261359,0.738641
990,515.0,0.261521,0.738479
991,1699.0,0.261578,0.738422
992,2237.0,0.261751,0.738249
993,1655.0,0.26177,0.73823
994,2720.0,0.262364,0.737636
995,1323.0,0.262494,0.737506
996,1983.0,0.262968,0.737032
997,2293.0,0.262982,0.737018
998,2996.0,0.262982,0.737018
999,1550.0,0.263052,0.736948
1000,2497.0,0.263321,0.736679
1001,2162.0,0.264201,0.735799
1002,1633.0,0.265181,0.734819
1003,1802.0,0.265409,0.734591
1004,1921.0,0.265538,0.734462
1005,2292.0,0.265699,0.734301
1006,2422.0,0.265744,0.734256
1007,2832.0,0.26592,0.73408
1008,872.0,0.266034,0.733966
1009,1696.0,0.266092,0.733908
1010,1526.0,0.266574,0.733426
1011,1378.0,0.266861,0.733139
1012,2963.0,0.267579,0.732421
1013,2286.0,0.267601,0.732399
1014,2583.0,0.267658,0.732342
1015,2079.0,0.267664,0.732336
1016,2249.0,0.267741,0.732259
1017,953.0,0.267889,0.732111
1018,1732.0,0.268573,0.731427
1019,1973.0,0.268872,0.731128
1020,2607.0,0.268998,0.731002
1021,2940.0,0.269251,0.730749
1022,2452.0,0.269417,0.730583
1023,2654.0,0.269898,0.730102
1024,1901.0,0.270093,0.729907
1025,844.0,0.270386,0.729614
1026,1078.0,0.272261,0.727739
1027,1852.0,0.272307,0.727693
1028,1270.0,0.27317,0.72683
1029,821.0,0.273421,0.726579
1030,240.0,0.273559,0.726441
1031,2305.0,0.273559,0.726441
1032,455.0,0.274407,0.725593
1033,2827.0,0.274554,0.725446
1034,3231.0,0.274837,0.725163
1035,2339.0,0.274837,0.725163
1036,1154.0,0.274899,0.725101
1037,533.0,0.274953,0.725047
1038,1894.0,0.275033,0.724967
1039,1256.0,0.275796,0.724204
1040,420.0,0.276269,0.723731
1041,1815.0,0.276291,0.723709
1042,2591.0,0.276526,0.723474
1043,2140.0,0.276749,0.723251
1044,1219.0,0.277391,0.722609
1045,2537.0,0.27768,0.72232
1046,3243.0,0.278476,0.721524
1047,1947.0,0.279194,0.720806
1048,759.0,0.279194,0.720806
1049,2994.0,0.279665,0.720335
1050,684.0,0.279732,0.720268
1051,1484.0,0.279806,0.720194
1052,3035.0,0.279813,0.720187
1053,957.0,0.280057,0.719943
1054,397.0,0.280285,0.719715
1055,171.0,0.280685,0.719315
1056,1519.0,0.282024,0.717976
1057,1955.0,0.282442,0.717558
1058,81.0,0.282993,0.717007
1059,1948.0,0.283075,0.716925
1060,551.0,0.28344,0.71656
1061,2239.0,0.283723,0.716277
1062,620.0,0.284445,0.715555
1063,1327.0,0.28451,0.71549
1064,2977.0,0.284743,0.715257
1065,773.0,0.285548,0.714452
1066,495.0,0.285664,0.714336
1067,2719.0,0.285738,0.714262
1068,2871.0,0.286262,0.713738
1069,702.0,0.287105,0.712895
1070,1661.0,0.287587,0.712413
1071,1534.0,0.287681,0.712319
1072,1309.0,0.287843,0.712157
1073,3141.0,0.287876,0.712124
1074,2585.0,0.288158,0.711842
1075,1856.0,0.288277,0.711723
1076,572.0,0.288852,0.711148
1077,837.0,0.28973,0.71027
1078,2795.0,0.290159,0.709841
1079,992.0,0.290292,0.709708
1080,2481.0,0.290522,0.709478
1081,1144.0,0.290588,0.709412
1082,2174.0,0.291115,0.708885
1083,195.0,0.29192,0.70808
1084,2203.0,0.291986,0.708014
1085,1247.0,0.292231,0.707769
1086,3158.0,0.2924,0.7076
1087,2335.0,0.292663,0.707337
1088,2931.0,0.292788,0.707212
1089,1182.0,0.293741,0.706259
1090,2655.0,0.293864,0.706136
1091,3173.0,0.293905,0.706095
1092,2417.0,0.293974,0.706026
1093,2581.0,0.294325,0.705675
1094,2637.0,0.29561,0.70439
1095,1145.0,0.295868,0.704132
1096,1967.0,0.29592,0.70408
1097,1095.0,0.296445,0.703555
1098,1854.0,0.296773,0.703227
1099,2482.0,0.297305,0.702695
1100,340.0,0.297376,0.702624
1101,1430.0,0.298366,0.701634
1102,145.0,0.298579,0.701421
1103,625.0,0.299366,0.700634
1104,1650.0,0.299933,0.700067
1105,3146.0,0.300096,0.699904
1106,662.0,0.30024,0.69976
1107,2898.0,0.300857,0.699143
1108,1463.0,0.301136,0.698864
1109,2437.0,0.301336,0.698664
1110,1473.0,0.301445,0.698555
1111,2783.0,0.301469,0.698531
1112,1617.0,0.301479,0.698521
1113,2445.0,0.303354,0.696646
1114,2778.0,0.30374,0.69626
1115,539.0,0.303964,0.696036
1116,3031.0,0.304154,0.695846
1117,1088.0,0.304381,0.695619
1118,2539.0,0.304867,0.695133
1119,912.0,0.304911,0.695089
1120,1000.0,0.305048,0.694952
1121,2085.0,0.305125,0.694875
1122,1244.0,0.305177,0.694823
1123,263.0,0.306165,0.693835
1124,17.0,0.306408,0.693592
1125,206.0,0.306673,0.693327
1126,2472.0,0.306686,0.693314
1127,2236.0,0.307869,0.692131
1128,1929.0,0.308204,0.691796
1129,1928.0,0.309163,0.690837
1130,2721.0,0.309558,0.690442
1131,1304.0,0.309744,0.690256
1132,124.0,0.30998,0.69002
1133,2264.0,0.310153,0.689847
1134,1225.0,0.31026,0.68974
1135,909.0,0.310809,0.689191
1136,24.0,0.311333,0.688667
1137,1900.0,0.311404,0.688596
1138,1587.0,0.311474,0.688526
1139,585.0,0.311691,0.688309
1140,827.0,0.311792,0.688208
1141,27.0,0.311808,0.688192
1142,2602.0,0.312382,0.687618
1143,404.0,0.312597,0.687403
1144,467.0,0.313282,0.686718
1145,2261.0,0.313528,0.686472
1146,2888.0,0.313583,0.686417
1147,3136.0,0.314067,0.685933
1148,1385.0,0.314464,0.685536
1149,1597.0,0.314605,0.685395
1150,1966.0,0.314854,0.685146
1151,2407.0,0.315119,0.684881
1152,1057.0,0.315141,0.684859
1153,3176.0,0.315732,0.684268
1154,2414.0,0.315902,0.684098
1155,752.0,0.31718,0.68282
1156,1610.0,0.317804,0.682196
1157,609.0,0.318565,0.681435
1158,1056.0,0.318721,0.681279
1159,2235.0,0.319483,0.680517
1160,3096.0,0.320253,0.679747
1161,1520.0,0.321333,0.678667
1162,13.0,0.321395,0.678605
1163,3088.0,0.321427,0.678573
1164,1116.0,0.321444,0.678556
1165,2355.0,0.321743,0.678257
1166,3236.0,0.322131,0.677869
1167,1671.0,0.322162,0.677838
1168,3194.0,0.322647,0.677353
1169,2882.0,0.324064,0.675936
1170,1723.0,0.324183,0.675817
1171,1401.0,0.325235,0.674765
1172,2799.0,0.325483,0.674517
1173,1404.0,0.325496,0.674504
1174,72.0,0.325691,0.674309
1175,459.0,0.326288,0.673712
1176,804.0,0.326309,0.673691
1177,1544.0,0.326593,0.673407
1178,2163.0,0.326647,0.673353
1179,656.0,0.328466,0.671534
1180,645.0,0.328559,0.671441
1181,1414.0,0.328679,0.671321
1182,3093.0,0.328833,0.671167
1183,1483.0,0.329181,0.670819
1184,676.0,0.329644,0.670356
1185,729.0,0.329737,0.670263
1186,683.0,0.329956,0.670044
1187,2377.0,0.330666,0.669334
1188,1811.0,0.330843,0.669157
1189,1459.0,0.331374,0.668626
1190,2429.0,0.331793,0.668207
1191,2077.0,0.332136,0.667864
1192,1652.0,0.332352,0.667648
1193,1910.0,0.332898,0.667102
1194,174.0,0.334455,0.665545
1195,2064.0,0.334574,0.665426
1196,492.0,0.334586,0.665414
1197,1457.0,0.335176,0.664824
1198,2935.0,0.335494,0.664506
1199,1010.0,0.335515,0.664485
1200,1907.0,0.335677,0.664323
1201,94.0,0.335788,0.664212
1202,1015.0,0.335843,0.664157
1203,2711.0,0.335926,0.664074
1204,3151.0,0.33673,0.66327
1205,1753.0,0.33756,0.66244
1206,1314.0,0.337668,0.662332
1207,3143.0,0.337814,0.662186
1208,248.0,0.338019,0.661981
1209,1744.0,0.338749,0.661251
1210,144.0,0.339184,0.660816
1211,159.0,0.339378,0.660622
1212,2922.0,0.339378,0.660622
1213,3042.0,0.339389,0.660611
1214,3166.0,0.340124,0.659876
1215,1338.0,0.340292,0.659708
1216,761.0,0.341376,0.658624
1217,2489.0,0.341462,0.658538
1218,2169.0,0.341995,0.658005
1219,1692.0,0.342406,0.657594
1220,2484.0,0.342524,0.657476
1221,2948.0,0.34397,0.65603
1222,1044.0,0.344691,0.655309
1223,450.0,0.344691,0.655309
1224,1366.0,0.344808,0.655192
1225,1009.0,0.345327,0.654673
1226,1234.0,0.345453,0.654547
1227,2095.0,0.345658,0.654342
1228,1676.0,0.345746,0.654254
1229,2301.0,0.346948,0.653052
1230,335.0,0.347081,0.652919
1231,1453.0,0.347178,0.652822
1232,2151.0,0.347184,0.652816
1233,689.0,0.347306,0.652694
1234,300.0,0.347434,0.652566
1235,1507.0,0.347475,0.652525
1236,345.0,0.347506,0.652494
1237,2357.0,0.347743,0.652257
1238,1395.0,0.347762,0.652238
1239,792.0,0.348752,0.651248
1240,1647.0,0.349374,0.650626
1241,1933.0,0.349998,0.650002
1242,3057.0,0.350585,0.649415
1243,189.0,0.351346,0.648654
1244,3183.0,0.352196,0.647804
1245,2369.0,0.352215,0.647785
1246,1313.0,0.352768,0.647232
1247,914.0,0.352937,0.647063
1248,107.0,0.352975,0.647025
1249,2419.0,0.353485,0.646515
1250,1243.0,0.354018,0.645982
1251,146.0,0.354018,0.645982
1252,1646.0,0.354018,0.645982
1253,2811.0,0.354018,0.645982
1254,437.0,0.354115,0.645885
1255,2869.0,0.354847,0.645153
1256,47.0,0.354968,0.645032
1257,990.0,0.356049,0.643951
1258,3160.0,0.356087,0.643913
1259,247.0,0.35629,0.64371
1260,2644.0,0.356516,0.643484
1261,1318.0,0.357447,0.642553
1262,1356.0,0.357569,0.642431
1263,3230.0,0.357632,0.642368
1264,9.0,0.357847,0.642153
1265,45.0,0.357916,0.642084
1266,2722.0,0.358847,0.641153
1267,537.0,0.358909,0.641091
1268,1965.0,0.359442,0.640558
1269,1740.0,0.359963,0.640037
1270,1073.0,0.359991,0.640009
1271,286.0,0.360313,0.639687
1272,681.0,0.360822,0.639178
1273,61.0,0.361043,0.638957
1274,1197.0,0.361117,0.638883
1275,262.0,0.361338,0.638662
1276,1832.0,0.361646,0.638354
1277,1785.0,0.361715,0.638285
1278,2519.0,0.36172,0.63828
1279,2618.0,0.361743,0.638257
1280,1202.0,0.362363,0.637637
1281,590.0,0.362445,0.637555
1282,273.0,0.362563,0.637437
1283,1284.0,0.362953,0.637047
1284,2148.0,0.363285,0.636715
1285,1374.0,0.363407,0.636593
1286,310.0,0.363751,0.636249
1287,1810.0,0.363909,0.636091
1288,373.0,0.364123,0.635877
1289,3134.0,0.364178,0.635822
1290,1591.0,0.364614,0.635386
1291,784.0,0.365328,0.634672
1292,1592.0,0.365354,0.634646
1293,959.0,0.365742,0.634258
1294,411.0,0.36618,0.63382
1295,637.0,0.366181,0.633819
1296,1977.0,0.366181,0.633819
1297,525.0,0.366844,0.633156
1298,2460.0,0.367052,0.632948
1299,2129.0,0.367274,0.632726
1300,1266.0,0.367334,0.632666
1301,2211.0,0.367604,0.632396
1302,3071.0,0.367615,0.632385
1303,903.0,0.367781,0.632219
1304,2334.0,0.368776,0.631224
1305,3189.0,0.368782,0.631218
1306,2595.0,0.369214,0.630786
1307,735.0,0.369557,0.630443
1308,2771.0,0.369785,0.630215
1309,1446.0,0.370132,0.629868
1310,567.0,0.371326,0.628674
1311,2346.0,0.372514,0.627486
1312,811.0,0.372514,0.627486
1313,1306.0,0.372514,0.627486
1314,2319.0,0.373319,0.626681
1315,2411.0,0.374203,0.625797
1316,1804.0,0.374399,0.625601
1317,1841.0,0.374757,0.625243
1318,3152.0,0.375643,0.624357
1319,2847.0,0.375679,0.624321
1320,2551.0,0.375688,0.624312
1321,2418.0,0.376119,0.623881
1322,2594.0,0.376218,0.623782
1323,2275.0,0.376253,0.623747
1324,2070.0,0.376767,0.623233
1325,215.0,0.377428,0.622572
1326,1949.0,0.378009,0.621991
1327,1340.0,0.378345,0.621655
1328,14.0,0.378572,0.621428
1329,1809.0,0.37894,0.62106
1330,2599.0,0.379103,0.620897
1331,1336.0,0.37917,0.62083
1332,2158.0,0.379233,0.620767
1333,1574.0,0.379283,0.620717
1334,1788.0,0.379292,0.620708
1335,1565.0,0.37958,0.62042
1336,618.0,0.379718,0.620282
1337,2612.0,0.379878,0.620122
1338,393.0,0.38,0.62
1339,3033.0,0.380042,0.619958
1340,691.0,0.380619,0.619381
1341,569.0,0.380738,0.619262
1342,2939.0,0.380789,0.619211
1343,2362.0,0.381161,0.618839
1344,1007.0,0.381279,0.618721
1345,2578.0,0.381397,0.618603
1346,1580.0,0.381569,0.618431
1347,2343.0,0.381679,0.618321
1348,1205.0,0.382192,0.617808
1349,602.0,0.383051,0.616949
1350,2864.0,0.38459,0.61541
1351,209.0,0.384669,0.615331
1352,1383.0,0.384971,0.615029
1353,1254.0,0.385043,0.614957
1354,279.0,0.385632,0.614368
1355,1521.0,0.386778,0.613222
1356,1935.0,0.387002,0.612998
1357,2360.0,0.387509,0.612491
1358,1619.0,0.387635,0.612365
1359,2970.0,0.388109,0.611891
1360,315.0,0.388466,0.611534
1361,1407.0,0.389348,0.610652
1362,1763.0,0.38984,0.61016
1363,2969.0,0.389856,0.610144
1364,2175.0,0.389966,0.610034
1365,2141.0,0.390356,0.609644
1366,460.0,0.390497,0.609503
1367,2926.0,0.39129,0.60871
1368,932.0,0.391416,0.608584
1369,2504.0,0.392157,0.607843
1370,2924.0,0.39266,0.60734
1371,2192.0,0.3927,0.6073
1372,2613.0,0.392715,0.607285
1373,2251.0,0.392756,0.607244
1374,2427.0,0.392884,0.607116
1375,904.0,0.392926,0.607074
1376,117.0,0.393274,0.606726
1377,2601.0,0.394232,0.605768
1378,2232.0,0.394306,0.605694
1379,2455.0,0.394836,0.605164
1380,790.0,0.394884,0.605116
1381,3078.0,0.394942,0.605058
1382,2598.0,0.39541,0.60459
1383,2340.0,0.396457,0.603543
1384,2779.0,0.397943,0.602057
1385,3239.0,0.397944,0.602056
1386,2464.0,0.398432,0.601568
1387,2927.0,0.39879,0.60121
1388,970.0,0.398882,0.601118
1389,1512.0,0.398969,0.601031
1390,2312.0,0.39904,0.60096
1391,3063.0,0.399242,0.600758
1392,386.0,0.40078,0.59922
1393,706.0,0.401321,0.598679
1394,2476.0,0.401346,0.598654
1395,1595.0,0.401545,0.598455
1396,1838.0,0.401923,0.598077
1397,2732.0,0.401927,0.598073
1398,1654.0,0.402029,0.597971
1399,1130.0,0.40232,0.59768
1400,243.0,0.402566,0.597434
1401,3086.0,0.402806,0.597194
1402,1299.0,0.403005,0.596995
1403,1779.0,0.403248,0.596752
1404,2968.0,0.40368,0.59632
1405,183.0,0.403909,0.596091
1406,2876.0,0.403998,0.596002
1407,188.0,0.404408,0.595592
1408,2586.0,0.404553,0.595447
1409,876.0,0.404975,0.595025
1410,297.0,0.405188,0.594812
1411,3215.0,0.405241,0.594759
1412,1590.0,0.405608,0.594392
1413,2824.0,0.405653,0.594347
1414,1363.0,0.405781,0.594219
1415,1904.0,0.406831,0.593169
1416,2984.0,0.407059,0.592941
1417,2534.0,0.407261,0.592739
1418,2023.0,0.407646,0.592354
1419,2501.0,0.407747,0.592253
1420,196.0,0.407917,0.592083
1421,1396.0,0.407962,0.592038
1422,979.0,0.408666,0.591334
1423,672.0,0.408813,0.591187
1424,290.0,0.41053,0.58947
1425,1964.0,0.411195,0.588805
1426,198.0,0.411566,0.588434
1427,332.0,0.411676,0.588324
1428,2826.0,0.411695,0.588305
1429,3048.0,0.412302,0.587698
1430,1724.0,0.412613,0.587387
1431,2531.0,0.413495,0.586505
1432,1066.0,0.413607,0.586393
1433,2096.0,0.413663,0.586337
1434,1669.0,0.413851,0.586149
1435,731.0,0.413885,0.586115
1436,295.0,0.414183,0.585817
1437,2493.0,0.415091,0.584909
1438,788.0,0.415743,0.584257
1439,212.0,0.417082,0.582918
1440,542.0,0.417377,0.582623
1441,86.0,0.417675,0.582325
1442,1890.0,0.417758,0.582242
1443,2634.0,0.417758,0.582242
1444,785.0,0.41792,0.58208
1445,1612.0,0.418175,0.581825
1446,237.0,0.418702,0.581298
1447,2522.0,0.419867,0.580133
1448,1096.0,0.420076,0.579924
1449,952.0,0.420324,0.579676
1450,3190.0,0.420324,0.579676
1451,2229.0,0.421012,0.578988
1452,549.0,0.421027,0.578973
1453,2736.0,0.421209,0.578791
1454,2262.0,0.421258,0.578742
1455,538.0,0.422014,0.577986
1456,546.0,0.422144,0.577856
1457,1842.0,0.422314,0.577686
1458,2665.0,0.423623,0.576377
1459,1822.0,0.424639,0.575361
1460,2709.0,0.425416,0.574584
1461,1749.0,0.425818,0.574182
1462,2853.0,0.426277,0.573723
1463,2788.0,0.426984,0.573016
1464,808.0,0.427043,0.572957
1465,1390.0,0.427262,0.572738
1466,1479.0,0.427637,0.572363
1467,1986.0,0.427741,0.572259
1468,1481.0,0.427994,0.572006
1469,5.0,0.428032,0.571968
1470,584.0,0.428187,0.571813
1471,1408.0,0.428204,0.571796
1472,30.0,0.42839,0.57161
1473,2769.0,0.428741,0.571259
1474,956.0,0.429526,0.570474
1475,509.0,0.429526,0.570474
1476,1468.0,0.429554,0.570446
1477,213.0,0.429581,0.570419
1478,2956.0,0.430461,0.569539
1479,883.0,0.430695,0.569305
1480,3157.0,0.430917,0.569083
1481,2819.0,0.430986,0.569014
1482,548.0,0.431012,0.568988
1483,596.0,0.431106,0.568894
1484,1204.0,0.431536,0.568464
1485,2215.0,0.431779,0.568221
1486,682.0,0.431856,0.568144
1487,816.0,0.432358,0.567642
1488,2660.0,0.432387,0.567613
1489,1644.0,0.432799,0.567201
1490,621.0,0.433037,0.566963
1491,1384.0,0.433739,0.566261
1492,615.0,0.433827,0.566173
1493,2156.0,0.434088,0.565912
1494,1265.0,0.434288,0.565712
1495,1639.0,0.434434,0.565566
1496,405.0,0.435858,0.564142
1497,3075.0,0.436782,0.563218
1498,1557.0,0.43706,0.56294
1499,581.0,0.437136,0.562864
1500,11.0,0.438038,0.561962
1501,3131.0,0.438681,0.561319
1502,2789.0,0.439464,0.560536
1503,2458.0,0.440338,0.559662
1504,2256.0,0.441185,0.558815
1505,838.0,0.441497,0.558503
1506,1794.0,0.441631,0.558369
1507,392.0,0.442005,0.557995
1508,3220.0,0.442819,0.557181
1509,920.0,0.44334,0.55666
1510,298.0,0.443985,0.556015
1511,452.0,0.444091,0.555909
1512,2478.0,0.444531,0.555469
1513,277.0,0.444584,0.555416
1514,1358.0,0.444847,0.555153
1515,57.0,0.44487,0.55513
1516,220.0,0.445324,0.554676
1517,1046.0,0.445629,0.554371
1518,2165.0,0.445746,0.554254
1519,2985.0,0.44628,0.55372
1520,1991.0,0.446458,0.553542
1521,2966.0,0.446481,0.553519
1522,1059.0,0.446956,0.553044
1523,197.0,0.448552,0.551448
1524,995.0,0.449291,0.550709
1525,2667.0,0.449332,0.550668
1526,2428.0,0.449605,0.550395
1527,2676.0,0.449605,0.550395
1528,1445.0,0.450643,0.549357
1529,402.0,0.450661,0.549339
1530,1169.0,0.45067,0.54933
1531,1351.0,0.45067,0.54933
1532,2388.0,0.451384,0.548616
1533,3168.0,0.451876,0.548124
1534,797.0,0.451876,0.548124
1535,972.0,0.452003,0.547997
1536,2552.0,0.452299,0.547701
1537,441.0,0.452568,0.547432
1538,1826.0,0.452837,0.547163
1539,1660.0,0.452932,0.547068
1540,1474.0,0.453581,0.546419
1541,1092.0,0.454247,0.545753
1542,3253.0,0.454376,0.545624
1543,853.0,0.454476,0.545524
1544,2860.0,0.454638,0.545362
1545,2307.0,0.455499,0.544501
1546,434.0,0.455606,0.544394
1547,1427.0,0.455922,0.544078
1548,481.0,0.456404,0.543596
1549,1324.0,0.456741,0.543259
1550,604.0,0.456764,0.543236
1551,480.0,0.456831,0.543169
1552,2398.0,0.457243,0.542757
1553,389.0,0.457473,0.542527
1554,1003.0,0.457545,0.542455
1555,2153.0,0.459088,0.540912
1556,601.0,0.459279,0.540721
1557,281.0,0.459581,0.540419
1558,2663.0,0.459912,0.540088
1559,2244.0,0.459976,0.540024
1560,1416.0,0.460835,0.539165
1561,2696.0,0.461,0.539
1562,2889.0,0.461141,0.538859
1563,999.0,0.461277,0.538723
1564,803.0,0.461587,0.538413
1565,1728.0,0.461753,0.538247
1566,1860.0,0.461809,0.538191
1567,3174.0,0.462427,0.537573
1568,154.0,0.462813,0.537187
1569,211.0,0.463348,0.536652
1570,2016.0,0.463522,0.536478
1571,2412.0,0.463621,0.536379
1572,2216.0,0.464352,0.535648
1573,1603.0,0.464377,0.535623
1574,1715.0,0.464713,0.535287
1575,258.0,0.464902,0.535098
1576,249.0,0.465427,0.534573
1577,2574.0,0.465486,0.534514
1578,1165.0,0.465534,0.534466
1579,2533.0,0.465551,0.534449
1580,2172.0,0.465551,0.534449
1581,3139.0,0.466029,0.533971
1582,1083.0,0.466446,0.533554
1583,1745.0,0.466863,0.533137
1584,1118.0,0.466997,0.533003
1585,1016.0,0.467015,0.532985
1586,1990.0,0.467961,0.532039
1587,1546.0,0.467975,0.532025
1588,20.0,0.468073,0.531927
1589,3067.0,0.468327,0.531673
1590,3197.0,0.468571,0.531429
1591,443.0,0.469031,0.530969
1592,3107.0,0.469735,0.530265
1593,52.0,0.469871,0.530129
1594,3170.0,0.46988,0.53012
1595,1895.0,0.469932,0.530068
1596,1631.0,0.469991,0.530009
1597,2080.0,0.470014,0.529986
1598,306.0,0.470294,0.529706
1599,1501.0,0.470296,0.529704
1600,176.0,0.470376,0.529624
1601,2859.0,0.470613,0.529387
1602,704.0,0.471053,0.528947
1603,115.0,0.471342,0.528658
1604,403.0,0.471879,0.528121
1605,1636.0,0.471926,0.528074
1606,2661.0,0.4723,0.5277
1607,1872.0,0.472524,0.527476
1608,1296.0,0.472583,0.527417
1609,3062.0,0.47268,0.52732
1610,991.0,0.472769,0.527231
1611,270.0,0.472872,0.527128
1612,374.0,0.473735,0.526265
1613,1272.0,0.475198,0.524802
1614,2496.0,0.475363,0.524637
1615,1337.0,0.475373,0.524627
1616,173.0,0.475404,0.524596
1617,53.0,0.47546,0.52454
1618,511.0,0.475513,0.524487
1619,614.0,0.475758,0.524242
1620,2367.0,0.475784,0.524216
1621,3226.0,0.475891,0.524109
1622,915.0,0.476202,0.523798
1623,2193.0,0.477781,0.522219
1624,1792.0,0.478643,0.521357
1625,2157.0,0.478648,0.521352
1626,771.0,0.478689,0.521311
1627,782.0,0.478744,0.521256
1628,2524.0,0.478956,0.521044
1629,2961.0,0.479201,0.520799
1630,1558.0,0.479359,0.520641
1631,2787.0,0.479388,0.520612
1632,2546.0,0.479823,0.520177
1633,1759.0,0.479916,0.520084
1634,900.0,0.479967,0.520033
1635,118.0,0.480199,0.519801
1636,2291.0,0.480352,0.519648
1637,256.0,0.480352,0.519648
1638,1923.0,0.480451,0.519549
1639,266.0,0.481247,0.518753
1640,2611.0,0.481304,0.518696
1641,651.0,0.481657,0.518343
1642,1850.0,0.483085,0.516915
1643,1491.0,0.483101,0.516899
1644,2303.0,0.483316,0.516684
1645,616.0,0.483611,0.516389
1646,224.0,0.483688,0.516312
1647,578.0,0.48391,0.51609
1648,730.0,0.484645,0.515355
1649,2707.0,0.484799,0.515201
1650,862.0,0.484992,0.515008
1651,715.0,0.486407,0.513593
1652,664.0,0.486499,0.513501
1653,648.0,0.486808,0.513192
1654,1866.0,0.486958,0.513042
1655,1375.0,0.487004,0.512996
1656,1035.0,0.487496,0.512504
1657,3196.0,0.487651,0.512349
1658,181.0,0.48772,0.51228
1659,3040.0,0.487769,0.512231
1660,1158.0,0.488335,0.511665
1661,2738.0,0.488395,0.511605
1662,2735.0,0.488682,0.511318
1663,2392.0,0.488706,0.511294
1664,1042.0,0.488756,0.511244
1665,2952.0,0.488945,0.511055
1666,2029.0,0.489229,0.510771
1667,2512.0,0.489929,0.510071
1668,1376.0,0.489988,0.510012
1669,2548.0,0.490361,0.509639
1670,478.0,0.490689,0.509311
1671,2302.0,0.491058,0.508942
1672,2567.0,0.49151,0.50849
1673,416.0,0.491728,0.508272
1674,2289.0,0.491801,0.508199
1675,2008.0,0.491894,0.508106
1676,541.0,0.492024,0.507976
1677,235.0,0.492124,0.507876
1678,2453.0,0.492389,0.507611
1679,74.0,0.492476,0.507524
1680,1260.0,0.492656,0.507344
1681,4.0,0.492762,0.507238
1682,152.0,0.493065,0.506935
1683,2167.0,0.493174,0.506826
1684,438.0,0.493198,0.506802
1685,1697.0,0.49372,0.50628
1686,3039.0,0.493775,0.506225
1687,665.0,0.494146,0.505854
1688,28.0,0.494494,0.505506
1689,1013.0,0.494559,0.505441
1690,852.0,0.49503,0.50497
1691,718.0,0.495498,0.504502
1692,2127.0,0.495511,0.504489
1693,60.0,0.495631,0.504369
1694,2028.0,0.495932,0.504068
1695,253.0,0.496292,0.503708
1696,3061.0,0.496401,0.503599
1697,875.0,0.496665,0.503335
1698,1405.0,0.496698,0.503302
1699,2179.0,0.496845,0.503155
1700,2919.0,0.498217,0.501783
1701,2190.0,0.498537,0.501463
1702,2845.0,0.4987,0.5013
1703,2849.0,0.498958,0.501042
1704,873.0,0.49922,0.50078
1705,2532.0,0.499605,0.500395
1706,1194.0,0.499825,0.500175
1707,2843.0,0.499959,0.500041
1708,532.0,0.501388,0.498612
1709,3209.0,0.501651,0.498349
1710,1002.0,0.501753,0.498247
1711,2110.0,0.501802,0.498198
1712,1232.0,0.501853,0.498147
1713,2435.0,0.502491,0.497509
1714,1315.0,0.502557,0.497443
1715,1196.0,0.502751,0.497249
1716,1236.0,0.502959,0.497041
1717,2726.0,0.503403,0.496597
1718,2729.0,0.503656,0.496344
1719,2440.0,0.503746,0.496254
1720,1424.0,0.503882,0.496118
1721,2032.0,0.504224,0.495776
1722,573.0,0.504224,0.495776
1723,2402.0,0.504298,0.495702
1724,2760.0,0.504471,0.495529
1725,1861.0,0.50467,0.49533
1726,2265.0,0.504871,0.495129
1727,1883.0,0.504894,0.495106
1728,1171.0,0.505063,0.494937
1729,2793.0,0.505091,0.494909
1730,2091.0,0.505156,0.494844
1731,2379.0,0.505173,0.494827
1732,417.0,0.505569,0.494431
1733,3260.0,0.505995,0.494005
1734,1277.0,0.50646,0.49354
1735,2212.0,0.506765,0.493235
1736,1720.0,0.507406,0.492594
1737,3106.0,0.508025,0.491975
1738,3003.0,0.508279,0.491721
1739,2469.0,0.508674,0.491326
1740,336.0,0.509439,0.490561
1741,2911.0,0.509845,0.490155
1742,2752.0,0.510428,0.489572
1743,768.0,0.510534,0.489466
1744,971.0,0.510606,0.489394
1745,2039.0,0.510959,0.489041
1746,563.0,0.511067,0.488933
1747,1899.0,0.511189,0.488811
1748,501.0,0.511261,0.488739
1749,339.0,0.511388,0.488612
1750,3053.0,0.511455,0.488545
1751,789.0,0.511824,0.488176
1752,1275.0,0.513097,0.486903
1753,456.0,0.513368,0.486632
1754,408.0,0.513449,0.486551
1755,527.0,0.513695,0.486305
1756,749.0,0.514134,0.485866
1757,1071.0,0.514207,0.485793
1758,1008.0,0.514233,0.485767
1759,3229.0,0.514244,0.485756
1760,1025.0,0.514476,0.485524
1761,1560.0,0.514776,0.485224
1762,208.0,0.515457,0.484543
1763,1916.0,0.516301,0.483699
1764,2021.0,0.516402,0.483598
1765,958.0,0.516726,0.483274
1766,1359.0,0.516788,0.483212
1767,190.0,0.517258,0.482742
1768,153.0,0.517417,0.482583
1769,1226.0,0.517481,0.482519
1770,2318.0,0.517674,0.482326
1771,2072.0,0.517944,0.482056
1772,2273.0,0.518534,0.481466
1773,674.0,0.518573,0.481427
1774,828.0,0.519203,0.480797
1775,1561.0,0.519698,0.480302
1776,1869.0,0.520077,0.479923
1777,1279.0,0.520803,0.479197
1778,850.0,0.520803,0.479197
1779,1387.0,0.520943,0.479057
1780,394.0,0.521046,0.478954
1781,2018.0,0.521873,0.478127
1782,2257.0,0.522738,0.477262
1783,2221.0,0.523058,0.476942
1784,1957.0,0.523107,0.476893
1785,2544.0,0.523294,0.476706
1786,407.0,0.523327,0.476673
1787,1019.0,0.52334,0.47666
1788,316.0,0.523671,0.476329
1789,1981.0,0.524519,0.475481
1790,1437.0,0.524536,0.475464
1791,753.0,0.524689,0.475311
1792,35.0,0.524978,0.475022
1793,41.0,0.52498,0.47502
1794,2036.0,0.525199,0.474801
1795,2579.0,0.525829,0.474171
1796,1090.0,0.526175,0.473825
1797,3256.0,0.526825,0.473175
1798,1012.0,0.526907,0.473093
1799,1462.0,0.527127,0.472873
1800,2166.0,0.52758,0.47242
1801,304.0,0.527991,0.472009
1802,2336.0,0.528043,0.471957
1803,924.0,0.528115,0.471885
1804,2089.0,0.528331,0.471669
1805,2492.0,0.528331,0.471669
1806,329.0,0.528443,0.471557
1807,1941.0,0.528574,0.471426
1808,1887.0,0.528626,0.471374
1809,2786.0,0.528787,0.471213
1810,1426.0,0.52892,0.47108
1811,1394.0,0.52901,0.47099
1812,2266.0,0.529389,0.470611
1813,2897.0,0.530647,0.469353
1814,1871.0,0.530721,0.469279
1815,1452.0,0.531162,0.468838
1816,2231.0,0.532038,0.467962
1817,29.0,0.532192,0.467808
1818,1635.0,0.53225,0.46775
1819,1112.0,0.532357,0.467643
1820,2406.0,0.532361,0.467639
1821,587.0,0.532661,0.467339
1822,583.0,0.532674,0.467326
1823,1287.0,0.533211,0.466789
1824,962.0,0.533315,0.466685
1825,242.0,0.533372,0.466628
1826,1091.0,0.534066,0.465934
1827,2698.0,0.534446,0.465554
1828,1449.0,0.5347,0.4653
1829,1778.0,0.534701,0.465299
1830,950.0,0.534792,0.465208
1831,1532.0,0.535028,0.464972
1832,2168.0,0.53529,0.46471
1833,3162.0,0.535555,0.464445
1834,793.0,0.535705,0.464295
1835,1290.0,0.535911,0.464089
1836,50.0,0.536901,0.463099
1837,2917.0,0.537603,0.462397
1838,1026.0,0.538026,0.461974
1839,3101.0,0.538103,0.461897
1840,3202.0,0.538103,0.461897
1841,2834.0,0.538295,0.461705
1842,3111.0,0.538794,0.461206
1843,2076.0,0.538977,0.461023
1844,25.0,0.539085,0.460915
1845,770.0,0.539089,0.460911
1846,2731.0,0.539403,0.460597
1847,429.0,0.539559,0.460441
1848,1994.0,0.539654,0.460346
1849,166.0,0.540014,0.459986
1850,1938.0,0.540465,0.459535
1851,2784.0,0.540585,0.459415
1852,2364.0,0.540616,0.459384
1853,1398.0,0.54097,0.45903
1854,3097.0,0.54121,0.45879
1855,692.0,0.541746,0.458254
1856,114.0,0.542089,0.457911
1857,1410.0,0.54213,0.45787
1858,1931.0,0.542396,0.457604
1859,2962.0,0.5425,0.4575
1860,1738.0,0.542794,0.457206
1861,938.0,0.542806,0.457194
1862,908.0,0.542865,0.457135
1863,1257.0,0.542921,0.457079
1864,3223.0,0.54326,0.45674
1865,902.0,0.543777,0.456223
1866,2043.0,0.543836,0.456164
1867,1886.0,0.54484,0.45516
1868,2304.0,0.545724,0.454276
1869,2134.0,0.54577,0.45423
1870,798.0,0.546013,0.453987
1871,379.0,0.546851,0.453149
1872,1496.0,0.546932,0.453068
1873,470.0,0.547241,0.452759
1874,1490.0,0.548198,0.451802
1875,2812.0,0.548491,0.451509
1876,2449.0,0.548541,0.451459
1877,1193.0,0.54876,0.45124
1878,2114.0,0.549577,0.450423
1879,2887.0,0.549915,0.450085
1880,2549.0,0.549949,0.450051
1881,254.0,0.549949,0.450051
1882,3138.0,0.550965,0.449035
1883,475.0,0.551245,0.448755
1884,485.0,0.551285,0.448715
1885,2238.0,0.551404,0.448596
1886,545.0,0.551436,0.448564
1887,2135.0,0.551436,0.448564
1888,1291.0,0.551517,0.448483
1889,1393.0,0.551631,0.448369
1890,162.0,0.552553,0.447447
1891,1111.0,0.552946,0.447054
1892,1141.0,0.553346,0.446654
1893,1274.0,0.554423,0.445577
1894,1420.0,0.554426,0.445574
1895,764.0,0.554464,0.445536
1896,1862.0,0.554641,0.445359
1897,227.0,0.554652,0.445348
1898,1127.0,0.555123,0.444877
1899,1754.0,0.555123,0.444877
1900,2691.0,0.555387,0.444613
1901,1477.0,0.555526,0.444474
1902,1045.0,0.55591,0.44409
1903,2762.0,0.556567,0.443433
1904,353.0,0.556662,0.443338
1905,521.0,0.557114,0.442886
1906,1670.0,0.557336,0.442664
1907,3214.0,0.557635,0.442365
1908,16.0,0.557811,0.442189
1909,3028.0,0.558987,0.441013
1910,2626.0,0.559452,0.440548
1911,2086.0,0.559674,0.440326
1912,1133.0,0.560209,0.439791
1913,1999.0,0.560514,0.439486
1914,2804.0,0.560925,0.439075
1915,1138.0,0.560948,0.439052
1916,3203.0,0.561643,0.438357
1917,2587.0,0.561643,0.438357
1918,1028.0,0.561899,0.438101
1919,1505.0,0.562091,0.437909
1920,1653.0,0.562429,0.437571
1921,2521.0,0.562856,0.437144
1922,1752.0,0.562945,0.437055
1923,445.0,0.562945,0.437055
1924,2183.0,0.562974,0.437026
1925,214.0,0.563797,0.436203
1926,667.0,0.563804,0.436196
1927,1756.0,0.564814,0.435186
1928,2394.0,0.564884,0.435116
1929,1609.0,0.565018,0.434982
1930,2704.0,0.565192,0.434808
1931,1418.0,0.565283,0.434717
1932,2608.0,0.565357,0.434643
1933,199.0,0.565516,0.434484
1934,1415.0,0.565566,0.434434
1935,2045.0,0.56592,0.43408
1936,92.0,0.566159,0.433841
1937,218.0,0.566181,0.433819
1938,1821.0,0.566206,0.433794
1939,1516.0,0.566704,0.433296
1940,2479.0,0.567119,0.432881
1941,633.0,0.567545,0.432455
1942,2835.0,0.567639,0.432361
1943,796.0,0.567803,0.432197
1944,2218.0,0.56798,0.43202
1945,2107.0,0.56812,0.43188
1946,1913.0,0.56812,0.43188
1947,2670.0,0.568918,0.431082
1948,444.0,0.568982,0.431018
1949,576.0,0.569035,0.430965
1950,1531.0,0.569074,0.430926
1951,1755.0,0.569482,0.430518
1952,1705.0,0.569517,0.430483
1953,323.0,0.569709,0.430291
1954,760.0,0.570622,0.429378
1955,2365.0,0.570871,0.429129
1956,1953.0,0.571189,0.428811
1957,929.0,0.571406,0.428594
1958,2848.0,0.571722,0.428278
1959,627.0,0.57243,0.42757
1960,2682.0,0.572546,0.427454
1961,1504.0,0.572932,0.427068
1962,1041.0,0.574193,0.425807
1963,1774.0,0.574253,0.425747
1964,2861.0,0.574693,0.425307
1965,3023.0,0.57491,0.42509
1966,3112.0,0.574929,0.425071
1967,338.0,0.575408,0.424592
1968,1919.0,0.575424,0.424576
1969,888.0,0.575609,0.424391
1970,1368.0,0.575706,0.424294
1971,2224.0,0.576723,0.423277
1972,813.0,0.576734,0.423266
1973,794.0,0.576848,0.423152
1974,1190.0,0.576903,0.423097
1975,231.0,0.577933,0.422067
1976,1030.0,0.578066,0.421934
1977,2397.0,0.578834,0.421166
1978,2950.0,0.579289,0.420711
1979,2538.0,0.579307,0.420693
1980,285.0,0.579335,0.420665
1981,1637.0,0.579335,0.420665
1982,635.0,0.579404,0.420596
1983,3047.0,0.579561,0.420439
1984,1146.0,0.57958,0.42042
1985,2329.0,0.579982,0.420018
1986,287.0,0.580243,0.419757
1987,1077.0,0.580392,0.419608
1988,468.0,0.581258,0.418742
1989,2370.0,0.581882,0.418118
1990,3094.0,0.582449,0.417551
1991,3217.0,0.582537,0.417463
1992,327.0,0.582861,0.417139
1993,2074.0,0.582875,0.417125
1994,2465.0,0.582894,0.417106
1995,2890.0,0.583437,0.416563
1996,2102.0,0.583681,0.416319
1997,1942.0,0.583832,0.416168
1998,2810.0,0.583917,0.416083
1999,10.0,0.583917,0.416083
2000,2041.0,0.583917,0.416083
2001,1993.0,0.584507,0.415493
2002,322.0,0.584595,0.415405
2003,1518.0,0.584754,0.415246
2004,2457.0,0.584811,0.415189
2005,1173.0,0.584923,0.415077
2006,1816.0,0.585109,0.414891
2007,2359.0,0.585365,0.414635
2008,1992.0,0.587047,0.412953
2009,204.0,0.58711,0.41289
2010,2728.0,0.587444,0.412556
2011,1539.0,0.588388,0.411612
2012,779.0,0.588838,0.411162
2013,1217.0,0.58913,0.41087
2014,112.0,0.589296,0.410704
2015,1912.0,0.590091,0.409909
2016,822.0,0.590388,0.409612
2017,1602.0,0.590397,0.409603
2018,2284.0,0.590517,0.409483
2019,2938.0,0.590587,0.409413
2020,842.0,0.59074,0.40926
2021,2471.0,0.590969,0.409031
2022,2831.0,0.59137,0.40863
2023,3258.0,0.591769,0.408231
2024,923.0,0.591871,0.408129
2025,148.0,0.591871,0.408129
2026,494.0,0.592687,0.407313
2027,367.0,0.592791,0.407209
2028,2197.0,0.593044,0.406956
2029,134.0,0.593415,0.406585
2030,2560.0,0.593622,0.406378
2031,3246.0,0.593881,0.406119
2032,1761.0,0.593881,0.406119
2033,660.0,0.593925,0.406075
2034,588.0,0.594046,0.405954
2035,3001.0,0.594312,0.405688
2036,78.0,0.595137,0.404863
2037,1421.0,0.595654,0.404346
2038,896.0,0.596545,0.403455
2039,1150.0,0.597473,0.402527
2040,2517.0,0.597696,0.402304
2041,3150.0,0.597779,0.402221
2042,1585.0,0.598157,0.401843
2043,1273.0,0.598181,0.401819
2044,3163.0,0.598181,0.401819
2045,2972.0,0.599042,0.400958
2046,1422.0,0.599386,0.400614
2047,960.0,0.599472,0.400528
2048,2575.0,0.599598,0.400402
2049,1326.0,0.599777,0.400223
2050,139.0,0.600338,0.399662
2051,2031.0,0.600399,0.399601
2052,535.0,0.601896,0.398104
2053,1730.0,0.602109,0.397891
2054,1542.0,0.602109,0.397891
2055,2325.0,0.602329,0.397671
2056,1251.0,0.602407,0.397593
2057,3219.0,0.602985,0.397015
2058,931.0,0.603074,0.396926
2059,1123.0,0.603396,0.396604
2060,3104.0,0.603824,0.396176
2061,2674.0,0.604409,0.395591
2062,799.0,0.604503,0.395497
2063,1081.0,0.604503,0.395497
2064,2290.0,0.604584,0.395416
2065,3099.0,0.604892,0.395108
2066,3027.0,0.604907,0.395093
2067,2814.0,0.604907,0.395093
2068,3201.0,0.605251,0.394749
2069,3198.0,0.605252,0.394748
2070,2278.0,0.60563,0.39437
2071,2209.0,0.60572,0.39428
2072,370.0,0.60572,0.39428
2073,2651.0,0.605912,0.394088
2074,3122.0,0.606074,0.393926
2075,3187.0,0.60647,0.39353
2076,2333.0,0.606805,0.393195
2077,599.0,0.606939,0.393061
2078,3080.0,0.608399,0.391601
2079,2326.0,0.608804,0.391196
2080,1466.0,0.60909,0.39091
2081,3076.0,0.609895,0.390105
2082,1648.0,0.609915,0.390085
2083,1939.0,0.609955,0.390045
2084,2710.0,0.609976,0.390024
2085,2049.0,0.610289,0.389711
2086,2391.0,0.611881,0.388119
2087,1500.0,0.612124,0.387876
2088,1915.0,0.612145,0.387855
2089,1831.0,0.612263,0.387737
2090,2241.0,0.612712,0.387288
2091,1693.0,0.613006,0.386994
2092,1791.0,0.613084,0.386916
2093,2770.0,0.613293,0.386707
2094,1996.0,0.613687,0.386313
2095,712.0,0.613687,0.386313
2096,1979.0,0.613687,0.386313
2097,657.0,0.613722,0.386278
2098,1824.0,0.613879,0.386121
2099,2841.0,0.614692,0.385308
2100,776.0,0.614977,0.385023
2101,2248.0,0.615797,0.384203
2102,3030.0,0.615797,0.384203
2103,774.0,0.615915,0.384085
2104,889.0,0.616254,0.383746
2105,1903.0,0.616636,0.383364
2106,170.0,0.616689,0.383311
2107,1200.0,0.616751,0.383249
2108,534.0,0.617356,0.382644
2109,1766.0,0.618182,0.381818
2110,3077.0,0.618255,0.381745
2111,2763.0,0.61845,0.38155
2112,2976.0,0.618603,0.381397
2113,1707.0,0.618603,0.381397
2114,2953.0,0.618817,0.381183
2115,3018.0,0.619408,0.380592
2116,1978.0,0.619814,0.380186
2117,1962.0,0.620496,0.379504
2118,462.0,0.620907,0.379093
2119,1298.0,0.621461,0.378539
2120,289.0,0.621487,0.378513
2121,410.0,0.621974,0.378026
2122,1087.0,0.622502,0.377498
2123,2054.0,0.622867,0.377133
2124,1207.0,0.62306,0.37694
2125,2681.0,0.623343,0.376657
2126,2507.0,0.623352,0.376648
2127,127.0,0.623703,0.376297
2128,817.0,0.62409,0.37591
2129,3261.0,0.624151,0.375849
2130,1377.0,0.624269,0.375731
2131,1698.0,0.624822,0.375178
2132,1525.0,0.625275,0.374725
2133,2380.0,0.626032,0.373968
2134,763.0,0.626158,0.373842
2135,99.0,0.626255,0.373745
2136,1717.0,0.627113,0.372887
2137,2136.0,0.627355,0.372645
2138,2082.0,0.627485,0.372515
2139,1281.0,0.628056,0.371944
2140,1293.0,0.628063,0.371937
2141,1487.0,0.62832,0.37168
2142,2525.0,0.628566,0.371434
2143,544.0,0.62908,0.37092
2144,1793.0,0.629587,0.370413
2145,3227.0,0.629587,0.370413
2146,1199.0,0.629701,0.370299
2147,1711.0,0.629888,0.370112
2148,1382.0,0.630003,0.369997
2149,2813.0,0.630237,0.369763
2150,1053.0,0.630449,0.369551
2151,1489.0,0.630454,0.369546
2152,150.0,0.630769,0.369231
2153,3115.0,0.631503,0.368497
2154,1498.0,0.631754,0.368246
2155,395.0,0.631761,0.368239
2156,1867.0,0.632552,0.367448
2157,2160.0,0.632552,0.367448
2158,21.0,0.632567,0.367433
2159,733.0,0.633115,0.366885
2160,1884.0,0.633531,0.366469
2161,2750.0,0.634033,0.365967
2162,1909.0,0.63466,0.36534
2163,3216.0,0.634785,0.365215
2164,726.0,0.634915,0.365085
2165,778.0,0.635119,0.364881
2166,1604.0,0.635119,0.364881
2167,2664.0,0.635404,0.364596
2168,2047.0,0.635698,0.364302
2169,2555.0,0.636011,0.363989
2170,1440.0,0.636662,0.363338
2171,2358.0,0.636975,0.363025
2172,1719.0,0.637343,0.362657
2173,3130.0,0.637343,0.362657
2174,2816.0,0.638563,0.361437
2175,184.0,0.638704,0.361296
2176,885.0,0.63904,0.36096
2177,77.0,0.6398,0.3602
2178,1536.0,0.639873,0.360127
2179,1103.0,0.640128,0.359872
2180,2040.0,0.640163,0.359837
2181,1442.0,0.640227,0.359773
2182,1773.0,0.640514,0.359486
2183,1124.0,0.641251,0.358749
2184,1568.0,0.641312,0.358688
2185,1152.0,0.641365,0.358635
2186,2066.0,0.641871,0.358129
2187,605.0,0.642128,0.357872
2188,1240.0,0.643178,0.356822
2189,747.0,0.643246,0.356754
2190,678.0,0.643832,0.356168
2191,1845.0,0.643898,0.356102
2192,275.0,0.643898,0.356102
2193,954.0,0.645632,0.354368
2194,2621.0,0.64579,0.35421
2195,3228.0,0.647104,0.352896
2196,361.0,0.647124,0.352876
2197,1503.0,0.648885,0.351115
2198,128.0,0.649172,0.350828
2199,2877.0,0.649278,0.350722
2200,2374.0,0.650419,0.349581
2201,1455.0,0.650524,0.349476
2202,1808.0,0.650621,0.349379
2203,1727.0,0.650621,0.349379
2204,1686.0,0.650621,0.349379
2205,1709.0,0.650769,0.349231
2206,454.0,0.650944,0.349056
2207,658.0,0.650944,0.349056
2208,1176.0,0.650964,0.349036
2209,951.0,0.651314,0.348686
2210,388.0,0.652231,0.347769
2211,2570.0,0.652791,0.347209
2212,2378.0,0.65359,0.34641
2213,1859.0,0.654097,0.345903
2214,2508.0,0.654345,0.345655
2215,1495.0,0.654594,0.345406
2216,430.0,0.655286,0.344714
2217,727.0,0.655772,0.344228
2218,2986.0,0.65578,0.34422
2219,1807.0,0.65578,0.34422
2220,44.0,0.65578,0.34422
2221,1927.0,0.65588,0.34412
2222,1683.0,0.656184,0.343816
2223,1261.0,0.657102,0.342898
2224,1216.0,0.657436,0.342564
2225,503.0,0.657451,0.342549
2226,1578.0,0.657597,0.342403
2227,2296.0,0.657697,0.342303
2228,1511.0,0.6577,0.3423
2229,69.0,0.658118,0.341882
2230,2225.0,0.658118,0.341882
2231,1221.0,0.658166,0.341834
2232,3132.0,0.658177,0.341823
2233,984.0,0.658216,0.341784
2234,259.0,0.66102,0.33898
2235,1972.0,0.661022,0.338978
2236,292.0,0.661079,0.338921
2237,377.0,0.661091,0.338909
2238,342.0,0.66129,0.33871
2239,1488.0,0.661318,0.338682
2240,1331.0,0.661318,0.338682
2241,1616.0,0.661941,0.338059
2242,2285.0,0.662066,0.337934
2243,1402.0,0.662066,0.337934
2244,1522.0,0.66254,0.33746
2245,280.0,0.662718,0.337282
2246,1161.0,0.662892,0.337108
2247,2730.0,0.662924,0.337076
2248,2015.0,0.663149,0.336851
2249,1177.0,0.663324,0.336676
2250,2177.0,0.664686,0.335314
2251,1970.0,0.664841,0.335159
2252,2780.0,0.6649,0.3351
2253,1345.0,0.664965,0.335035
2254,1605.0,0.665026,0.334974
2255,1372.0,0.665369,0.334631
2256,3244.0,0.665433,0.334567
2257,1330.0,0.665855,0.334145
2258,2751.0,0.665931,0.334069
2259,848.0,0.666416,0.333584
2260,2971.0,0.666551,0.333449
2261,513.0,0.667657,0.332343
2262,1102.0,0.668963,0.331037
2263,857.0,0.669064,0.330936
2264,3186.0,0.669064,0.330936
2265,1706.0,0.669145,0.330855
2266,1079.0,0.669324,0.330676
2267,2184.0,0.669879,0.330121
2268,1469.0,0.670404,0.329596
2269,1132.0,0.67105,0.32895
2270,2073.0,0.67105,0.32895
2271,158.0,0.671524,0.328476
2272,334.0,0.672081,0.327919
2273,998.0,0.672081,0.327919
2274,830.0,0.67267,0.32733
2275,1321.0,0.673988,0.326012
2276,2724.0,0.674515,0.325485
2277,961.0,0.675018,0.324982
2278,566.0,0.675409,0.324591
2279,3045.0,0.675996,0.324004
2280,2477.0,0.676079,0.323921
2281,1285.0,0.6761,0.3239
2282,1435.0,0.676114,0.323886
2283,1940.0,0.67693,0.32307
2284,2299.0,0.676946,0.323054
2285,864.0,0.677103,0.322897
2286,2906.0,0.67724,0.32276
2287,1769.0,0.677328,0.322672
2288,1367.0,0.677328,0.322672
2289,2014.0,0.677678,0.322322
2290,2320.0,0.67773,0.32227
2291,2044.0,0.677789,0.322211
2292,2893.0,0.677821,0.322179
2293,40.0,0.677933,0.322067
2294,2488.0,0.678462,0.321538
2295,299.0,0.678896,0.321104
2296,1319.0,0.679074,0.320926
2297,1624.0,0.679201,0.320799
2298,1776.0,0.679491,0.320509
2299,933.0,0.67991,0.32009
2300,586.0,0.679956,0.320044
2301,2873.0,0.680767,0.319233
2302,147.0,0.680832,0.319168
2303,2372.0,0.680993,0.319007
2304,1018.0,0.681511,0.318489
2305,2180.0,0.681511,0.318489
2306,2582.0,0.682936,0.317064
2307,2491.0,0.683801,0.316199
2308,2295.0,0.68383,0.31617
2309,67.0,0.683836,0.316164
2310,1541.0,0.683966,0.316034
2311,2404.0,0.684107,0.315893
2312,2705.0,0.684136,0.315864
2313,989.0,0.684876,0.315124
2314,2315.0,0.68554,0.31446
2315,666.0,0.685639,0.314361
2316,795.0,0.685639,0.314361
2317,97.0,0.685987,0.314013
2318,2745.0,0.686074,0.313926
2319,1439.0,0.686781,0.313219
2320,479.0,0.686956,0.313044
2321,2375.0,0.687796,0.312204
2322,2461.0,0.688366,0.311634
2323,701.0,0.68861,0.31139
2324,2138.0,0.68911,0.31089
2325,1718.0,0.68914,0.31086
2326,880.0,0.68916,0.31084
2327,2389.0,0.690225,0.309775
2328,2992.0,0.69037,0.30963
2329,2572.0,0.690446,0.309554
2330,3083.0,0.690656,0.309344
2331,302.0,0.690797,0.309203
2332,2702.0,0.690797,0.309203
2333,3043.0,0.690862,0.309138
2334,3124.0,0.691189,0.308811
2335,1828.0,0.691806,0.308194
2336,1252.0,0.692076,0.307924
2337,1767.0,0.692129,0.307871
2338,2020.0,0.692359,0.307641
2339,2446.0,0.692359,0.307641
2340,369.0,0.692359,0.307641
2341,3207.0,0.692359,0.307641
2342,2855.0,0.692359,0.307641
2343,401.0,0.692359,0.307641
2344,3159.0,0.692626,0.307374
2345,1995.0,0.692867,0.307133
2346,2628.0,0.692867,0.307133
2347,18.0,0.692977,0.307023
2348,1556.0,0.693348,0.306652
2349,607.0,0.693358,0.306642
2350,1494.0,0.693679,0.306321
2351,2723.0,0.693746,0.306254
2352,2993.0,0.694083,0.305917
2353,1830.0,0.694736,0.305264
2354,1798.0,0.694804,0.305196
2355,2327.0,0.694926,0.305074
2356,2957.0,0.695274,0.304726
2357,431.0,0.695468,0.304532
2358,3026.0,0.695718,0.304282
2359,716.0,0.695866,0.304134
2360,1128.0,0.696048,0.303952
2361,980.0,0.696195,0.303805
2362,2200.0,0.696652,0.303348
2363,1974.0,0.69673,0.30327
2364,1064.0,0.696926,0.303074
2365,376.0,0.697228,0.302772
2366,619.0,0.697252,0.302748
2367,1695.0,0.69818,0.30182
2368,1596.0,0.698202,0.301798
2369,2328.0,0.698326,0.301674
2370,1198.0,0.698326,0.301674
2371,2495.0,0.698451,0.301549
2372,2206.0,0.698848,0.301152
2373,1432.0,0.698976,0.301024
2374,628.0,0.70003,0.29997
2375,1540.0,0.700324,0.299676
2376,442.0,0.701486,0.298514
2377,2944.0,0.701538,0.298462
2378,2800.0,0.701824,0.298176
2379,3116.0,0.701896,0.298104
2380,2673.0,0.702538,0.297462
2381,2619.0,0.702538,0.297462
2382,474.0,0.702538,0.297462
2383,675.0,0.702781,0.297219
2384,2222.0,0.702816,0.297184
2385,3193.0,0.703198,0.296802
2386,2220.0,0.703262,0.296738
2387,1267.0,0.703262,0.296738
2388,2269.0,0.703262,0.296738
2389,2744.0,0.704234,0.295766
2390,2573.0,0.704576,0.295424
2391,631.0,0.704735,0.295265
2392,849.0,0.705446,0.294554
2393,228.0,0.705483,0.294517
2394,3105.0,0.705486,0.294514
2395,3056.0,0.705559,0.294441
2396,1634.0,0.706161,0.293839
2397,925.0,0.706203,0.293797
2398,801.0,0.706203,0.293797
2399,39.0,0.706449,0.293551
2400,2191.0,0.706575,0.293425
2401,239.0,0.707533,0.292467
2402,1878.0,0.707703,0.292297
2403,1136.0,0.707774,0.292226
2404,2792.0,0.707781,0.292219
2405,1914.0,0.708747,0.291253
2406,1827.0,0.709554,0.290446
2407,2093.0,0.709841,0.290159
2408,1917.0,0.709841,0.290159
2409,488.0,0.710264,0.289736
2410,2934.0,0.711062,0.288938
2411,845.0,0.71132,0.28868
2412,2434.0,0.711364,0.288636
2413,15.0,0.711443,0.288557
2414,1063.0,0.71198,0.28802
2415,2630.0,0.712098,0.287902
2416,2725.0,0.712362,0.287638
2417,1055.0,0.712408,0.287592
2418,498.0,0.712742,0.287258
2419,226.0,0.713113,0.286887
2420,636.0,0.714207,0.285793
2421,130.0,0.71516,0.28484
2422,1642.0,0.715607,0.284393
2423,1129.0,0.715711,0.284289
2424,2078.0,0.716332,0.283668
2425,366.0,0.716332,0.283668
2426,2526.0,0.717089,0.282911
2427,3095.0,0.71811,0.28189
2428,2883.0,0.718517,0.281483
2429,2467.0,0.718944,0.281056
2430,3091.0,0.71903,0.28097
2431,2260.0,0.719194,0.280806
2432,659.0,0.719194,0.280806
2433,1613.0,0.71925,0.28075
2434,1729.0,0.71934,0.28066
2435,913.0,0.719788,0.280212
2436,157.0,0.719788,0.280212
2437,2306.0,0.720618,0.279382
2438,2983.0,0.720698,0.279302
2439,1156.0,0.720756,0.279244
2440,617.0,0.720756,0.279244
2441,179.0,0.721233,0.278767
2442,2384.0,0.721258,0.278742
2443,724.0,0.721389,0.278611
2444,1229.0,0.72171,0.27829
2445,3100.0,0.721781,0.278219
2446,1108.0,0.722028,0.277972
2447,2900.0,0.722039,0.277961
2448,3179.0,0.722039,0.277961
2449,3241.0,0.722179,0.277821
2450,436.0,0.722331,0.277669
2451,1571.0,0.722613,0.277387
2452,2776.0,0.722734,0.277266
2453,1611.0,0.722734,0.277266
2454,3129.0,0.722758,0.277242
2455,12.0,0.723366,0.276634
2456,349.0,0.723988,0.276012
2457,400.0,0.724443,0.275557
2458,772.0,0.725039,0.274961
2459,2830.0,0.725309,0.274691
2460,1553.0,0.725557,0.274443
2461,647.0,0.725557,0.274443
2462,1543.0,0.725557,0.274443
2463,151.0,0.725557,0.274443
2464,2740.0,0.725862,0.274138
2465,2069.0,0.726191,0.273809
2466,744.0,0.726247,0.273753
2467,484.0,0.726247,0.273753
2468,2541.0,0.726247,0.273753
2469,2447.0,0.726309,0.273691
2470,428.0,0.726319,0.273681
2471,2839.0,0.72639,0.27361
2472,2908.0,0.726563,0.273437
2473,3154.0,0.726563,0.273437
2474,1659.0,0.727166,0.272834
2475,2564.0,0.727809,0.272191
2476,2376.0,0.728233,0.271767
2477,2386.0,0.728362,0.271638
2478,1373.0,0.728488,0.271512
2479,255.0,0.728682,0.271318
2480,2610.0,0.729102,0.270898
2481,905.0,0.729108,0.270892
2482,2635.0,0.729407,0.270593
2483,399.0,0.729407,0.270593
2484,1060.0,0.729792,0.270208
2485,58.0,0.7303,0.2697
2486,1638.0,0.730732,0.269268
2487,2057.0,0.730913,0.269087
2488,461.0,0.731148,0.268852
2489,886.0,0.732509,0.267491
2490,3195.0,0.732509,0.267491
2491,2354.0,0.732852,0.267148
2492,1960.0,0.732974,0.267026
2493,3087.0,0.733053,0.266947
2494,1346.0,0.733651,0.266349
2495,43.0,0.733814,0.266186
2496,2706.0,0.733891,0.266109
2497,68.0,0.734593,0.265407
2498,685.0,0.735269,0.264731
2499,2914.0,0.735994,0.264006
2500,1082.0,0.73601,0.26399
2501,1317.0,0.736018,0.263982
2502,1344.0,0.736035,0.263965
2503,2627.0,0.736219,0.263781
2504,1478.0,0.736396,0.263604
2505,320.0,0.736515,0.263485
2506,2558.0,0.737112,0.262888
2507,3020.0,0.737216,0.262784
2508,2685.0,0.737339,0.262661
2509,655.0,0.73755,0.26245
2510,2687.0,0.737816,0.262184
2511,31.0,0.73801,0.26199
2512,1110.0,0.73801,0.26199
2513,458.0,0.73801,0.26199
2514,1105.0,0.738195,0.261805
2515,1386.0,0.73868,0.26132
2516,3108.0,0.738729,0.261271
2517,1213.0,0.738846,0.261154
2518,2633.0,0.740703,0.259297
2519,1329.0,0.741373,0.258627
2520,447.0,0.741504,0.258496
2521,505.0,0.741504,0.258496
2522,986.0,0.741919,0.258081
2523,1535.0,0.74231,0.25769
2524,1024.0,0.742355,0.257645
2525,1441.0,0.742355,0.257645
2526,1349.0,0.742579,0.257421
2527,687.0,0.743437,0.256563
2528,398.0,0.743525,0.256475
2529,1399.0,0.743549,0.256451
2530,1805.0,0.743811,0.256189
2531,3180.0,0.744009,0.255991
2532,2475.0,0.744385,0.255615
2533,19.0,0.744395,0.255605
2534,207.0,0.744758,0.255242
2535,969.0,0.744758,0.255242
2536,897.0,0.744897,0.255103
2537,2298.0,0.745516,0.254484
2538,2987.0,0.745594,0.254406
2539,2742.0,0.746007,0.253993
2540,2381.0,0.746052,0.253948
2541,3103.0,0.746052,0.253948
2542,1700.0,0.746608,0.253392
2543,449.0,0.746733,0.253267
2544,120.0,0.746779,0.253221
2545,600.0,0.746779,0.253221
2546,3200.0,0.746872,0.253128
2547,100.0,0.747306,0.252694
2548,426.0,0.747435,0.252565
2549,1812.0,0.747435,0.252565
2550,743.0,0.747435,0.252565
2551,2438.0,0.747435,0.252565
2552,1976.0,0.747767,0.252233
2553,2857.0,0.748,0.252
2554,1186.0,0.748,0.252
2555,2528.0,0.748,0.252
2556,2195.0,0.748089,0.251911
2557,1425.0,0.748539,0.251461
2558,293.0,0.748847,0.251153
2559,1515.0,0.749066,0.250934
2560,222.0,0.749122,0.250878
2561,2210.0,0.749122,0.250878
2562,2120.0,0.749122,0.250878
2563,84.0,0.749209,0.250791
2564,7.0,0.749587,0.250413
2565,453.0,0.749842,0.250158
2566,269.0,0.74992,0.25008
2567,234.0,0.75089,0.24911
2568,1388.0,0.75133,0.24867
2569,2697.0,0.751355,0.248645
2570,2401.0,0.751584,0.248416
2571,409.0,0.751703,0.248297
2572,3069.0,0.752062,0.247938
2573,2649.0,0.752331,0.247669
2574,3118.0,0.752381,0.247619
2575,375.0,0.752732,0.247268
2576,1357.0,0.752829,0.247171
2577,3123.0,0.753036,0.246964
2578,805.0,0.753377,0.246623
2579,833.0,0.753377,0.246623
2580,473.0,0.753377,0.246623
2581,1167.0,0.753377,0.246623
2582,2755.0,0.753557,0.246443
2583,1137.0,0.753641,0.246359
2584,606.0,0.754354,0.245646
2585,1888.0,0.756418,0.243582
2586,2979.0,0.756632,0.243368
2587,851.0,0.75675,0.24325
2588,1499.0,0.757061,0.242939
2589,365.0,0.757588,0.242412
2590,928.0,0.75859,0.24141
2591,2436.0,0.75859,0.24141
2592,1607.0,0.759224,0.240776
2593,2775.0,0.759224,0.240776
2594,3126.0,0.759858,0.240142
2595,3218.0,0.760005,0.239995
2596,2272.0,0.760467,0.239533
2597,3066.0,0.760467,0.239533
2598,2344.0,0.760467,0.239533
2599,3060.0,0.760482,0.239518
2600,2133.0,0.760631,0.239369
2601,936.0,0.760738,0.239262
2602,2749.0,0.760844,0.239156
2603,1151.0,0.761058,0.238942
2604,3044.0,0.761415,0.238585
2605,2967.0,0.761606,0.238394
2606,1097.0,0.761769,0.238231
2607,750.0,0.762228,0.237772
2608,2600.0,0.762427,0.237573
2609,3114.0,0.762608,0.237392
2610,1684.0,0.762834,0.237166
2611,2450.0,0.762841,0.237159
2612,185.0,0.763153,0.236847
2613,832.0,0.763259,0.236741
2614,2829.0,0.763393,0.236607
2615,2171.0,0.763615,0.236385
2616,1089.0,0.763935,0.236065
2617,1674.0,0.764459,0.235541
2618,3064.0,0.764976,0.235024
2619,2081.0,0.764976,0.235024
2620,740.0,0.764976,0.235024
2621,2820.0,0.765152,0.234848
2622,1618.0,0.765599,0.234401
2623,2063.0,0.765599,0.234401
2624,2068.0,0.766146,0.233854
2625,1760.0,0.766246,0.233754
2626,382.0,0.766253,0.233747
2627,1922.0,0.766655,0.233345
2628,1250.0,0.766714,0.233286
2629,3245.0,0.767055,0.232945
2630,757.0,0.767085,0.232915
2631,1513.0,0.767507,0.232493
2632,2563.0,0.767615,0.232385
2633,571.0,0.767615,0.232385
2634,210.0,0.767655,0.232345
2635,2038.0,0.768033,0.231967
2636,1381.0,0.768042,0.231958
2637,910.0,0.768126,0.231874
2638,59.0,0.768126,0.231874
2639,1764.0,0.768917,0.231083
2640,1370.0,0.770143,0.229857
2641,3127.0,0.770674,0.229326
2642,3251.0,0.770842,0.229158
2643,1554.0,0.771106,0.228894
2644,2204.0,0.77122,0.22878
2645,3147.0,0.771245,0.228755
2646,2842.0,0.771245,0.228755
2647,1765.0,0.771293,0.228707
2648,476.0,0.771966,0.228034
2649,948.0,0.77251,0.22749
2650,1155.0,0.772512,0.227488
2651,1.0,0.773292,0.226708
2652,1093.0,0.773371,0.226629
2653,2645.0,0.773385,0.226615
2654,406.0,0.773385,0.226615
2655,177.0,0.773385,0.226615
2656,102.0,0.773385,0.226615
2657,106.0,0.773642,0.226358
2658,874.0,0.773728,0.226272
2659,935.0,0.773728,0.226272
2660,1679.0,0.773728,0.226272
2661,1689.0,0.773728,0.226272
2662,2053.0,0.773728,0.226272
2663,506.0,0.774255,0.225745
2664,2454.0,0.77476,0.22524
2665,754.0,0.774986,0.225014
2666,1731.0,0.775132,0.224868
2667,465.0,0.775273,0.224727
2668,2629.0,0.775568,0.224432
2669,2748.0,0.775631,0.224369
2670,1863.0,0.77576,0.22424
2671,2954.0,0.776193,0.223807
2672,2505.0,0.776794,0.223206
2673,863.0,0.777228,0.222772
2674,93.0,0.778638,0.221362
2675,2119.0,0.778638,0.221362
2676,3034.0,0.778638,0.221362
2677,2825.0,0.779474,0.220526
2678,1538.0,0.779487,0.220513
2679,241.0,0.779594,0.220406
2680,3009.0,0.77962,0.22038
2681,1228.0,0.779995,0.220005
2682,313.0,0.780214,0.219786
2683,738.0,0.780248,0.219752
2684,860.0,0.780657,0.219343
2685,1748.0,0.781298,0.218702
2686,1086.0,0.781641,0.218359
2687,2679.0,0.781656,0.218344
2688,3102.0,0.781913,0.218087
2689,820.0,0.783055,0.216945
2690,432.0,0.783125,0.216875
2691,135.0,0.783361,0.216639
2692,592.0,0.78347,0.21653
2693,2202.0,0.784644,0.215356
2694,1209.0,0.784644,0.215356
2695,892.0,0.784644,0.215356
2696,2067.0,0.784644,0.215356
2697,1589.0,0.786441,0.213559
2698,2701.0,0.786441,0.213559
2699,502.0,0.786441,0.213559
2700,930.0,0.786441,0.213559
2701,2182.0,0.786453,0.213547
2702,2101.0,0.787009,0.212991
2703,1203.0,0.787023,0.212977
2704,1006.0,0.787035,0.212965
2705,3257.0,0.787035,0.212965
2706,1166.0,0.787603,0.212397
2707,2490.0,0.78765,0.21235
2708,3074.0,0.78765,0.21235
2709,2686.0,0.787855,0.212145
2710,507.0,0.789072,0.210928
2711,2317.0,0.789957,0.210043
2712,200.0,0.789957,0.210043
2713,2886.0,0.789957,0.210043
2714,418.0,0.791487,0.208513
2715,32.0,0.791522,0.208478
2716,2104.0,0.791522,0.208478
2717,2693.0,0.791542,0.208458
2718,2596.0,0.792155,0.207845
2719,3017.0,0.792292,0.207708
2720,2815.0,0.792292,0.207708
2721,2348.0,0.792379,0.207621
2722,1397.0,0.7924,0.2076
2723,1625.0,0.792519,0.207481
2724,568.0,0.792862,0.207138
2725,2921.0,0.79287,0.20713
2726,1335.0,0.793566,0.206434
2727,3144.0,0.793697,0.206303
2728,433.0,0.793798,0.206202
2729,282.0,0.79409,0.20591
2730,2060.0,0.79443,0.20557
2731,3184.0,0.794608,0.205392
2732,1412.0,0.794755,0.205245
2733,1775.0,0.795173,0.204827
2734,1471.0,0.795173,0.204827
2735,160.0,0.795173,0.204827
2736,2252.0,0.795173,0.204827
2737,1271.0,0.795173,0.204827
2738,1292.0,0.795173,0.204827
2739,2553.0,0.795173,0.204827
2740,90.0,0.795173,0.204827
2741,2109.0,0.795664,0.204336
2742,1797.0,0.796814,0.203186
2743,2425.0,0.79709,0.20291
2744,823.0,0.797389,0.202611
2745,520.0,0.797389,0.202611
2746,223.0,0.797465,0.202535
2747,622.0,0.797517,0.202483
2748,2280.0,0.797611,0.202389
2749,835.0,0.797825,0.202175
2750,2794.0,0.797831,0.202169
2751,1906.0,0.797877,0.202123
2752,1537.0,0.798032,0.201968
2753,1897.0,0.798032,0.201968
2754,3098.0,0.798032,0.201968
2755,2055.0,0.798214,0.201786
2756,216.0,0.798581,0.201419
2757,2500.0,0.798581,0.201419
2758,519.0,0.798581,0.201419
2759,634.0,0.798581,0.201419
2760,2368.0,0.798581,0.201419
2761,1406.0,0.798581,0.201419
2762,2432.0,0.798649,0.201351
2763,1584.0,0.79884,0.20116
2764,1258.0,0.799577,0.200423
2765,3237.0,0.799593,0.200407
2766,2013.0,0.800292,0.199708
2767,1691.0,0.800292,0.199708
2768,2874.0,0.800292,0.199708
2769,419.0,0.800292,0.199708
2770,1333.0,0.800739,0.199261
2771,2557.0,0.801471,0.198529
2772,2245.0,0.801767,0.198233
2773,2126.0,0.8018,0.1982
2774,2288.0,0.801908,0.198092
2775,714.0,0.802541,0.197459
2776,2542.0,0.802594,0.197406
2777,123.0,0.802754,0.197246
2778,2347.0,0.80309,0.19691
2779,1185.0,0.80309,0.19691
2780,359.0,0.803552,0.196448
2781,2267.0,0.804414,0.195586
2782,2342.0,0.804736,0.195264
2783,1675.0,0.804771,0.195229
2784,2870.0,0.805269,0.194731
2785,1721.0,0.805269,0.194731
2786,217.0,0.805315,0.194685
2787,2727.0,0.805315,0.194685
2788,1959.0,0.80541,0.19459
2789,3233.0,0.805664,0.194336
2790,884.0,0.805778,0.194222
2791,2671.0,0.806259,0.193741
2792,2007.0,0.806321,0.193679
2793,1121.0,0.806321,0.193679
2794,1849.0,0.80656,0.19344
2795,2774.0,0.807074,0.192926
2796,101.0,0.807261,0.192739
2797,2128.0,0.807288,0.192712
2798,440.0,0.807288,0.192712
2799,1160.0,0.807521,0.192479
2800,2300.0,0.807521,0.192479
2801,2624.0,0.807521,0.192479
2802,1058.0,0.807521,0.192479
2803,654.0,0.808059,0.191941
2804,2978.0,0.808059,0.191941
2805,1787.0,0.808059,0.191941
2806,2773.0,0.808059,0.191941
2807,1343.0,0.808059,0.191941
2808,421.0,0.808149,0.191851
2809,1680.0,0.808999,0.191001
2810,236.0,0.810005,0.189995
2811,2584.0,0.810568,0.189432
2812,2259.0,0.810568,0.189432
2813,1278.0,0.810568,0.189432
2814,98.0,0.810568,0.189432
2815,2099.0,0.810568,0.189432
2816,96.0,0.810938,0.189062
2817,1514.0,0.811462,0.188538
2818,1075.0,0.811575,0.188425
2819,608.0,0.811679,0.188321
2820,165.0,0.812024,0.187976
2821,1879.0,0.81273,0.18727
2822,800.0,0.81273,0.18727
2823,2433.0,0.812932,0.187068
2824,1777.0,0.812932,0.187068
2825,3178.0,0.812932,0.187068
2826,1246.0,0.813055,0.186945
2827,2144.0,0.813128,0.186872
2828,2083.0,0.813282,0.186718
2829,2543.0,0.815071,0.184929
2830,3029.0,0.815392,0.184608
2831,1750.0,0.81558,0.18442
2832,547.0,0.815585,0.184415
2833,877.0,0.815585,0.184415
2834,780.0,0.81616,0.18384
2835,2923.0,0.81616,0.18384
2836,2087.0,0.81616,0.18384
2837,1444.0,0.81616,0.18384
2838,3225.0,0.816246,0.183754
2839,2423.0,0.816246,0.183754
2840,1126.0,0.816269,0.183731
2841,3264.0,0.816269,0.183731
2842,194.0,0.817432,0.182568
2843,728.0,0.817709,0.182291
2844,1417.0,0.817709,0.182291
2845,1162.0,0.817709,0.182291
2846,2084.0,0.819806,0.180194
2847,1682.0,0.820227,0.179773
2848,1837.0,0.820504,0.179496
2849,2173.0,0.82073,0.17927
2850,1212.0,0.821005,0.178995
2851,3070.0,0.821095,0.178905
2852,1527.0,0.821203,0.178797
2853,1022.0,0.821387,0.178613
2854,2337.0,0.821715,0.178285
2855,3188.0,0.821804,0.178196
2856,1328.0,0.821804,0.178196
2857,2230.0,0.821884,0.178116
2858,2872.0,0.822034,0.177966
2859,829.0,0.822391,0.177609
2860,595.0,0.823109,0.176891
2861,2012.0,0.823273,0.176727
2862,230.0,0.823279,0.176721
2863,2554.0,0.823279,0.176721
2864,343.0,0.823279,0.176721
2865,2037.0,0.823279,0.176721
2866,1428.0,0.823279,0.176721
2867,1032.0,0.823279,0.176721
2868,2995.0,0.823279,0.176721
2869,1857.0,0.823279,0.176721
2870,1622.0,0.823938,0.176062
2871,3120.0,0.824333,0.175667
2872,2642.0,0.824446,0.175554
2873,3082.0,0.824446,0.175554
2874,646.0,0.824446,0.175554
2875,140.0,0.82535,0.17465
2876,1510.0,0.82535,0.17465
2877,1191.0,0.825412,0.174588
2878,138.0,0.825911,0.174089
2879,1885.0,0.825994,0.174006
2880,1984.0,0.826125,0.173875
2881,1001.0,0.826125,0.173875
2882,1303.0,0.826125,0.173875
2883,2198.0,0.826125,0.173875
2884,2772.0,0.826125,0.173875
2885,1192.0,0.826294,0.173706
2886,2322.0,0.82695,0.17305
2887,1566.0,0.826978,0.173022
2888,1795.0,0.826978,0.173022
2889,1289.0,0.826978,0.173022
2890,205.0,0.826978,0.173022
2891,767.0,0.827856,0.172144
2892,703.0,0.828494,0.171506
2893,2918.0,0.82899,0.17101
2894,2499.0,0.82899,0.17101
2895,1038.0,0.82899,0.17101
2896,1926.0,0.829309,0.170691
2897,2.0,0.82971,0.17029
2898,858.0,0.82971,0.17029
2899,3073.0,0.82971,0.17029
2900,3121.0,0.82971,0.17029
2901,937.0,0.82971,0.17029
2902,707.0,0.829827,0.170173
2903,1094.0,0.830158,0.169842
2904,219.0,0.830426,0.169574
2905,1751.0,0.830426,0.169574
2906,557.0,0.830426,0.169574
2907,2650.0,0.830426,0.169574
2908,36.0,0.830426,0.169574
2909,1783.0,0.830688,0.169312
2910,2904.0,0.830688,0.169312
2911,1074.0,0.830688,0.169312
2912,412.0,0.830688,0.169312
2913,312.0,0.831471,0.168529
2914,1701.0,0.831471,0.168529
2915,1555.0,0.831471,0.168529
2916,2030.0,0.831471,0.168529
2917,1084.0,0.831527,0.168473
2918,879.0,0.83163,0.16837
2919,1119.0,0.832295,0.167705
2920,1365.0,0.832643,0.167357
2921,1712.0,0.832942,0.167058
2922,1902.0,0.832955,0.167045
2923,940.0,0.83313,0.16687
2924,2657.0,0.833754,0.166246
2925,1673.0,0.834601,0.165399
2926,3006.0,0.834813,0.165187
2927,895.0,0.835435,0.164565
2928,1672.0,0.835501,0.164499
2929,2836.0,0.83587,0.16413
2930,1259.0,0.83587,0.16413
2931,2604.0,0.83587,0.16413
2932,142.0,0.83587,0.16413
2933,1662.0,0.83587,0.16413
2934,558.0,0.83587,0.16413
2935,3059.0,0.83587,0.16413
2936,378.0,0.836008,0.163992
2937,490.0,0.836008,0.163992
2938,1770.0,0.836529,0.163471
2939,3175.0,0.836677,0.163323
2940,2741.0,0.836677,0.163323
2941,899.0,0.838005,0.161995
2942,695.0,0.838387,0.161613
2943,922.0,0.838785,0.161215
2944,2004.0,0.838939,0.161061
2945,3089.0,0.839014,0.160986
2946,1789.0,0.839506,0.160494
2947,2283.0,0.83952,0.16048
2948,1865.0,0.83952,0.16048
2949,2958.0,0.83952,0.16048
2950,594.0,0.840177,0.159823
2951,690.0,0.840177,0.159823
2952,2263.0,0.840177,0.159823
2953,1969.0,0.840177,0.159823
2954,1665.0,0.840177,0.159823
2955,1140.0,0.840763,0.159237
2956,2511.0,0.841785,0.158215
2957,51.0,0.842266,0.157734
2958,2833.0,0.842333,0.157667
2959,553.0,0.8424,0.1576
2960,2808.0,0.843253,0.156747
2961,1576.0,0.843749,0.156251
2962,1423.0,0.843795,0.156205
2963,2690.0,0.844391,0.155609
2964,719.0,0.844391,0.155609
2965,2840.0,0.844391,0.155609
2966,2287.0,0.844391,0.155609
2967,3021.0,0.844391,0.155609
2968,955.0,0.844391,0.155609
2969,2470.0,0.845965,0.154035
2970,861.0,0.845969,0.154031
2971,1820.0,0.846566,0.153434
2972,2915.0,0.847182,0.152818
2973,3.0,0.847182,0.152818
2974,1040.0,0.847402,0.152598
2975,202.0,0.847402,0.152598
2976,1918.0,0.847402,0.152598
2977,2790.0,0.847402,0.152598
2978,1623.0,0.847402,0.152598
2979,650.0,0.847402,0.152598
2980,1400.0,0.847402,0.152598
2981,2092.0,0.847402,0.152598
2982,2964.0,0.847402,0.152598
2983,2112.0,0.847551,0.152449
2984,887.0,0.847551,0.152449
2985,591.0,0.847551,0.152449
2986,439.0,0.847886,0.152114
2987,486.0,0.848129,0.151871
2988,510.0,0.848129,0.151871
2989,2955.0,0.848238,0.151762
2990,1438.0,0.848515,0.151485
2991,540.0,0.848515,0.151485
2992,1493.0,0.848515,0.151485
2993,2009.0,0.848515,0.151485
2994,424.0,0.848515,0.151485
2995,942.0,0.848515,0.151485
2996,825.0,0.849717,0.150283
2997,626.0,0.850054,0.149946
2998,2205.0,0.851509,0.148491
2999,1641.0,0.851509,0.148491
3000,1573.0,0.851509,0.148491
3001,3249.0,0.851509,0.148491
3002,2566.0,0.851509,0.148491
3003,1163.0,0.851509,0.148491
3004,2274.0,0.851509,0.148491
3005,252.0,0.852238,0.147762
3006,1864.0,0.852278,0.147722
3007,1288.0,0.852278,0.147722
3008,3032.0,0.852278,0.147722
3009,536.0,0.852278,0.147722
3010,524.0,0.852278,0.147722
3011,344.0,0.852278,0.147722
3012,918.0,0.854008,0.145992
3013,1280.0,0.855081,0.144919
3014,1656.0,0.856189,0.143811
3015,2518.0,0.856189,0.143811
3016,1840.0,0.856189,0.143811
3017,182.0,0.856189,0.143811
3018,2255.0,0.856189,0.143811
3019,791.0,0.856189,0.143811
3020,2415.0,0.856189,0.143811
3021,34.0,0.856189,0.143811
3022,508.0,0.856189,0.143811
3023,2844.0,0.856189,0.143811
3024,363.0,0.857111,0.142889
3025,487.0,0.858574,0.141426
3026,1447.0,0.858916,0.141084
3027,2712.0,0.858984,0.141016
3028,1545.0,0.859964,0.140036
3029,3084.0,0.859964,0.140036
3030,846.0,0.859964,0.140036
3031,737.0,0.859964,0.140036
3032,2494.0,0.859964,0.140036
3033,380.0,0.86059,0.13941
3034,1131.0,0.86316,0.13684
3035,276.0,0.864265,0.135735
3036,2188.0,0.866576,0.133424
3037,3117.0,0.867075,0.132925
3038,116.0,0.867075,0.132925
3039,1485.0,0.867482,0.132518
3040,2311.0,0.86752,0.13248
3041,1784.0,0.867741,0.132259
3042,2426.0,0.867819,0.132181
3043,2214.0,0.868013,0.131987
3044,110.0,0.868868,0.131132
3045,1608.0,0.868868,0.131132
3046,3185.0,0.87042,0.12958
3047,2451.0,0.87069,0.12931
3048,598.0,0.87069,0.12931
3049,1980.0,0.87069,0.12931
3050,2480.0,0.87069,0.12931
3051,2638.0,0.871048,0.128952
3052,2879.0,0.872399,0.127601
3053,2442.0,0.872411,0.127589
3054,3148.0,0.873831,0.126169
3055,1563.0,0.87457,0.12543
3056,73.0,0.87457,0.12543
3057,3000.0,0.87457,0.12543
3058,2268.0,0.87457,0.12543
3059,3046.0,0.874886,0.125114
3060,368.0,0.875403,0.124597
3061,2689.0,0.875403,0.124597
3062,296.0,0.875403,0.124597
3063,1758.0,0.875403,0.124597
3064,1772.0,0.875403,0.124597
3065,2656.0,0.875403,0.124597
3066,670.0,0.875403,0.124597
3067,806.0,0.875403,0.124597
3068,2282.0,0.875403,0.124597
3069,2802.0,0.875403,0.124597
3070,1231.0,0.875403,0.124597
3071,1316.0,0.875403,0.124597
3072,1533.0,0.875403,0.124597
3073,1380.0,0.875403,0.124597
3074,1153.0,0.875403,0.124597
3075,1222.0,0.875403,0.124597
3076,1497.0,0.875403,0.124597
3077,868.0,0.875403,0.124597
3078,1255.0,0.875403,0.124597
3079,2530.0,0.875662,0.124338
3080,783.0,0.875662,0.124338
3081,414.0,0.876042,0.123958
3082,3211.0,0.876042,0.123958
3083,308.0,0.876042,0.123958
3084,2892.0,0.876042,0.123958
3085,1664.0,0.876433,0.123567
3086,649.0,0.876433,0.123567
3087,1741.0,0.877136,0.122864
3088,233.0,0.879279,0.120721
3089,1122.0,0.879279,0.120721
3090,2688.0,0.879737,0.120263
3091,2487.0,0.879828,0.120172
3092,1114.0,0.879828,0.120172
3093,2142.0,0.879828,0.120172
3094,512.0,0.879828,0.120172
3095,514.0,0.879828,0.120172
3096,2207.0,0.879828,0.120172
3097,472.0,0.879828,0.120172
3098,550.0,0.879828,0.120172
3099,2474.0,0.879828,0.120172
3100,836.0,0.879828,0.120172
3101,2502.0,0.879828,0.120172
3102,1450.0,0.879828,0.120172
3103,1702.0,0.879828,0.120172
3104,1224.0,0.879828,0.120172
3105,2569.0,0.879828,0.120172
3106,178.0,0.879828,0.120172
3107,1268.0,0.879828,0.120172
3108,3232.0,0.879828,0.120172
3109,2603.0,0.879828,0.120172
3110,113.0,0.879828,0.120172
3111,2609.0,0.879828,0.120172
3112,2615.0,0.879828,0.120172
3113,49.0,0.879828,0.120172
3114,46.0,0.879828,0.120172
3115,1125.0,0.879828,0.120172
3116,603.0,0.879828,0.120172
3117,427.0,0.879828,0.120172
3118,1663.0,0.879828,0.120172
3119,839.0,0.879828,0.120172
3120,818.0,0.879828,0.120172
3121,1593.0,0.879828,0.120172
3122,807.0,0.879828,0.120172
3123,1643.0,0.879828,0.120172
3124,945.0,0.879828,0.120172
3125,1184.0,0.879977,0.120023
3126,865.0,0.879977,0.120023
3127,717.0,0.882482,0.117518
3128,1891.0,0.883288,0.116712
3129,2042.0,0.883288,0.116712
3130,2756.0,0.883288,0.116712
3131,2632.0,0.883288,0.116712
3132,1334.0,0.883288,0.116712
3133,855.0,0.883288,0.116712
3134,741.0,0.883288,0.116712
3135,1877.0,0.883288,0.116712
3136,3169.0,0.883288,0.116712
3137,1954.0,0.885996,0.114004
3138,3177.0,0.886595,0.113405
3139,1233.0,0.886595,0.113405
3140,831.0,0.886795,0.113205
3141,294.0,0.886795,0.113205
3142,2561.0,0.89225,0.10775
3143,2822.0,0.895271,0.104729
3144,172.0,0.896914,0.103086
3145,1308.0,0.896914,0.103086
3146,326.0,0.901532,0.098468
3147,2550.0,0.904199,0.095801
3148,2310.0,0.904199,0.095801
3149,1905.0,0.904199,0.095801
3150,2675.0,0.904199,0.095801
3151,469.0,0.905998,0.094002
3152,1180.0,0.907445,0.092555
3153,2385.0,0.907445,0.092555
3154,2061.0,0.907445,0.092555
3155,2759.0,0.907445,0.092555
3156,1881.0,0.907445,0.092555
3157,3014.0,0.908825,0.091175
3158,1362.0,0.909081,0.090919
3159,3204.0,0.909494,0.090506
3160,1710.0,0.910551,0.089449
3161,95.0,0.910551,0.089449
3162,2331.0,0.910551,0.089449
3163,3161.0,0.910551,0.089449
3164,2868.0,0.911669,0.088331
3165,1813.0,0.911669,0.088331
3166,2240.0,0.911669,0.088331
3167,3050.0,0.911669,0.088331
3168,2035.0,0.911825,0.088175
3169,2592.0,0.912346,0.087654
3170,1968.0,0.912916,0.087084
3171,2005.0,0.914342,0.085658
3172,131.0,0.914342,0.085658
3173,1998.0,0.914342,0.085658
3174,775.0,0.914342,0.085658
3175,2309.0,0.914342,0.085658
3176,1598.0,0.914342,0.085658
3177,2854.0,0.914342,0.085658
3178,2616.0,0.914342,0.085658
3179,3238.0,0.914342,0.085658
3180,3254.0,0.914342,0.085658
3181,1286.0,0.914342,0.085658
3182,2294.0,0.914342,0.085658
3183,2577.0,0.914342,0.085658
3184,169.0,0.914342,0.085658
3185,854.0,0.914342,0.085658
3186,1796.0,0.914342,0.085658
3187,2048.0,0.914342,0.085658
3188,1801.0,0.914342,0.085658
3189,1307.0,0.914342,0.085658
3190,2366.0,0.914342,0.085658
3191,2097.0,0.914342,0.085658
3192,471.0,0.914342,0.085658
3193,466.0,0.914342,0.085658
3194,1050.0,0.914342,0.085658
3195,1472.0,0.914342,0.085658
3196,1569.0,0.914342,0.085658
3197,2716.0,0.914342,0.085658
3198,2999.0,0.914342,0.085658
3199,371.0,0.914342,0.085658
3200,2115.0,0.914342,0.085658
3201,1823.0,0.914342,0.085658
3202,1547.0,0.914342,0.085658
3203,949.0,0.914342,0.085658
3204,1677.0,0.914342,0.085658
3205,611.0,0.914342,0.085658
3206,1678.0,0.914342,0.085658
3207,680.0,0.91703,0.08297
3208,2796.0,0.91703,0.08297
3209,673.0,0.91703,0.08297
3210,2444.0,0.91703,0.08297
3211,3072.0,0.91703,0.08297
3212,1080.0,0.91703,0.08297
3213,981.0,0.91703,0.08297
3214,1048.0,0.91703,0.08297
3215,105.0,0.91703,0.08297
3216,3242.0,0.91703,0.08297
3217,597.0,0.91703,0.08297
3218,2623.0,0.91703,0.08297
3219,1988.0,0.91703,0.08297
3220,1517.0,0.91703,0.08297
3221,2881.0,0.91703,0.08297
3222,1391.0,0.91703,0.08297
3223,1971.0,0.91703,0.08297
3224,1294.0,0.91703,0.08297
3225,65.0,0.91703,0.08297
3226,985.0,0.91703,0.08297
3227,834.0,0.91703,0.08297
3228,2431.0,0.91703,0.08297
3229,2622.0,0.91703,0.08297
3230,2988.0,0.91703,0.08297
3231,1115.0,0.91703,0.08297
3232,341.0,0.91703,0.08297
3233,331.0,0.91703,0.08297
3234,356.0,0.91703,0.08297
3235,1434.0,0.91703,0.08297
3236,1733.0,0.91703,0.08297
3237,358.0,0.91703,0.08297
3238,2535.0,0.91703,0.08297
3239,2270.0,0.91703,0.08297
3240,746.0,0.91703,0.08297
3241,3090.0,0.91703,0.08297
3242,1630.0,0.91703,0.08297
3243,2980.0,0.91703,0.08297
3244,413.0,0.91703,0.08297
3245,2597.0,0.91703,0.08297
3246,2565.0,0.91703,0.08297
3247,1762.0,0.91703,0.08297
3248,978.0,0.91703,0.08297
3249,3155.0,0.91703,0.08297
3250,1989.0,0.91703,0.08297
3251,2590.0,0.91703,0.08297
3252,2123.0,0.91703,0.08297
3253,867.0,0.91703,0.08297
3254,708.0,0.91703,0.08297
3255,2703.0,0.91703,0.08297
3256,191.0,0.91703,0.08297
3257,2323.0,0.91703,0.08297
3258,725.0,0.91703,0.08297
3259,1651.0,0.91703,0.08297
3260,1464.0,0.91703,0.08297
3261,2281.0,0.92399,0.07601
3262,1179.0,0.92399,0.07601
3263,1502.0,0.97109,0.02891
