,idx,nominal,anomaly
0,727.0,0.0,1.0
1,441.0,0.0,1.0
2,125.0,0.0,1.0
3,1033.0,0.0,1.0
4,437.0,0.0,1.0
5,436.0,0.0,1.0
6,873.0,0.0,1.0
7,876.0,0.0,1.0
8,134.0,0.0,1.0
9,123.0,0.0,1.0
10,422.0,0.0,1.0
11,418.0,0.0,1.0
12,1023.0,0.0,1.0
13,1022.0,0.0,1.0
14,881.0,0.0,1.0
15,415.0,0.0,1.0
16,143.0,0.0,1.0
17,884.0,0.0,1.0
18,1019.0,0.0,1.0
19,1025.0,0.0,1.0
20,442.0,0.0,1.0
21,447.0,0.0,1.0
22,860.0,0.0,1.0
23,92.0,0.0,1.0
24,503.0,0.0,1.0
25,499.0,0.0,1.0
26,496.0,0.0,1.0
27,97.0,0.0,1.0
28,846.0,0.0,1.0
29,487.0,0.0,1.0
30,102.0,0.0,1.0
31,486.0,0.0,1.0
32,482.0,0.0,1.0
33,850.0,0.0,1.0
34,478.0,0.0,1.0
35,221.0,0.0,1.0
36,469.0,0.0,1.0
37,111.0,0.0,1.0
38,467.0,0.0,1.0
39,114.0,0.0,1.0
40,463.0,0.0,1.0
41,858.0,0.0,1.0
42,409.0,0.0,1.0
43,91.0,0.0,1.0
44,403.0,0.0,1.0
45,888.0,0.0,1.0
46,283.0,0.0,1.0
47,190.0,0.0,1.0
48,191.0,0.0,1.0
49,192.0,0.0,1.0
50,194.0,0.0,1.0
51,281.0,0.0,1.0
52,279.0,0.0,1.0
53,950.0,0.0,1.0
54,948.0,0.0,1.0
55,273.0,0.0,1.0
56,261.0,0.0,1.0
57,961.0,0.0,1.0
58,259.0,0.0,1.0
59,241.0,0.0,1.0
60,239.0,0.0,1.0
61,971.0,0.0,1.0
62,234.0,0.0,1.0
63,975.0,0.0,1.0
64,266.0,0.0,1.0
65,289.0,0.0,1.0
66,941.0,0.0,1.0
67,307.0,0.0,1.0
68,398.0,0.0,1.0
69,891.0,0.0,1.0
70,1016.0,0.0,1.0
71,380.0,0.0,1.0
72,376.0,0.0,1.0
73,159.0,0.0,1.0
74,367.0,0.0,1.0
75,903.0,0.0,1.0
76,726.0,0.0,1.0
77,353.0,0.0,1.0
78,909.0,0.0,1.0
79,917.0,0.0,1.0
80,338.0,0.0,1.0
81,323.0,0.0,1.0
82,931.0,0.0,1.0
83,932.0,0.0,1.0
84,934.0,0.0,1.0
85,313.0,0.0,1.0
86,938.0,0.0,1.0
87,402.0,0.0,1.0
88,839.0,0.0,1.0
89,854.0,0.0,1.0
90,220.0,0.0,1.0
91,581.0,0.0,1.0
92,582.0,0.0,1.0
93,798.0,0.0,1.0
94,794.0,0.0,1.0
95,591.0,0.0,1.0
96,658.0,0.0,1.0
97,58.0,0.0,1.0
98,761.0,0.0,1.0
99,764.0,0.0,1.0
100,27.0,0.0,1.0
101,792.0,0.0,1.0
102,28.0,0.0,1.0
103,596.0,0.0,1.0
104,780.0,0.0,1.0
105,789.0,0.0,1.0
106,51.0,0.0,1.0
107,50.0,0.0,1.0
108,602.0,0.0,1.0
109,1073.0,0.0,1.0
110,605.0,0.0,1.0
111,785.0,0.0,1.0
112,43.0,0.0,1.0
113,1081.0,0.0,1.0
114,781.0,0.0,1.0
115,34.0,0.0,1.0
116,769.0,0.0,1.0
117,838.0,0.0,1.0
118,620.0,0.0,1.0
119,598.0,0.0,1.0
120,567.0,0.0,1.0
121,569.0,0.0,1.0
122,664.0,0.0,1.0
123,836.0,0.0,1.0
124,704.0,0.0,1.0
125,512.0,0.0,1.0
126,832.0,0.0,1.0
127,5.0,0.0,1.0
128,702.0,0.0,1.0
129,518.0,0.0,1.0
130,1096.0,0.0,1.0
131,823.0,0.0,1.0
132,1058.0,0.0,1.0
133,701.0,0.0,1.0
134,661.0,0.0,1.0
135,529.0,0.0,1.0
136,821.0,0.0,1.0
137,37.0,0.0,1.0
138,10.0,0.0,1.0
139,751.0,0.0,1.0
140,16.0,0.0,1.0
141,15.0,0.0,1.0
142,68.0,0.0,1.0
143,807.0,0.0,1.0
144,745.0,0.0,1.0
145,690.0,0.0,1.0
146,549.0,0.0,1.0
147,692.0,0.0,1.0
148,693.0,0.0,1.0
149,550.0,0.0,1.0
150,787.0,0.125,0.875
151,1100.0,0.125,0.875
152,165.0,0.125,0.875
153,735.0,0.131528,0.868472
154,637.0,0.131528,0.868472
155,831.0,0.148291,0.851709
156,697.0,0.157963,0.842037
157,837.0,0.157963,0.842037
158,120.0,0.158607,0.841393
159,638.0,0.158607,0.841393
160,1011.0,0.158607,0.841393
161,754.0,0.221792,0.778208
162,1083.0,0.221792,0.778208
163,599.0,0.221792,0.778208
164,423.0,0.221792,0.778208
165,851.0,0.221792,0.778208
166,660.0,0.221792,0.778208
167,501.0,0.221792,0.778208
168,87.0,0.221792,0.778208
169,296.0,0.221792,0.778208
170,210.0,0.221792,0.778208
171,274.0,0.221792,0.778208
172,1091.0,0.25,0.75
173,561.0,0.25,0.75
174,193.0,0.25,0.75
175,112.0,0.25,0.75
176,377.0,0.25,0.75
177,200.0,0.25,0.75
178,263.0,0.25,0.75
179,484.0,0.25,0.75
180,827.0,0.25,0.75
181,245.0,0.25,0.75
182,211.0,0.25,0.75
183,238.0,0.25,0.75
184,2.0,0.25,0.75
185,547.0,0.25,0.75
186,779.0,0.25,0.75
187,40.0,0.25,0.75
188,804.0,0.25,0.75
189,382.0,0.25,0.75
190,611.0,0.25,0.75
191,352.0,0.25,0.75
192,347.0,0.25,0.75
193,334.0,0.25,0.75
194,287.0,0.25,0.75
195,136.0,0.25,0.75
196,57.0,0.25,0.75
197,765.0,0.25,0.75
198,427.0,0.25,0.75
199,434.0,0.25,0.75
200,760.0,0.25,0.75
201,180.0,0.25,0.75
202,155.0,0.259188,0.740812
203,942.0,0.3,0.7
204,600.0,0.3,0.7
205,1046.0,0.3,0.7
206,867.0,0.3,0.7
207,552.0,0.3,0.7
208,322.0,0.3,0.7
209,534.0,0.3,0.7
210,319.0,0.3,0.7
211,250.0,0.3,0.7
212,445.0,0.3,0.7
213,74.0,0.319794,0.680206
214,1010.0,0.319794,0.680206
215,494.0,0.319794,0.680206
216,387.0,0.319794,0.680206
217,364.0,0.319794,0.680206
218,149.0,0.319794,0.680206
219,992.0,0.321083,0.678917
220,96.0,0.321083,0.678917
221,216.0,0.321083,0.678917
222,627.0,0.321083,0.678917
223,392.0,0.321083,0.678917
224,369.0,0.321083,0.678917
225,206.0,0.321083,0.678917
226,706.0,0.321083,0.678917
227,404.0,0.321083,0.678917
228,906.0,0.321083,0.678917
229,59.0,0.321083,0.678917
230,452.0,0.321083,0.678917
231,475.0,0.333333,0.666667
232,775.0,0.333333,0.666667
233,924.0,0.333333,0.666667
234,378.0,0.333333,0.666667
235,578.0,0.333333,0.666667
236,405.0,0.333333,0.666667
237,872.0,0.333333,0.666667
238,78.0,0.333333,0.666667
239,572.0,0.363636,0.636364
240,294.0,0.363636,0.636364
241,156.0,0.363636,0.636364
242,811.0,0.363636,0.636364
243,953.0,0.363636,0.636364
244,71.0,0.363636,0.636364
245,52.0,0.363636,0.636364
246,616.0,0.363636,0.636364
247,862.0,0.363636,0.636364
248,90.0,0.363636,0.636364
249,321.0,0.363636,0.636364
250,485.0,0.363636,0.636364
251,868.0,0.363636,0.636364
252,446.0,0.363636,0.636364
253,920.0,0.363636,0.636364
254,875.0,0.363636,0.636364
255,421.0,0.363636,0.636364
256,419.0,0.363636,0.636364
257,147.0,0.363636,0.636364
258,890.0,0.363636,0.636364
259,391.0,0.363636,0.636364
260,895.0,0.363636,0.636364
261,541.0,0.363636,0.636364
262,958.0,0.363636,0.636364
263,980.0,0.363636,0.636364
264,70.0,0.363636,0.636364
265,24.0,0.363636,0.636364
266,766.0,0.363636,0.636364
267,654.0,0.363636,0.636364
268,668.0,0.363636,0.636364
269,641.0,0.363636,0.636364
270,670.0,0.363636,0.636364
271,672.0,0.363636,0.636364
272,753.0,0.363636,0.636364
273,771.0,0.363636,0.636364
274,744.0,0.363636,0.636364
275,203.0,0.363636,0.636364
276,230.0,0.363636,0.636364
277,731.0,0.363636,0.636364
278,232.0,0.363636,0.636364
279,784.0,0.375,0.625
280,1067.0,0.375,0.625
281,967.0,0.375,0.625
282,1088.0,0.375,0.625
283,385.0,0.410058,0.589942
284,530.0,0.410058,0.589942
285,305.0,0.410058,0.589942
286,502.0,0.410058,0.589942
287,879.0,0.410058,0.589942
288,759.0,0.410058,0.589942
289,395.0,0.410058,0.589942
290,397.0,0.410058,0.589942
291,700.0,0.410058,0.589942
292,13.0,0.410058,0.589942
293,1006.0,0.410058,0.589942
294,912.0,0.410058,0.589942
295,840.0,0.410058,0.589942
296,997.0,0.410058,0.589942
297,618.0,0.410058,0.589942
298,845.0,0.410058,0.589942
299,770.0,0.444444,0.555556
300,413.0,0.444444,0.555556
301,576.0,0.444444,0.555556
302,178.0,0.444444,0.555556
303,506.0,0.444444,0.555556
304,1054.0,0.444444,0.555556
305,1030.0,0.444444,0.555556
306,614.0,0.444444,0.555556
307,982.0,0.464217,0.535783
308,450.0,0.471954,0.528046
309,742.0,0.5,0.5
310,796.0,0.5,0.5
311,675.0,0.5,0.5
312,886.0,0.5,0.5
313,555.0,0.5,0.5
314,955.0,0.5,0.5
315,291.0,0.551451,0.448549
316,630.0,0.551451,0.448549
317,1057.0,0.551451,0.448549
318,946.0,0.551451,0.448549
319,428.0,0.551451,0.448549
320,553.0,0.571429,0.428571
321,869.0,0.571429,0.428571
322,985.0,0.571429,0.428571
323,504.0,0.625,0.375
324,720.0,0.625,0.375
325,53.0,0.666667,0.333333
326,1027.0,0.666667,0.333333
327,417.0,0.666667,0.333333
328,633.0,0.666667,0.333333
329,1020.0,0.666667,0.333333
330,699.0,0.666667,0.333333
331,144.0,0.666667,0.333333
332,1074.0,0.666667,0.333333
333,9.0,0.666667,0.333333
334,713.0,0.666667,0.333333
335,889.0,0.666667,0.333333
336,717.0,0.666667,0.333333
337,151.0,0.666667,0.333333
338,388.0,0.666667,0.333333
339,45.0,0.666667,0.333333
340,722.0,0.666667,0.333333
341,610.0,0.666667,0.333333
342,414.0,0.666667,0.333333
343,736.0,0.666667,0.333333
344,645.0,0.666667,0.333333
345,438.0,0.666667,0.333333
346,543.0,0.666667,0.333333
347,554.0,0.666667,0.333333
348,819.0,0.666667,0.333333
349,556.0,0.666667,0.333333
350,1055.0,0.666667,0.333333
351,833.0,0.666667,0.333333
352,1051.0,0.666667,0.333333
353,558.0,0.666667,0.333333
354,65.0,0.666667,0.333333
355,95.0,0.666667,0.333333
356,802.0,0.666667,0.333333
357,1078.0,0.666667,0.333333
358,570.0,0.666667,0.333333
359,431.0,0.666667,0.333333
360,100.0,0.666667,0.333333
361,639.0,0.666667,0.333333
362,471.0,0.666667,0.333333
363,468.0,0.666667,0.333333
364,1038.0,0.666667,0.333333
365,117.0,0.666667,0.333333
366,453.0,0.666667,0.333333
367,63.0,0.666667,0.333333
368,683.0,0.666667,0.333333
369,648.0,0.666667,0.333333
370,121.0,0.666667,0.333333
371,871.0,0.666667,0.333333
372,743.0,0.666667,0.333333
373,585.0,0.666667,0.333333
374,101.0,0.666667,0.333333
375,583.0,0.666667,0.333333
376,473.0,0.666667,0.333333
377,298.0,0.666667,0.333333
378,256.0,0.666667,0.333333
379,228.0,0.666667,0.333333
380,309.0,0.666667,0.333333
381,362.0,0.666667,0.333333
382,996.0,0.666667,0.333333
383,358.0,0.666667,0.333333
384,257.0,0.666667,0.333333
385,226.0,0.666667,0.333333
386,340.0,0.666667,0.333333
387,214.0,0.666667,0.333333
388,949.0,0.666667,0.333333
389,915.0,0.666667,0.333333
390,1007.0,0.666667,0.333333
391,197.0,0.666667,0.333333
392,1005.0,0.666667,0.333333
393,330.0,0.666667,0.333333
394,911.0,0.666667,0.333333
395,374.0,0.666667,0.333333
396,240.0,0.666667,0.333333
397,247.0,0.666667,0.333333
398,267.0,0.666667,0.333333
399,326.0,0.666667,0.333333
400,320.0,0.666667,0.333333
401,301.0,0.666667,0.333333
402,286.0,0.680851,0.319149
403,688.0,0.680851,0.319149
404,788.0,0.714507,0.285493
405,80.0,0.726886,0.273114
406,714.0,0.726886,0.273114
407,656.0,0.726886,0.273114
408,777.0,0.726886,0.273114
409,882.0,0.726886,0.273114
410,105.0,0.727273,0.272727
411,571.0,0.727273,0.272727
412,363.0,0.727273,0.272727
413,883.0,0.727273,0.272727
414,695.0,0.727273,0.272727
415,673.0,0.728855,0.271145
416,1035.0,0.734043,0.265957
417,1086.0,0.734043,0.265957
418,515.0,0.734043,0.265957
419,127.0,0.734043,0.265957
420,1040.0,0.734043,0.265957
421,933.0,0.734043,0.265957
422,188.0,0.734043,0.265957
423,835.0,0.734043,0.265957
424,1031.0,0.734043,0.265957
425,148.0,0.734043,0.265957
426,897.0,0.734043,0.265957
427,526.0,0.734043,0.265957
428,621.0,0.758221,0.241779
429,694.0,0.8,0.2
430,209.0,0.8,0.2
431,573.0,0.8,0.2
432,577.0,0.8,0.2
433,366.0,0.8,0.2
434,896.0,0.8,0.2
435,657.0,0.8,0.2
436,659.0,0.8,0.2
437,655.0,0.8,0.2
438,625.0,0.8,0.2
439,834.0,0.8,0.2
440,880.0,0.8,0.2
441,894.0,0.8,0.2
442,669.0,0.8,0.2
443,198.0,0.8,0.2
444,843.0,0.8,0.2
445,824.0,0.8,0.2
446,725.0,0.8,0.2
447,535.0,0.8,0.2
448,1094.0,0.81441,0.18559
449,163.0,0.858414,0.141586
450,679.0,0.867021,0.132979
451,989.0,0.867021,0.132979
452,548.0,0.867021,0.132979
453,48.0,0.867021,0.132979
454,810.0,0.9,0.1
455,390.0,0.9,0.1
456,285.0,0.909091,0.090909
457,477.0,0.909091,0.090909
458,1041.0,0.909091,0.090909
459,20.0,0.909091,0.090909
460,183.0,0.909091,0.090909
461,212.0,0.909091,0.090909
462,493.0,0.909091,0.090909
463,293.0,0.909091,0.090909
464,739.0,0.909091,0.090909
465,991.0,0.909091,0.090909
466,733.0,0.909091,0.090909
467,957.0,0.909091,0.090909
468,580.0,0.909091,0.090909
469,646.0,0.909091,0.090909
470,465.0,0.950097,0.049903
471,913.0,0.954282,0.045718
472,255.0,0.954809,0.045191
473,246.0,0.954809,0.045191
474,179.0,0.954809,0.045191
475,643.0,0.954809,0.045191
476,566.0,0.954809,0.045191
477,525.0,0.954809,0.045191
478,182.0,0.954809,0.045191
479,73.0,0.954809,0.045191
480,32.0,0.954809,0.045191
481,303.0,0.954809,0.045191
482,76.0,0.954809,0.045191
483,772.0,0.954809,0.045191
484,624.0,0.954809,0.045191
485,774.0,0.954809,0.045191
486,814.0,0.954809,0.045191
487,302.0,0.954809,0.045191
488,962.0,0.954809,0.045191
489,812.0,0.954809,0.045191
490,248.0,0.954809,0.045191
491,935.0,0.954809,0.045191
492,642.0,0.954809,0.045191
493,680.0,0.954809,0.045191
494,39.0,0.954809,0.045191
495,448.0,0.954809,0.045191
496,921.0,0.954809,0.045191
497,231.0,0.954809,0.045191
498,432.0,0.954809,0.045191
499,280.0,0.954809,0.045191
500,951.0,0.954809,0.045191
501,708.0,0.954809,0.045191
502,608.0,0.954809,0.045191
503,1018.0,0.954809,0.045191
504,1024.0,0.954809,0.045191
505,589.0,0.954809,0.045191
506,711.0,0.954809,0.045191
507,269.0,0.954809,0.045191
508,356.0,0.954809,0.045191
509,357.0,0.954809,0.045191
510,146.0,0.954809,0.045191
511,1075.0,0.954809,0.045191
512,734.0,0.954809,0.045191
513,224.0,0.954809,0.045191
514,12.0,0.954809,0.045191
515,370.0,0.954809,0.045191
516,1076.0,0.954809,0.045191
517,667.0,0.954809,0.045191
518,483.0,0.954809,0.045191
519,755.0,0.954809,0.045191
520,1071.0,0.954809,0.045191
521,970.0,0.954809,0.045191
522,325.0,0.954809,0.045191
523,109.0,0.954809,0.045191
524,855.0,0.954809,0.045191
525,691.0,0.954809,0.045191
526,752.0,0.954809,0.045191
527,750.0,0.954809,0.045191
528,116.0,0.954809,0.045191
529,926.0,0.954809,0.045191
530,153.0,0.954809,0.045191
531,748.0,0.954809,0.045191
532,373.0,0.954809,0.045191
533,372.0,0.954809,0.045191
534,901.0,0.954809,0.045191
535,205.0,0.954809,0.045191
536,161.0,0.954809,0.045191
537,786.0,1.0,0.0
538,954.0,1.0,0.0
539,783.0,1.0,0.0
540,987.0,1.0,0.0
541,960.0,1.0,0.0
542,959.0,1.0,0.0
543,776.0,1.0,0.0
544,782.0,1.0,0.0
545,1079.0,1.0,0.0
546,1077.0,1.0,0.0
547,778.0,1.0,0.0
548,988.0,1.0,0.0
549,956.0,1.0,0.0
550,1014.0,1.0,0.0
551,756.0,1.0,0.0
552,1080.0,1.0,0.0
553,984.0,1.0,0.0
554,972.0,1.0,0.0
555,973.0,1.0,0.0
556,974.0,1.0,0.0
557,983.0,1.0,0.0
558,1095.0,1.0,0.0
559,1097.0,1.0,0.0
560,741.0,1.0,0.0
561,1098.0,1.0,0.0
562,1093.0,1.0,0.0
563,740.0,1.0,0.0
564,737.0,1.0,0.0
565,976.0,1.0,0.0
566,1099.0,1.0,0.0
567,977.0,1.0,0.0
568,732.0,1.0,0.0
569,978.0,1.0,0.0
570,979.0,1.0,0.0
571,730.0,1.0,0.0
572,729.0,1.0,0.0
573,738.0,1.0,0.0
574,773.0,1.0,0.0
575,746.0,1.0,0.0
576,749.0,1.0,0.0
577,768.0,1.0,0.0
578,1082.0,1.0,0.0
579,767.0,1.0,0.0
580,963.0,1.0,0.0
581,964.0,1.0,0.0
582,965.0,1.0,0.0
583,1084.0,1.0,0.0
584,966.0,1.0,0.0
585,1085.0,1.0,0.0
586,747.0,1.0,0.0
587,763.0,1.0,0.0
588,1087.0,1.0,0.0
589,1089.0,1.0,0.0
590,986.0,1.0,0.0
591,758.0,1.0,0.0
592,757.0,1.0,0.0
593,968.0,1.0,0.0
594,969.0,1.0,0.0
595,1090.0,1.0,0.0
596,1092.0,1.0,0.0
597,762.0,1.0,0.0
598,1072.0,1.0,0.0
599,943.0,1.0,0.0
600,1070.0,1.0,0.0
601,1036.0,1.0,0.0
602,922.0,1.0,0.0
603,1004.0,1.0,0.0
604,1037.0,1.0,0.0
605,923.0,1.0,0.0
606,925.0,1.0,0.0
607,866.0,1.0,0.0
608,865.0,1.0,0.0
609,864.0,1.0,0.0
610,863.0,1.0,0.0
611,861.0,1.0,0.0
612,859.0,1.0,0.0
613,927.0,1.0,0.0
614,919.0,1.0,0.0
615,857.0,1.0,0.0
616,1039.0,1.0,0.0
617,928.0,1.0,0.0
618,981.0,1.0,0.0
619,853.0,1.0,0.0
620,852.0,1.0,0.0
621,1042.0,1.0,0.0
622,1043.0,1.0,0.0
623,849.0,1.0,0.0
624,1044.0,1.0,0.0
625,929.0,1.0,0.0
626,1045.0,1.0,0.0
627,1003.0,1.0,0.0
628,848.0,1.0,0.0
629,856.0,1.0,0.0
630,847.0,1.0,0.0
631,870.0,1.0,0.0
632,918.0,1.0,0.0
633,899.0,1.0,0.0
634,900.0,1.0,0.0
635,898.0,1.0,0.0
636,1017.0,1.0,0.0
637,893.0,1.0,0.0
638,892.0,1.0,0.0
639,902.0,1.0,0.0
640,1013.0,1.0,0.0
641,1012.0,1.0,0.0
642,904.0,1.0,0.0
643,905.0,1.0,0.0
644,887.0,1.0,0.0
645,885.0,1.0,0.0
646,1034.0,1.0,0.0
647,907.0,1.0,0.0
648,1021.0,1.0,0.0
649,1009.0,1.0,0.0
650,1008.0,1.0,0.0
651,1026.0,1.0,0.0
652,910.0,1.0,0.0
653,878.0,1.0,0.0
654,877.0,1.0,0.0
655,1028.0,1.0,0.0
656,1029.0,1.0,0.0
657,914.0,1.0,0.0
658,874.0,1.0,0.0
659,1032.0,1.0,0.0
660,916.0,1.0,0.0
661,908.0,1.0,0.0
662,990.0,1.0,0.0
663,1002.0,1.0,0.0
664,1047.0,1.0,0.0
665,1015.0,1.0,0.0
666,944.0,1.0,0.0
667,945.0,1.0,0.0
668,809.0,1.0,0.0
669,995.0,1.0,0.0
670,808.0,1.0,0.0
671,1062.0,1.0,0.0
672,1063.0,1.0,0.0
673,806.0,1.0,0.0
674,805.0,1.0,0.0
675,1064.0,1.0,0.0
676,803.0,1.0,0.0
677,947.0,1.0,0.0
678,1061.0,1.0,0.0
679,994.0,1.0,0.0
680,801.0,1.0,0.0
681,800.0,1.0,0.0
682,993.0,1.0,0.0
683,799.0,1.0,0.0
684,1066.0,1.0,0.0
685,797.0,1.0,0.0
686,795.0,1.0,0.0
687,1068.0,1.0,0.0
688,952.0,1.0,0.0
689,793.0,1.0,0.0
690,1069.0,1.0,0.0
691,791.0,1.0,0.0
692,790.0,1.0,0.0
693,1065.0,1.0,0.0
694,844.0,1.0,0.0
695,1060.0,1.0,0.0
696,815.0,1.0,0.0
697,1001.0,1.0,0.0
698,842.0,1.0,0.0
699,841.0,1.0,0.0
700,930.0,1.0,0.0
701,1000.0,1.0,0.0
702,1048.0,1.0,0.0
703,999.0,1.0,0.0
704,1049.0,1.0,0.0
705,1050.0,1.0,0.0
706,936.0,1.0,0.0
707,1052.0,1.0,0.0
708,1053.0,1.0,0.0
709,937.0,1.0,0.0
710,813.0,1.0,0.0
711,998.0,1.0,0.0
712,1056.0,1.0,0.0
713,829.0,1.0,0.0
714,828.0,1.0,0.0
715,826.0,1.0,0.0
716,825.0,1.0,0.0
717,822.0,1.0,0.0
718,939.0,1.0,0.0
719,940.0,1.0,0.0
720,1059.0,1.0,0.0
721,820.0,1.0,0.0
722,818.0,1.0,0.0
723,817.0,1.0,0.0
724,816.0,1.0,0.0
725,830.0,1.0,0.0
726,1.0,1.0,0.0
727,551.0,1.0,0.0
728,724.0,1.0,0.0
729,217.0,1.0,0.0
730,218.0,1.0,0.0
731,219.0,1.0,0.0
732,222.0,1.0,0.0
733,223.0,1.0,0.0
734,225.0,1.0,0.0
735,227.0,1.0,0.0
736,229.0,1.0,0.0
737,233.0,1.0,0.0
738,235.0,1.0,0.0
739,236.0,1.0,0.0
740,237.0,1.0,0.0
741,242.0,1.0,0.0
742,243.0,1.0,0.0
743,244.0,1.0,0.0
744,249.0,1.0,0.0
745,251.0,1.0,0.0
746,252.0,1.0,0.0
747,253.0,1.0,0.0
748,215.0,1.0,0.0
749,254.0,1.0,0.0
750,213.0,1.0,0.0
751,207.0,1.0,0.0
752,171.0,1.0,0.0
753,172.0,1.0,0.0
754,173.0,1.0,0.0
755,174.0,1.0,0.0
756,175.0,1.0,0.0
757,176.0,1.0,0.0
758,177.0,1.0,0.0
759,181.0,1.0,0.0
760,184.0,1.0,0.0
761,185.0,1.0,0.0
762,186.0,1.0,0.0
763,187.0,1.0,0.0
764,189.0,1.0,0.0
765,195.0,1.0,0.0
766,196.0,1.0,0.0
767,199.0,1.0,0.0
768,201.0,1.0,0.0
769,202.0,1.0,0.0
770,204.0,1.0,0.0
771,208.0,1.0,0.0
772,258.0,1.0,0.0
773,260.0,1.0,0.0
774,262.0,1.0,0.0
775,312.0,1.0,0.0
776,314.0,1.0,0.0
777,315.0,1.0,0.0
778,316.0,1.0,0.0
779,317.0,1.0,0.0
780,318.0,1.0,0.0
781,324.0,1.0,0.0
782,327.0,1.0,0.0
783,328.0,1.0,0.0
784,329.0,1.0,0.0
785,331.0,1.0,0.0
786,332.0,1.0,0.0
787,333.0,1.0,0.0
788,335.0,1.0,0.0
789,336.0,1.0,0.0
790,337.0,1.0,0.0
791,339.0,1.0,0.0
792,341.0,1.0,0.0
793,342.0,1.0,0.0
794,311.0,1.0,0.0
795,310.0,1.0,0.0
796,308.0,1.0,0.0
797,306.0,1.0,0.0
798,264.0,1.0,0.0
799,265.0,1.0,0.0
800,268.0,1.0,0.0
801,270.0,1.0,0.0
802,271.0,1.0,0.0
803,272.0,1.0,0.0
804,275.0,1.0,0.0
805,276.0,1.0,0.0
806,277.0,1.0,0.0
807,170.0,1.0,0.0
808,278.0,1.0,0.0
809,284.0,1.0,0.0
810,288.0,1.0,0.0
811,290.0,1.0,0.0
812,292.0,1.0,0.0
813,295.0,1.0,0.0
814,297.0,1.0,0.0
815,299.0,1.0,0.0
816,300.0,1.0,0.0
817,304.0,1.0,0.0
818,282.0,1.0,0.0
819,169.0,1.0,0.0
820,168.0,1.0,0.0
821,167.0,1.0,0.0
822,44.0,1.0,0.0
823,46.0,1.0,0.0
824,47.0,1.0,0.0
825,49.0,1.0,0.0
826,54.0,1.0,0.0
827,55.0,1.0,0.0
828,56.0,1.0,0.0
829,60.0,1.0,0.0
830,61.0,1.0,0.0
831,62.0,1.0,0.0
832,64.0,1.0,0.0
833,66.0,1.0,0.0
834,67.0,1.0,0.0
835,69.0,1.0,0.0
836,72.0,1.0,0.0
837,75.0,1.0,0.0
838,77.0,1.0,0.0
839,79.0,1.0,0.0
840,81.0,1.0,0.0
841,42.0,1.0,0.0
842,41.0,1.0,0.0
843,38.0,1.0,0.0
844,36.0,1.0,0.0
845,3.0,1.0,0.0
846,4.0,1.0,0.0
847,6.0,1.0,0.0
848,7.0,1.0,0.0
849,8.0,1.0,0.0
850,11.0,1.0,0.0
851,14.0,1.0,0.0
852,17.0,1.0,0.0
853,18.0,1.0,0.0
854,82.0,1.0,0.0
855,19.0,1.0,0.0
856,22.0,1.0,0.0
857,23.0,1.0,0.0
858,25.0,1.0,0.0
859,26.0,1.0,0.0
860,29.0,1.0,0.0
861,30.0,1.0,0.0
862,31.0,1.0,0.0
863,33.0,1.0,0.0
864,35.0,1.0,0.0
865,21.0,1.0,0.0
866,343.0,1.0,0.0
867,83.0,1.0,0.0
868,85.0,1.0,0.0
869,132.0,1.0,0.0
870,133.0,1.0,0.0
871,135.0,1.0,0.0
872,137.0,1.0,0.0
873,138.0,1.0,0.0
874,139.0,1.0,0.0
875,140.0,1.0,0.0
876,141.0,1.0,0.0
877,142.0,1.0,0.0
878,145.0,1.0,0.0
879,150.0,1.0,0.0
880,152.0,1.0,0.0
881,154.0,1.0,0.0
882,157.0,1.0,0.0
883,158.0,1.0,0.0
884,160.0,1.0,0.0
885,162.0,1.0,0.0
886,164.0,1.0,0.0
887,166.0,1.0,0.0
888,131.0,1.0,0.0
889,130.0,1.0,0.0
890,129.0,1.0,0.0
891,128.0,1.0,0.0
892,86.0,1.0,0.0
893,88.0,1.0,0.0
894,89.0,1.0,0.0
895,93.0,1.0,0.0
896,94.0,1.0,0.0
897,98.0,1.0,0.0
898,99.0,1.0,0.0
899,103.0,1.0,0.0
900,104.0,1.0,0.0
901,84.0,1.0,0.0
902,106.0,1.0,0.0
903,108.0,1.0,0.0
904,110.0,1.0,0.0
905,113.0,1.0,0.0
906,115.0,1.0,0.0
907,118.0,1.0,0.0
908,119.0,1.0,0.0
909,122.0,1.0,0.0
910,124.0,1.0,0.0
911,126.0,1.0,0.0
912,107.0,1.0,0.0
913,728.0,1.0,0.0
914,344.0,1.0,0.0
915,346.0,1.0,0.0
916,588.0,1.0,0.0
917,590.0,1.0,0.0
918,592.0,1.0,0.0
919,593.0,1.0,0.0
920,594.0,1.0,0.0
921,595.0,1.0,0.0
922,597.0,1.0,0.0
923,601.0,1.0,0.0
924,603.0,1.0,0.0
925,604.0,1.0,0.0
926,606.0,1.0,0.0
927,607.0,1.0,0.0
928,609.0,1.0,0.0
929,612.0,1.0,0.0
930,613.0,1.0,0.0
931,615.0,1.0,0.0
932,617.0,1.0,0.0
933,619.0,1.0,0.0
934,622.0,1.0,0.0
935,587.0,1.0,0.0
936,623.0,1.0,0.0
937,586.0,1.0,0.0
938,579.0,1.0,0.0
939,536.0,1.0,0.0
940,537.0,1.0,0.0
941,538.0,1.0,0.0
942,539.0,1.0,0.0
943,540.0,1.0,0.0
944,542.0,1.0,0.0
945,544.0,1.0,0.0
946,545.0,1.0,0.0
947,546.0,1.0,0.0
948,557.0,1.0,0.0
949,559.0,1.0,0.0
950,560.0,1.0,0.0
951,562.0,1.0,0.0
952,563.0,1.0,0.0
953,564.0,1.0,0.0
954,565.0,1.0,0.0
955,568.0,1.0,0.0
956,574.0,1.0,0.0
957,575.0,1.0,0.0
958,584.0,1.0,0.0
959,626.0,1.0,0.0
960,628.0,1.0,0.0
961,629.0,1.0,0.0
962,684.0,1.0,0.0
963,685.0,1.0,0.0
964,686.0,1.0,0.0
965,687.0,1.0,0.0
966,689.0,1.0,0.0
967,696.0,1.0,0.0
968,698.0,1.0,0.0
969,703.0,1.0,0.0
970,705.0,1.0,0.0
971,707.0,1.0,0.0
972,709.0,1.0,0.0
973,710.0,1.0,0.0
974,712.0,1.0,0.0
975,715.0,1.0,0.0
976,716.0,1.0,0.0
977,718.0,1.0,0.0
978,719.0,1.0,0.0
979,721.0,1.0,0.0
980,723.0,1.0,0.0
981,682.0,1.0,0.0
982,681.0,1.0,0.0
983,678.0,1.0,0.0
984,677.0,1.0,0.0
985,631.0,1.0,0.0
986,632.0,1.0,0.0
987,634.0,1.0,0.0
988,635.0,1.0,0.0
989,636.0,1.0,0.0
990,640.0,1.0,0.0
991,644.0,1.0,0.0
992,647.0,1.0,0.0
993,649.0,1.0,0.0
994,533.0,1.0,0.0
995,650.0,1.0,0.0
996,652.0,1.0,0.0
997,653.0,1.0,0.0
998,662.0,1.0,0.0
999,663.0,1.0,0.0
1000,665.0,1.0,0.0
1001,666.0,1.0,0.0
1002,671.0,1.0,0.0
1003,674.0,1.0,0.0
1004,676.0,1.0,0.0
1005,651.0,1.0,0.0
1006,532.0,1.0,0.0
1007,531.0,1.0,0.0
1008,528.0,1.0,0.0
1009,401.0,1.0,0.0
1010,406.0,1.0,0.0
1011,407.0,1.0,0.0
1012,408.0,1.0,0.0
1013,410.0,1.0,0.0
1014,411.0,1.0,0.0
1015,412.0,1.0,0.0
1016,416.0,1.0,0.0
1017,420.0,1.0,0.0
1018,424.0,1.0,0.0
1019,425.0,1.0,0.0
1020,426.0,1.0,0.0
1021,429.0,1.0,0.0
1022,430.0,1.0,0.0
1023,433.0,1.0,0.0
1024,435.0,1.0,0.0
1025,439.0,1.0,0.0
1026,440.0,1.0,0.0
1027,443.0,1.0,0.0
1028,400.0,1.0,0.0
1029,399.0,1.0,0.0
1030,396.0,1.0,0.0
1031,394.0,1.0,0.0
1032,348.0,1.0,0.0
1033,349.0,1.0,0.0
1034,350.0,1.0,0.0
1035,351.0,1.0,0.0
1036,354.0,1.0,0.0
1037,355.0,1.0,0.0
1038,359.0,1.0,0.0
1039,360.0,1.0,0.0
1040,361.0,1.0,0.0
1041,444.0,1.0,0.0
1042,365.0,1.0,0.0
1043,371.0,1.0,0.0
1044,375.0,1.0,0.0
1045,379.0,1.0,0.0
1046,381.0,1.0,0.0
1047,383.0,1.0,0.0
1048,384.0,1.0,0.0
1049,386.0,1.0,0.0
1050,389.0,1.0,0.0
1051,393.0,1.0,0.0
1052,368.0,1.0,0.0
1053,345.0,1.0,0.0
1054,449.0,1.0,0.0
1055,454.0,1.0,0.0
1056,498.0,1.0,0.0
1057,500.0,1.0,0.0
1058,505.0,1.0,0.0
1059,507.0,1.0,0.0
1060,508.0,1.0,0.0
1061,509.0,1.0,0.0
1062,510.0,1.0,0.0
1063,511.0,1.0,0.0
1064,513.0,1.0,0.0
1065,514.0,1.0,0.0
1066,516.0,1.0,0.0
1067,517.0,1.0,0.0
1068,519.0,1.0,0.0
1069,520.0,1.0,0.0
1070,521.0,1.0,0.0
1071,522.0,1.0,0.0
1072,523.0,1.0,0.0
1073,524.0,1.0,0.0
1074,527.0,1.0,0.0
1075,497.0,1.0,0.0
1076,495.0,1.0,0.0
1077,492.0,1.0,0.0
1078,491.0,1.0,0.0
1079,455.0,1.0,0.0
1080,456.0,1.0,0.0
1081,457.0,1.0,0.0
1082,458.0,1.0,0.0
1083,459.0,1.0,0.0
1084,460.0,1.0,0.0
1085,461.0,1.0,0.0
1086,462.0,1.0,0.0
1087,464.0,1.0,0.0
1088,451.0,1.0,0.0
1089,466.0,1.0,0.0
1090,472.0,1.0,0.0
1091,474.0,1.0,0.0
1092,476.0,1.0,0.0
1093,479.0,1.0,0.0
1094,480.0,1.0,0.0
1095,481.0,1.0,0.0
1096,488.0,1.0,0.0
1097,489.0,1.0,0.0
1098,490.0,1.0,0.0
1099,470.0,1.0,0.0
1100,1101.0,1.0,0.0
