,idx,nominal,anomaly
0,35.0,0.056737,0.943263
1,210.0,0.116083,0.883917
2,188.0,0.147788,0.852212
3,274.0,0.217442,0.782558
4,419.0,0.229393,0.770607
5,401.0,0.240333,0.759667
6,180.0,0.252665,0.747335
7,261.0,0.305237,0.694763
8,406.0,0.36241,0.63759
9,75.0,0.381528,0.618472
10,551.0,0.386969,0.613031
11,340.0,0.390925,0.609075
12,209.0,0.415132,0.584868
13,251.0,0.441239,0.558761
14,221.0,0.451021,0.548979
15,231.0,0.470803,0.529197
16,300.0,0.483977,0.516023
17,134.0,0.491915,0.508085
18,76.0,0.494486,0.505514
19,293.0,0.509646,0.490354
20,53.0,0.512543,0.487457
21,162.0,0.515804,0.484196
22,535.0,0.525511,0.474489
23,147.0,0.55535,0.44465
24,301.0,0.575962,0.424038
25,121.0,0.587757,0.412243
26,265.0,0.62711,0.37289
27,125.0,0.629403,0.370597
28,308.0,0.633458,0.366542
29,25.0,0.636976,0.363024
30,471.0,0.644691,0.355309
31,329.0,0.655295,0.344705
32,116.0,0.656039,0.343961
33,387.0,0.659053,0.340947
34,499.0,0.659324,0.340676
35,63.0,0.66297,0.33703
36,372.0,0.663581,0.336419
37,94.0,0.663704,0.336296
38,161.0,0.663778,0.336222
39,445.0,0.665291,0.334709
40,201.0,0.666061,0.333939
41,68.0,0.687146,0.312854
42,222.0,0.692576,0.307424
43,190.0,0.702093,0.297907
44,181.0,0.70944,0.29056
45,315.0,0.71102,0.28898
46,363.0,0.717295,0.282705
47,414.0,0.72363,0.27637
48,154.0,0.72603,0.27397
49,115.0,0.726837,0.273163
50,106.0,0.731071,0.268929
51,511.0,0.734334,0.265666
52,355.0,0.739322,0.260678
53,543.0,0.740286,0.259714
54,345.0,0.741195,0.258805
55,30.0,0.741336,0.258664
56,554.0,0.743447,0.256553
57,486.0,0.743606,0.256394
58,197.0,0.744862,0.255138
59,375.0,0.74571,0.25429
60,450.0,0.74711,0.25289
61,119.0,0.750678,0.249322
62,127.0,0.760539,0.239461
63,264.0,0.761538,0.238462
64,9.0,0.762465,0.237535
65,550.0,0.764507,0.235493
66,284.0,0.768064,0.231936
67,124.0,0.768699,0.231301
68,15.0,0.768852,0.231148
69,62.0,0.771714,0.228286
70,498.0,0.774097,0.225903
71,185.0,0.774759,0.225241
72,547.0,0.782769,0.217231
73,290.0,0.783598,0.216402
74,275.0,0.784489,0.215511
75,453.0,0.785308,0.214692
76,410.0,0.785561,0.214439
77,250.0,0.785943,0.214057
78,45.0,0.786226,0.213774
79,243.0,0.786611,0.213389
80,237.0,0.787786,0.212214
81,59.0,0.78996,0.21004
82,113.0,0.790773,0.209227
83,319.0,0.793419,0.206581
84,448.0,0.793458,0.206542
85,557.0,0.794881,0.205119
86,272.0,0.795235,0.204765
87,142.0,0.798876,0.201124
88,303.0,0.799299,0.200701
89,39.0,0.800658,0.199342
90,384.0,0.801962,0.198038
91,335.0,0.803385,0.196615
92,276.0,0.803957,0.196043
93,21.0,0.809052,0.190948
94,248.0,0.809184,0.190816
95,374.0,0.812141,0.187859
96,108.0,0.812187,0.187813
97,146.0,0.812941,0.187059
98,341.0,0.816798,0.183202
99,5.0,0.816927,0.183073
100,399.0,0.817594,0.182406
101,78.0,0.818868,0.181132
102,360.0,0.819671,0.180329
103,342.0,0.821676,0.178324
104,527.0,0.822137,0.177863
105,169.0,0.822235,0.177765
106,371.0,0.823046,0.176954
107,484.0,0.82309,0.17691
108,442.0,0.824934,0.175066
109,367.0,0.825998,0.174002
110,404.0,0.826014,0.173986
111,191.0,0.826404,0.173596
112,99.0,0.8274,0.1726
113,439.0,0.828687,0.171313
114,118.0,0.829383,0.170617
115,137.0,0.830164,0.169836
116,256.0,0.830366,0.169634
117,1.0,0.831756,0.168244
118,72.0,0.832702,0.167298
119,487.0,0.832731,0.167269
120,513.0,0.832817,0.167183
121,378.0,0.834107,0.165893
122,224.0,0.834159,0.165841
123,292.0,0.838067,0.161933
124,11.0,0.838192,0.161808
125,229.0,0.838601,0.161399
126,417.0,0.839543,0.160457
127,456.0,0.840696,0.159304
128,117.0,0.840963,0.159037
129,408.0,0.842419,0.157581
130,195.0,0.842775,0.157225
131,267.0,0.842783,0.157217
132,327.0,0.843606,0.156394
133,413.0,0.844565,0.155435
134,85.0,0.844697,0.155303
135,452.0,0.844741,0.155259
136,279.0,0.845901,0.154099
137,525.0,0.846264,0.153736
138,52.0,0.849016,0.150984
139,432.0,0.850777,0.149223
140,179.0,0.85092,0.14908
141,141.0,0.851061,0.148939
142,461.0,0.851682,0.148318
143,28.0,0.851744,0.148256
144,126.0,0.852617,0.147383
145,534.0,0.854377,0.145623
146,172.0,0.854621,0.145379
147,16.0,0.85464,0.14536
148,440.0,0.855324,0.144676
149,428.0,0.855801,0.144199
150,244.0,0.856203,0.143797
151,519.0,0.856872,0.143128
152,97.0,0.856977,0.143023
153,286.0,0.857901,0.142099
154,415.0,0.858254,0.141746
155,394.0,0.858843,0.141157
156,65.0,0.858987,0.141013
157,183.0,0.860192,0.139808
158,400.0,0.860484,0.139516
159,366.0,0.861583,0.138417
160,318.0,0.861659,0.138341
161,434.0,0.86185,0.13815
162,388.0,0.862155,0.137845
163,506.0,0.862223,0.137777
164,430.0,0.864382,0.135618
165,364.0,0.864451,0.135549
166,302.0,0.865395,0.134605
167,111.0,0.865478,0.134522
168,373.0,0.865661,0.134339
169,420.0,0.865766,0.134234
170,266.0,0.866022,0.133978
171,98.0,0.866218,0.133782
172,389.0,0.866308,0.133692
173,228.0,0.866325,0.133675
174,18.0,0.866401,0.133599
175,236.0,0.86656,0.13344
176,460.0,0.867405,0.132595
177,368.0,0.867571,0.132429
178,100.0,0.867754,0.132246
179,362.0,0.867789,0.132211
180,242.0,0.869074,0.130926
181,509.0,0.869985,0.130015
182,122.0,0.870376,0.129624
183,89.0,0.870846,0.129154
184,249.0,0.870881,0.129119
185,409.0,0.871026,0.128974
186,497.0,0.871596,0.128404
187,479.0,0.872134,0.127866
188,91.0,0.872211,0.127789
189,135.0,0.873012,0.126988
190,514.0,0.873837,0.126163
191,379.0,0.873849,0.126151
192,219.0,0.874339,0.125661
193,334.0,0.87486,0.12514
194,140.0,0.874904,0.125096
195,507.0,0.875581,0.124419
196,336.0,0.876098,0.123902
197,504.0,0.87628,0.12372
198,369.0,0.876882,0.123118
199,252.0,0.877158,0.122842
200,353.0,0.877474,0.122526
201,277.0,0.877663,0.122337
202,347.0,0.878078,0.121922
203,480.0,0.87894,0.12106
204,70.0,0.879216,0.120784
205,12.0,0.879484,0.120516
206,533.0,0.879633,0.120367
207,512.0,0.880077,0.119923
208,133.0,0.880257,0.119743
209,157.0,0.880562,0.119438
210,160.0,0.880932,0.119068
211,120.0,0.880961,0.119039
212,490.0,0.88104,0.11896
213,6.0,0.88125,0.11875
214,155.0,0.881327,0.118673
215,435.0,0.881356,0.118644
216,206.0,0.882079,0.117921
217,81.0,0.882867,0.117133
218,539.0,0.883209,0.116791
219,178.0,0.883261,0.116739
220,350.0,0.883461,0.116539
221,294.0,0.88465,0.11535
222,177.0,0.884923,0.115077
223,26.0,0.88534,0.11466
224,407.0,0.885362,0.114638
225,220.0,0.885818,0.114182
226,393.0,0.886585,0.113415
227,73.0,0.886658,0.113342
228,260.0,0.886896,0.113104
229,529.0,0.887014,0.112986
230,43.0,0.887725,0.112275
231,240.0,0.887738,0.112262
232,2.0,0.888501,0.111499
233,542.0,0.889023,0.110977
234,166.0,0.88909,0.11091
235,233.0,0.889127,0.110873
236,416.0,0.889218,0.110782
237,516.0,0.88923,0.11077
238,358.0,0.88959,0.11041
239,494.0,0.890025,0.109975
240,323.0,0.890138,0.109862
241,87.0,0.890499,0.109501
242,80.0,0.891189,0.108811
243,454.0,0.891353,0.108647
244,269.0,0.89142,0.10858
245,186.0,0.893176,0.106824
246,444.0,0.893821,0.106179
247,164.0,0.893974,0.106026
248,426.0,0.894357,0.105643
249,48.0,0.894602,0.105398
250,339.0,0.894658,0.105342
251,230.0,0.894881,0.105119
252,455.0,0.895024,0.104976
253,536.0,0.895037,0.104963
254,194.0,0.895357,0.104643
255,462.0,0.895666,0.104334
256,86.0,0.895672,0.104328
257,217.0,0.89601,0.10399
258,468.0,0.896153,0.103847
259,192.0,0.896264,0.103736
260,463.0,0.896465,0.103535
261,200.0,0.896482,0.103518
262,44.0,0.896671,0.103329
263,402.0,0.897219,0.102781
264,7.0,0.898155,0.101845
265,314.0,0.89973,0.10027
266,544.0,0.899771,0.100229
267,459.0,0.899933,0.100067
268,129.0,0.900082,0.099918
269,198.0,0.90017,0.09983
270,288.0,0.901099,0.098901
271,131.0,0.901612,0.098388
272,298.0,0.901942,0.098058
273,174.0,0.901992,0.098008
274,485.0,0.902231,0.097769
275,92.0,0.902235,0.097765
276,526.0,0.902296,0.097704
277,105.0,0.902588,0.097412
278,425.0,0.90285,0.09715
279,8.0,0.902885,0.097115
280,42.0,0.903124,0.096876
281,109.0,0.903357,0.096643
282,500.0,0.903759,0.096241
283,145.0,0.903849,0.096151
284,291.0,0.904013,0.095987
285,306.0,0.904488,0.095512
286,343.0,0.90475,0.09525
287,55.0,0.904792,0.095208
288,211.0,0.905091,0.094909
289,537.0,0.905727,0.094273
290,60.0,0.9058,0.0942
291,27.0,0.905821,0.094179
292,173.0,0.906048,0.093952
293,74.0,0.906219,0.093781
294,82.0,0.906251,0.093749
295,307.0,0.90626,0.09374
296,112.0,0.906273,0.093727
297,482.0,0.906438,0.093562
298,344.0,0.906471,0.093529
299,357.0,0.907193,0.092807
300,326.0,0.907634,0.092366
301,37.0,0.907634,0.092366
302,13.0,0.908001,0.091999
303,465.0,0.908425,0.091575
304,305.0,0.908478,0.091522
305,382.0,0.908506,0.091494
306,128.0,0.908812,0.091188
307,431.0,0.908908,0.091092
308,79.0,0.909055,0.090945
309,193.0,0.909133,0.090867
310,538.0,0.909133,0.090867
311,464.0,0.909423,0.090577
312,208.0,0.909823,0.090177
313,143.0,0.909944,0.090056
314,29.0,0.910107,0.089893
315,481.0,0.910125,0.089875
316,138.0,0.910928,0.089072
317,213.0,0.910974,0.089026
318,90.0,0.910985,0.089015
319,532.0,0.911427,0.088573
320,255.0,0.911599,0.088401
321,552.0,0.912052,0.087948
322,31.0,0.912073,0.087927
323,159.0,0.912189,0.087811
324,24.0,0.912377,0.087623
325,61.0,0.912494,0.087506
326,278.0,0.912549,0.087451
327,528.0,0.912586,0.087414
328,328.0,0.912619,0.087381
329,235.0,0.912619,0.087381
330,331.0,0.912619,0.087381
331,205.0,0.912907,0.087093
332,320.0,0.91291,0.08709
333,548.0,0.913338,0.086662
334,204.0,0.913338,0.086662
335,136.0,0.913546,0.086454
336,215.0,0.913866,0.086134
337,253.0,0.914159,0.085841
338,263.0,0.914225,0.085775
339,438.0,0.91433,0.08567
340,429.0,0.914471,0.085529
341,377.0,0.914513,0.085487
342,56.0,0.91485,0.08515
343,473.0,0.914909,0.085091
344,449.0,0.914929,0.085071
345,150.0,0.915119,0.084881
346,107.0,0.915209,0.084791
347,381.0,0.915346,0.084654
348,84.0,0.915442,0.084558
349,422.0,0.915518,0.084482
350,474.0,0.915656,0.084344
351,376.0,0.916106,0.083894
352,540.0,0.916117,0.083883
353,57.0,0.916144,0.083856
354,313.0,0.916193,0.083807
355,472.0,0.916231,0.083769
356,521.0,0.916513,0.083487
357,4.0,0.916859,0.083141
358,123.0,0.916949,0.083051
359,312.0,0.917,0.083
360,421.0,0.917534,0.082466
361,139.0,0.917934,0.082066
362,58.0,0.918083,0.081917
363,349.0,0.918279,0.081721
364,20.0,0.918279,0.081721
365,476.0,0.918279,0.081721
366,310.0,0.918359,0.081641
367,218.0,0.918363,0.081637
368,446.0,0.918489,0.081511
369,289.0,0.918563,0.081437
370,530.0,0.91885,0.08115
371,385.0,0.918893,0.081107
372,496.0,0.918946,0.081054
373,412.0,0.918975,0.081025
374,325.0,0.919236,0.080764
375,467.0,0.919273,0.080727
376,214.0,0.919302,0.080698
377,144.0,0.919329,0.080671
378,501.0,0.919415,0.080585
379,520.0,0.919452,0.080548
380,361.0,0.919463,0.080537
381,64.0,0.919463,0.080537
382,346.0,0.919463,0.080537
383,54.0,0.919463,0.080537
384,110.0,0.919545,0.080455
385,227.0,0.91974,0.08026
386,423.0,0.920158,0.079842
387,524.0,0.920199,0.079801
388,333.0,0.920443,0.079557
389,273.0,0.920474,0.079526
390,517.0,0.920619,0.079381
391,246.0,0.920674,0.079326
392,226.0,0.920869,0.079131
393,491.0,0.920873,0.079127
394,182.0,0.920884,0.079116
395,403.0,0.920992,0.079008
396,348.0,0.921121,0.078879
397,405.0,0.921134,0.078866
398,398.0,0.92119,0.07881
399,47.0,0.921282,0.078718
400,558.0,0.921328,0.078672
401,259.0,0.921411,0.078589
402,149.0,0.921436,0.078564
403,546.0,0.921523,0.078477
404,156.0,0.92176,0.07824
405,392.0,0.921864,0.078136
406,46.0,0.921966,0.078034
407,38.0,0.922045,0.077955
408,40.0,0.922045,0.077955
409,338.0,0.922572,0.077428
410,171.0,0.922584,0.077416
411,330.0,0.922653,0.077347
412,297.0,0.922653,0.077347
413,437.0,0.922658,0.077342
414,478.0,0.922673,0.077327
415,337.0,0.922679,0.077321
416,95.0,0.922825,0.077175
417,102.0,0.922962,0.077038
418,322.0,0.922962,0.077038
419,282.0,0.92298,0.07702
420,545.0,0.922988,0.077012
421,189.0,0.923231,0.076769
422,505.0,0.923283,0.076717
423,268.0,0.923428,0.076572
424,168.0,0.923474,0.076526
425,247.0,0.923736,0.076264
426,187.0,0.923868,0.076132
427,447.0,0.923868,0.076132
428,359.0,0.923868,0.076132
429,33.0,0.923868,0.076132
430,477.0,0.92391,0.07609
431,103.0,0.923942,0.076058
432,22.0,0.92396,0.07604
433,175.0,0.924009,0.075991
434,523.0,0.924247,0.075753
435,19.0,0.924576,0.075424
436,541.0,0.924605,0.075395
437,148.0,0.92483,0.07517
438,324.0,0.924857,0.075143
439,489.0,0.925182,0.074818
440,69.0,0.925382,0.074618
441,199.0,0.925455,0.074545
442,495.0,0.9257,0.0743
443,280.0,0.92594,0.07406
444,10.0,0.926043,0.073957
445,104.0,0.926253,0.073747
446,483.0,0.926269,0.073731
447,418.0,0.926413,0.073587
448,351.0,0.926531,0.073469
449,36.0,0.926587,0.073413
450,216.0,0.926591,0.073409
451,469.0,0.926702,0.073298
452,163.0,0.926707,0.073293
453,475.0,0.926752,0.073248
454,23.0,0.92708,0.07292
455,3.0,0.927087,0.072913
456,71.0,0.92714,0.07286
457,196.0,0.927155,0.072845
458,553.0,0.92718,0.07282
459,281.0,0.927289,0.072711
460,234.0,0.927536,0.072464
461,309.0,0.927536,0.072464
462,424.0,0.92756,0.07244
463,295.0,0.927599,0.072401
464,380.0,0.927599,0.072401
465,317.0,0.927651,0.072349
466,101.0,0.927693,0.072307
467,232.0,0.927713,0.072287
468,411.0,0.927787,0.072213
469,466.0,0.927911,0.072089
470,170.0,0.928128,0.071872
471,212.0,0.92818,0.07182
472,522.0,0.928225,0.071775
473,370.0,0.928375,0.071625
474,396.0,0.928469,0.071531
475,245.0,0.928525,0.071475
476,508.0,0.928582,0.071418
477,296.0,0.928768,0.071232
478,502.0,0.928889,0.071111
479,153.0,0.929043,0.070957
480,93.0,0.929149,0.070851
481,457.0,0.929205,0.070795
482,518.0,0.929367,0.070633
483,493.0,0.929367,0.070633
484,17.0,0.929849,0.070151
485,158.0,0.929918,0.070082
486,390.0,0.930202,0.069798
487,386.0,0.930516,0.069484
488,451.0,0.93066,0.06934
489,559.0,0.930685,0.069315
490,50.0,0.930712,0.069288
491,151.0,0.930783,0.069217
492,241.0,0.9308,0.0692
493,14.0,0.930819,0.069181
494,83.0,0.930952,0.069048
495,488.0,0.931156,0.068844
496,395.0,0.931193,0.068807
497,287.0,0.931211,0.068789
498,531.0,0.931391,0.068609
499,34.0,0.931395,0.068605
500,254.0,0.931459,0.068541
501,167.0,0.931545,0.068455
502,238.0,0.931652,0.068348
503,321.0,0.93201,0.06799
504,427.0,0.932041,0.067959
505,165.0,0.932315,0.067685
506,470.0,0.932427,0.067573
507,316.0,0.932673,0.067327
508,51.0,0.932876,0.067124
509,203.0,0.933077,0.066923
510,503.0,0.933146,0.066854
511,270.0,0.933442,0.066558
512,354.0,0.933505,0.066495
513,299.0,0.933525,0.066475
514,223.0,0.933769,0.066231
515,130.0,0.933884,0.066116
516,555.0,0.934404,0.065596
517,332.0,0.934561,0.065439
518,32.0,0.934593,0.065407
519,66.0,0.9355,0.0645
520,458.0,0.935755,0.064245
521,365.0,0.935815,0.064185
522,443.0,0.935852,0.064148
523,41.0,0.93646,0.06354
524,184.0,0.936971,0.063029
525,383.0,0.937697,0.062303
526,114.0,0.938013,0.061987
527,391.0,0.938171,0.061829
528,352.0,0.938334,0.061666
529,176.0,0.938558,0.061442
530,77.0,0.938879,0.061121
531,356.0,0.939277,0.060723
532,132.0,0.939401,0.060599
533,202.0,0.939636,0.060364
534,67.0,0.939659,0.060341
535,510.0,0.939715,0.060285
536,441.0,0.940023,0.059977
537,239.0,0.940378,0.059622
538,258.0,0.941007,0.058993
539,49.0,0.942875,0.057125
540,556.0,0.94333,0.05667
541,96.0,0.946915,0.053085
542,433.0,0.947859,0.052141
543,152.0,0.950115,0.049885
544,257.0,0.952714,0.047286
545,283.0,0.952895,0.047105
546,207.0,0.953388,0.046612
547,88.0,0.95423,0.04577
548,549.0,0.954509,0.045491
549,515.0,0.955156,0.044844
550,397.0,0.957076,0.042924
551,492.0,0.959277,0.040723
552,436.0,0.961362,0.038638
553,285.0,0.963075,0.036925
554,271.0,0.964605,0.035395
555,311.0,0.971484,0.028516
556,262.0,0.972153,0.027847
557,304.0,0.978109,0.021891
558,225.0,0.990984,0.009016
