,idx,nominal,anomaly
0,35.0,0.000444,0.999556
1,274.0,0.00493,0.99507
2,210.0,0.013913,0.986087
3,162.0,0.016909,0.983091
4,419.0,0.040746,0.959254
5,300.0,0.040753,0.959247
6,180.0,0.041451,0.958549
7,75.0,0.056354,0.943646
8,401.0,0.060998,0.939002
9,261.0,0.06979,0.93021
10,231.0,0.083369,0.916631
11,76.0,0.099948,0.900052
12,147.0,0.101591,0.898409
13,406.0,0.104245,0.895755
14,121.0,0.118312,0.881688
15,293.0,0.120126,0.879874
16,134.0,0.14692,0.85308
17,535.0,0.148748,0.851252
18,221.0,0.14956,0.85044
19,251.0,0.166824,0.833176
20,308.0,0.180999,0.819001
21,116.0,0.190248,0.809752
22,400.0,0.190365,0.809635
23,511.0,0.193865,0.806135
24,63.0,0.212834,0.787166
25,290.0,0.216771,0.783229
26,363.0,0.224182,0.775818
27,301.0,0.228962,0.771038
28,209.0,0.249297,0.750703
29,329.0,0.259798,0.740202
30,355.0,0.271063,0.728937
31,387.0,0.271186,0.728814
32,543.0,0.283774,0.716226
33,256.0,0.326252,0.673748
34,25.0,0.333512,0.666488
35,445.0,0.344788,0.655212
36,499.0,0.356922,0.643078
37,340.0,0.36054,0.63946
38,68.0,0.370867,0.629133
39,53.0,0.371834,0.628166
40,554.0,0.384665,0.615335
41,222.0,0.385808,0.614192
42,94.0,0.393926,0.606074
43,265.0,0.407401,0.592599
44,453.0,0.429269,0.570731
45,161.0,0.432168,0.567832
46,125.0,0.435962,0.564038
47,372.0,0.450018,0.549982
48,115.0,0.45953,0.54047
49,315.0,0.484029,0.515971
50,410.0,0.498429,0.501571
51,154.0,0.499871,0.500129
52,190.0,0.501846,0.498154
53,450.0,0.50292,0.49708
54,119.0,0.509799,0.490201
55,414.0,0.514223,0.485777
56,9.0,0.518531,0.481469
57,264.0,0.526916,0.473084
58,551.0,0.529435,0.470565
59,498.0,0.542134,0.457866
60,272.0,0.542786,0.457214
61,201.0,0.551537,0.448463
62,181.0,0.55317,0.44683
63,550.0,0.572429,0.427571
64,30.0,0.573759,0.426241
65,243.0,0.579184,0.420816
66,127.0,0.583889,0.416111
67,197.0,0.583978,0.416022
68,399.0,0.584992,0.415008
69,106.0,0.590329,0.409671
70,486.0,0.600615,0.399385
71,547.0,0.603373,0.396627
72,275.0,0.605836,0.394164
73,509.0,0.607345,0.392655
74,224.0,0.616974,0.383026
75,124.0,0.621115,0.378885
76,249.0,0.622609,0.377391
77,62.0,0.625811,0.374189
78,8.0,0.626575,0.373425
79,45.0,0.631926,0.368074
80,237.0,0.631989,0.368011
81,12.0,0.633601,0.366399
82,525.0,0.638297,0.361703
83,195.0,0.651124,0.348876
84,375.0,0.651142,0.348858
85,284.0,0.653528,0.346472
86,15.0,0.654789,0.345211
87,188.0,0.656267,0.343733
88,142.0,0.660913,0.339087
89,557.0,0.66268,0.33732
90,250.0,0.665443,0.334557
91,448.0,0.66646,0.33354
92,137.0,0.670326,0.329674
93,21.0,0.671914,0.328086
94,185.0,0.674514,0.325486
95,248.0,0.674589,0.325411
96,52.0,0.677759,0.322241
97,367.0,0.683257,0.316743
98,191.0,0.683383,0.316617
99,452.0,0.683439,0.316561
100,59.0,0.683452,0.316548
101,384.0,0.688527,0.311473
102,228.0,0.690745,0.309255
103,108.0,0.692897,0.307103
104,373.0,0.694753,0.305247
105,374.0,0.695422,0.304578
106,39.0,0.696315,0.303685
107,439.0,0.696757,0.303243
108,484.0,0.697888,0.302112
109,360.0,0.69824,0.30176
110,389.0,0.699845,0.300155
111,319.0,0.700747,0.299253
112,408.0,0.704218,0.295782
113,117.0,0.705988,0.294012
114,303.0,0.7071,0.2929
115,341.0,0.710372,0.289628
116,318.0,0.711509,0.288491
117,335.0,0.712007,0.287993
118,371.0,0.712919,0.287081
119,141.0,0.713704,0.286296
120,5.0,0.71884,0.28116
121,276.0,0.720613,0.279387
122,169.0,0.720626,0.279374
123,146.0,0.721448,0.278552
124,302.0,0.721874,0.278126
125,1.0,0.725335,0.274665
126,378.0,0.727626,0.272374
127,404.0,0.730827,0.269173
128,432.0,0.731383,0.268617
129,487.0,0.732147,0.267853
130,89.0,0.736913,0.263087
131,434.0,0.73843,0.26157
132,527.0,0.74206,0.25794
133,267.0,0.742291,0.257709
134,394.0,0.742521,0.257479
135,113.0,0.745794,0.254206
136,78.0,0.746224,0.253776
137,98.0,0.748373,0.251627
138,244.0,0.749254,0.250746
139,342.0,0.75631,0.24369
140,347.0,0.757523,0.242477
141,266.0,0.760099,0.239901
142,97.0,0.760983,0.239017
143,420.0,0.76402,0.23598
144,11.0,0.764451,0.235549
145,513.0,0.765522,0.234478
146,506.0,0.765799,0.234201
147,157.0,0.766782,0.233218
148,135.0,0.768027,0.231973
149,327.0,0.768924,0.231076
150,229.0,0.769105,0.230895
151,286.0,0.770282,0.229718
152,388.0,0.771637,0.228363
153,336.0,0.772825,0.227175
154,242.0,0.77357,0.22643
155,461.0,0.773971,0.226029
156,28.0,0.773978,0.226022
157,85.0,0.778207,0.221793
158,292.0,0.778558,0.221442
159,279.0,0.77933,0.22067
160,72.0,0.779867,0.220133
161,415.0,0.780913,0.219087
162,413.0,0.781272,0.218728
163,122.0,0.782201,0.217799
164,440.0,0.785471,0.214529
165,456.0,0.78748,0.21252
166,504.0,0.787585,0.212415
167,533.0,0.789634,0.210366
168,99.0,0.789694,0.210306
169,534.0,0.791434,0.208566
170,111.0,0.791914,0.208086
171,277.0,0.792806,0.207194
172,31.0,0.792998,0.207002
173,362.0,0.79372,0.20628
174,91.0,0.795617,0.204383
175,442.0,0.798636,0.201364
176,44.0,0.799211,0.200789
177,126.0,0.800914,0.199086
178,16.0,0.801297,0.198703
179,417.0,0.802105,0.197895
180,172.0,0.802242,0.197758
181,350.0,0.803061,0.196939
182,364.0,0.804696,0.195304
183,118.0,0.804979,0.195021
184,366.0,0.80779,0.19221
185,345.0,0.80847,0.19153
186,460.0,0.813955,0.186045
187,164.0,0.81412,0.18588
188,260.0,0.814283,0.185717
189,252.0,0.814299,0.185701
190,179.0,0.815166,0.184834
191,87.0,0.816002,0.183998
192,428.0,0.816297,0.183703
193,430.0,0.816412,0.183588
194,353.0,0.817033,0.182967
195,288.0,0.818047,0.181953
196,512.0,0.818294,0.181706
197,143.0,0.818794,0.181206
198,73.0,0.821107,0.178893
199,219.0,0.821151,0.178849
200,80.0,0.821436,0.178564
201,497.0,0.822662,0.177338
202,306.0,0.823449,0.176551
203,494.0,0.823569,0.176431
204,339.0,0.824852,0.175148
205,507.0,0.825085,0.174915
206,160.0,0.828123,0.171877
207,155.0,0.828179,0.171821
208,233.0,0.830192,0.169808
209,174.0,0.830934,0.169066
210,109.0,0.831225,0.168775
211,435.0,0.831651,0.168349
212,206.0,0.833223,0.166777
213,236.0,0.833584,0.166416
214,100.0,0.835022,0.164978
215,409.0,0.83703,0.16297
216,43.0,0.83865,0.16135
217,323.0,0.839262,0.160738
218,455.0,0.840614,0.159386
219,48.0,0.841706,0.158294
220,379.0,0.841768,0.158232
221,220.0,0.843127,0.156873
222,18.0,0.843345,0.156655
223,178.0,0.843564,0.156436
224,294.0,0.844242,0.155758
225,480.0,0.845035,0.154965
226,416.0,0.845046,0.154954
227,177.0,0.845802,0.154198
228,542.0,0.846048,0.153952
229,140.0,0.84734,0.15266
230,81.0,0.84738,0.15262
231,186.0,0.847418,0.152582
232,56.0,0.847643,0.152357
233,516.0,0.848811,0.151189
234,334.0,0.849236,0.150764
235,407.0,0.849948,0.150052
236,200.0,0.852532,0.147468
237,192.0,0.853116,0.146884
238,368.0,0.854145,0.145855
239,393.0,0.854509,0.145491
240,468.0,0.854882,0.145118
241,462.0,0.856052,0.143948
242,444.0,0.85703,0.14297
243,425.0,0.859153,0.140847
244,211.0,0.859596,0.140404
245,382.0,0.860675,0.139325
246,2.0,0.860765,0.139235
247,402.0,0.861497,0.138503
248,60.0,0.862157,0.137843
249,291.0,0.863749,0.136251
250,166.0,0.864049,0.135951
251,539.0,0.86413,0.13587
252,369.0,0.865063,0.134937
253,70.0,0.866763,0.133237
254,240.0,0.868418,0.131582
255,255.0,0.868469,0.131531
256,481.0,0.86903,0.13097
257,26.0,0.86915,0.13085
258,217.0,0.869587,0.130413
259,194.0,0.869666,0.130334
260,112.0,0.870412,0.129588
261,490.0,0.871303,0.128697
262,459.0,0.871497,0.128503
263,120.0,0.87155,0.12845
264,514.0,0.873343,0.126657
265,485.0,0.874549,0.125451
266,55.0,0.875052,0.124948
267,412.0,0.875327,0.124673
268,107.0,0.8765,0.1235
269,454.0,0.877323,0.122677
270,298.0,0.878173,0.121827
271,133.0,0.878407,0.121593
272,463.0,0.878637,0.121363
273,198.0,0.879401,0.120599
274,471.0,0.880337,0.119663
275,500.0,0.881148,0.118852
276,131.0,0.88139,0.11861
277,105.0,0.881392,0.118608
278,544.0,0.882704,0.117296
279,526.0,0.882821,0.117179
280,7.0,0.883076,0.116924
281,24.0,0.884752,0.115248
282,86.0,0.885095,0.114905
283,426.0,0.88517,0.11483
284,79.0,0.885757,0.114243
285,6.0,0.886384,0.113616
286,505.0,0.887023,0.112977
287,173.0,0.88751,0.11249
288,520.0,0.887563,0.112437
289,74.0,0.888867,0.111133
290,263.0,0.888903,0.111097
291,159.0,0.889345,0.110655
292,552.0,0.890003,0.109997
293,314.0,0.890454,0.109546
294,269.0,0.890941,0.109059
295,337.0,0.8916,0.1084
296,307.0,0.891828,0.108172
297,464.0,0.89285,0.10715
298,474.0,0.893197,0.106803
299,524.0,0.893623,0.106377
300,536.0,0.893929,0.106071
301,83.0,0.894163,0.105837
302,136.0,0.894231,0.105769
303,357.0,0.894262,0.105738
304,153.0,0.894389,0.105611
305,473.0,0.894665,0.105335
306,253.0,0.894717,0.105283
307,305.0,0.895575,0.104425
308,465.0,0.895814,0.104186
309,230.0,0.89609,0.10391
310,42.0,0.896118,0.103882
311,517.0,0.896613,0.103387
312,128.0,0.89697,0.10303
313,84.0,0.897097,0.102903
314,138.0,0.897464,0.102536
315,344.0,0.897507,0.102493
316,422.0,0.897575,0.102425
317,338.0,0.898002,0.101998
318,479.0,0.898556,0.101444
319,458.0,0.89912,0.10088
320,139.0,0.899432,0.100568
321,405.0,0.900694,0.099306
322,77.0,0.900717,0.099283
323,438.0,0.900744,0.099256
324,320.0,0.90114,0.09886
325,82.0,0.901347,0.098653
326,540.0,0.901639,0.098361
327,145.0,0.902936,0.097064
328,351.0,0.903101,0.096899
329,278.0,0.903437,0.096563
330,421.0,0.904059,0.095941
331,343.0,0.904563,0.095437
332,205.0,0.904642,0.095358
333,289.0,0.905354,0.094646
334,446.0,0.905491,0.094509
335,156.0,0.905519,0.094481
336,358.0,0.905648,0.094352
337,501.0,0.905901,0.094099
338,538.0,0.906046,0.093954
339,193.0,0.906046,0.093954
340,441.0,0.906711,0.093289
341,259.0,0.906932,0.093068
342,13.0,0.906977,0.093023
343,392.0,0.907159,0.092841
344,95.0,0.90769,0.09231
345,548.0,0.907779,0.092221
346,204.0,0.907779,0.092221
347,212.0,0.908279,0.091721
348,496.0,0.908282,0.091718
349,296.0,0.908312,0.091688
350,208.0,0.908443,0.091557
351,361.0,0.908861,0.091139
352,346.0,0.908861,0.091139
353,64.0,0.908861,0.091139
354,54.0,0.908861,0.091139
355,423.0,0.908985,0.091015
356,482.0,0.909057,0.090943
357,530.0,0.909448,0.090552
358,385.0,0.909737,0.090263
359,183.0,0.910234,0.089766
360,61.0,0.910561,0.089439
361,537.0,0.910797,0.089203
362,58.0,0.91083,0.08917
363,478.0,0.910833,0.089167
364,246.0,0.910854,0.089146
365,377.0,0.910985,0.089015
366,403.0,0.911729,0.088271
367,29.0,0.911937,0.088063
368,523.0,0.912088,0.087912
369,532.0,0.912799,0.087201
370,381.0,0.912919,0.087081
371,431.0,0.912963,0.087037
372,429.0,0.913122,0.086878
373,110.0,0.913316,0.086684
374,528.0,0.913592,0.086408
375,232.0,0.914536,0.085464
376,443.0,0.914697,0.085303
377,150.0,0.914739,0.085261
378,418.0,0.915912,0.084088
379,227.0,0.916031,0.083969
380,47.0,0.916089,0.083911
381,213.0,0.916567,0.083433
382,313.0,0.916577,0.083423
383,92.0,0.916652,0.083348
384,326.0,0.918283,0.081717
385,37.0,0.918283,0.081717
386,295.0,0.918313,0.081687
387,380.0,0.918313,0.081687
388,518.0,0.918704,0.081296
389,493.0,0.918704,0.081296
390,144.0,0.919014,0.080986
391,475.0,0.919055,0.080945
392,449.0,0.919078,0.080922
393,472.0,0.919383,0.080617
394,488.0,0.919643,0.080357
395,20.0,0.920144,0.079856
396,476.0,0.920144,0.079856
397,349.0,0.920144,0.079856
398,27.0,0.920209,0.079791
399,531.0,0.920484,0.079516
400,280.0,0.920566,0.079434
401,90.0,0.920677,0.079323
402,281.0,0.9207,0.0793
403,348.0,0.920809,0.079191
404,558.0,0.92083,0.07917
405,312.0,0.921829,0.078171
406,328.0,0.921849,0.078151
407,235.0,0.921849,0.078151
408,331.0,0.921849,0.078151
409,299.0,0.922162,0.077838
410,66.0,0.922276,0.077724
411,325.0,0.922428,0.077572
412,395.0,0.922575,0.077425
413,196.0,0.922634,0.077366
414,4.0,0.922736,0.077264
415,101.0,0.922815,0.077185
416,376.0,0.922815,0.077185
417,282.0,0.922831,0.077169
418,273.0,0.922937,0.077063
419,559.0,0.922982,0.077018
420,226.0,0.923263,0.076737
421,23.0,0.923341,0.076659
422,310.0,0.924766,0.075234
423,132.0,0.925217,0.074783
424,123.0,0.925277,0.074723
425,14.0,0.925516,0.074484
426,238.0,0.925548,0.074452
427,218.0,0.925661,0.074339
428,521.0,0.925761,0.074239
429,130.0,0.926036,0.073964
430,317.0,0.926107,0.073893
431,316.0,0.926272,0.073728
432,546.0,0.92646,0.07354
433,189.0,0.92654,0.07346
434,541.0,0.926663,0.073337
435,467.0,0.92721,0.07279
436,354.0,0.927216,0.072784
437,508.0,0.927264,0.072736
438,19.0,0.927269,0.072731
439,503.0,0.927342,0.072658
440,519.0,0.927571,0.072429
441,545.0,0.927751,0.072249
442,163.0,0.928158,0.071842
443,158.0,0.928347,0.071653
444,324.0,0.928381,0.071619
445,93.0,0.928443,0.071557
446,437.0,0.928617,0.071383
447,38.0,0.928925,0.071075
448,40.0,0.928925,0.071075
449,215.0,0.929183,0.070817
450,148.0,0.929199,0.070801
451,491.0,0.929229,0.070771
452,424.0,0.929247,0.070753
453,149.0,0.929277,0.070723
454,411.0,0.929378,0.070622
455,352.0,0.929506,0.070494
456,51.0,0.930234,0.069766
457,477.0,0.930349,0.069651
458,50.0,0.930683,0.069317
459,102.0,0.930976,0.069024
460,322.0,0.930976,0.069024
461,171.0,0.931032,0.068968
462,184.0,0.931228,0.068772
463,268.0,0.931231,0.068769
464,457.0,0.931429,0.068571
465,245.0,0.931491,0.068509
466,199.0,0.931901,0.068099
467,182.0,0.932143,0.067857
468,168.0,0.93282,0.06718
469,214.0,0.932873,0.067127
470,33.0,0.932973,0.067027
471,447.0,0.932973,0.067027
472,359.0,0.932973,0.067027
473,187.0,0.932973,0.067027
474,104.0,0.933273,0.066727
475,391.0,0.933333,0.066667
476,151.0,0.933626,0.066374
477,170.0,0.933671,0.066329
478,333.0,0.933728,0.066272
479,10.0,0.934395,0.065605
480,451.0,0.934438,0.065562
481,365.0,0.934477,0.065523
482,495.0,0.934477,0.065523
483,247.0,0.935107,0.064893
484,69.0,0.93513,0.06487
485,241.0,0.935457,0.064543
486,398.0,0.935854,0.064146
487,46.0,0.935865,0.064135
488,165.0,0.936228,0.063772
489,216.0,0.936534,0.063466
490,332.0,0.93667,0.06333
491,297.0,0.936818,0.063182
492,330.0,0.936818,0.063182
493,22.0,0.936822,0.063178
494,103.0,0.936999,0.063001
495,49.0,0.937632,0.062368
496,556.0,0.937903,0.062097
497,202.0,0.938332,0.061668
498,396.0,0.93868,0.06132
499,309.0,0.938872,0.061128
500,234.0,0.938872,0.061128
501,258.0,0.939075,0.060925
502,553.0,0.939422,0.060578
503,555.0,0.939553,0.060447
504,114.0,0.939576,0.060424
505,483.0,0.939973,0.060027
506,489.0,0.940941,0.059059
507,152.0,0.940981,0.059019
508,469.0,0.941136,0.058864
509,502.0,0.941259,0.058741
510,510.0,0.941284,0.058716
511,36.0,0.941506,0.058494
512,71.0,0.941725,0.058275
513,433.0,0.941848,0.058152
514,254.0,0.942092,0.057908
515,41.0,0.942776,0.057224
516,370.0,0.943184,0.056816
517,17.0,0.944656,0.055344
518,129.0,0.945223,0.054777
519,203.0,0.945414,0.054586
520,3.0,0.946121,0.053879
521,522.0,0.946352,0.053648
522,239.0,0.947391,0.052609
523,167.0,0.947445,0.052555
524,390.0,0.947805,0.052195
525,466.0,0.94791,0.05209
526,34.0,0.948244,0.051756
527,386.0,0.949386,0.050614
528,321.0,0.949749,0.050251
529,176.0,0.949924,0.050076
530,470.0,0.952748,0.047252
531,96.0,0.953438,0.046562
532,57.0,0.954531,0.045469
533,287.0,0.954988,0.045012
534,32.0,0.955437,0.044563
535,270.0,0.95566,0.04434
536,356.0,0.956093,0.043907
537,223.0,0.956358,0.043642
538,65.0,0.956803,0.043197
539,397.0,0.961247,0.038753
540,383.0,0.961263,0.038737
541,515.0,0.961569,0.038431
542,175.0,0.961924,0.038076
543,67.0,0.962843,0.037157
544,549.0,0.966518,0.033482
545,436.0,0.974023,0.025977
546,207.0,0.975045,0.024955
547,427.0,0.976825,0.023175
548,88.0,0.979255,0.020745
549,271.0,0.982846,0.017154
550,492.0,0.98349,0.01651
551,257.0,0.984762,0.015238
552,283.0,0.98522,0.01478
553,285.0,0.988825,0.011175
554,311.0,0.997184,0.002816
555,529.0,0.999346,0.000654
556,304.0,0.999608,0.000392
557,225.0,0.999645,0.000355
558,262.0,0.999967,3.3e-05
