,idx,nominal,anomaly
0,84.0,0.0,1.0
1,266.0,0.0,1.0
2,47.0,0.0,1.0
3,142.0,0.0,1.0
4,316.0,0.0,1.0
5,318.0,0.0,1.0
6,256.0,0.0,1.0
7,693.0,0.0,1.0
8,381.0,0.0,1.0
9,531.0,0.0,1.0
10,731.0,0.0,1.0
11,329.0,0.0,1.0
12,219.0,0.0,1.0
13,296.0,0.0,1.0
14,595.0,0.0,1.0
15,833.0,0.0,1.0
16,465.0,0.0,1.0
17,460.0,0.0,1.0
18,542.0,0.0,1.0
19,377.0,0.0,1.0
20,568.0,0.0,1.0
21,421.0,0.0,1.0
22,541.0,0.0,1.0
23,852.0,0.0,1.0
24,123.0,0.0,1.0
25,759.0,0.0,1.0
26,676.0,0.0,1.0
27,756.0,0.0,1.0
28,638.0,0.0,1.0
29,561.0,0.0,1.0
30,490.0,0.112047,0.887953
31,574.0,0.112047,0.887953
32,761.0,0.125156,0.874844
33,744.0,0.125156,0.874844
34,305.0,0.195506,0.804494
35,32.0,0.195506,0.804494
36,349.0,0.195506,0.804494
37,451.0,0.195506,0.804494
38,687.0,0.195506,0.804494
39,54.0,0.195506,0.804494
40,572.0,0.195506,0.804494
41,116.0,0.230025,0.769975
42,649.0,0.230025,0.769975
43,560.0,0.234707,0.765293
44,689.0,0.254682,0.745318
45,344.0,0.254682,0.745318
46,594.0,0.254682,0.745318
47,86.0,0.254682,0.745318
48,449.0,0.254682,0.745318
49,300.0,0.254682,0.745318
50,483.0,0.254682,0.745318
51,288.0,0.288077,0.711923
52,665.0,0.317416,0.682584
53,741.0,0.333333,0.666667
54,31.0,0.333333,0.666667
55,2.0,0.333333,0.666667
56,225.0,0.333333,0.666667
57,80.0,0.347378,0.652622
58,578.0,0.4,0.6
59,361.0,0.4,0.6
60,277.0,0.4,0.6
61,500.0,0.4,0.6
62,616.0,0.4,0.6
63,792.0,0.4,0.6
64,174.0,0.4,0.6
65,13.0,0.4,0.6
66,199.0,0.4,0.6
67,456.0,0.4,0.6
68,152.0,0.4,0.6
69,418.0,0.4,0.6
70,777.0,0.4,0.6
71,416.0,0.4,0.6
72,557.0,0.4,0.6
73,41.0,0.4,0.6
74,171.0,0.4,0.6
75,600.0,0.4,0.6
76,227.0,0.4,0.6
77,52.0,0.4,0.6
78,773.0,0.4,0.6
79,810.0,0.4,0.6
80,326.0,0.401998,0.598002
81,760.0,0.44897,0.55103
82,498.0,0.449126,0.550874
83,119.0,0.455056,0.544944
84,372.0,0.455056,0.544944
85,485.0,0.455056,0.544944
86,579.0,0.457241,0.542759
87,269.0,0.466916,0.533084
88,747.0,0.483146,0.516854
89,140.0,0.483146,0.516854
90,563.0,0.485955,0.514045
91,328.0,0.485955,0.514045
92,479.0,0.485955,0.514045
93,642.0,0.485955,0.514045
94,426.0,0.485955,0.514045
95,63.0,0.485955,0.514045
96,729.0,0.485955,0.514045
97,188.0,0.485955,0.514045
98,307.0,0.485955,0.514045
99,501.0,0.5,0.5
100,212.0,0.5,0.5
101,471.0,0.5,0.5
102,635.0,0.513109,0.486891
103,545.0,0.513109,0.486891
104,749.0,0.513109,0.486891
105,302.0,0.513109,0.486891
106,282.0,0.513109,0.486891
107,551.0,0.513109,0.486891
108,261.0,0.513109,0.486891
109,254.0,0.513109,0.486891
110,147.0,0.513109,0.486891
111,335.0,0.513109,0.486891
112,217.0,0.513109,0.486891
113,688.0,0.513109,0.486891
114,210.0,0.513109,0.486891
115,569.0,0.513109,0.486891
116,176.0,0.513109,0.486891
117,617.0,0.513109,0.486891
118,553.0,0.513109,0.486891
119,626.0,0.513109,0.486891
120,14.0,0.513109,0.486891
121,524.0,0.513109,0.486891
122,788.0,0.513109,0.486891
123,776.0,0.513109,0.486891
124,824.0,0.513109,0.486891
125,789.0,0.513109,0.486891
126,848.0,0.513109,0.486891
127,835.0,0.513109,0.486891
128,829.0,0.513109,0.486891
129,765.0,0.513109,0.486891
130,836.0,0.513109,0.486891
131,250.0,0.533708,0.466292
132,640.0,0.533708,0.466292
133,255.0,0.574594,0.425406
134,148.0,0.584894,0.415106
135,129.0,0.625094,0.374906
136,67.0,0.652622,0.347378
137,510.0,0.652622,0.347378
138,398.0,0.652622,0.347378
139,161.0,0.653558,0.346442
140,61.0,0.661985,0.338015
141,287.0,0.664794,0.335206
142,5.0,0.666667,0.333333
143,475.0,0.666667,0.333333
144,554.0,0.666667,0.333333
145,707.0,0.671036,0.328964
146,191.0,0.671036,0.328964
147,725.0,0.671036,0.328964
148,488.0,0.671036,0.328964
149,797.0,0.671036,0.328964
150,812.0,0.671036,0.328964
151,853.0,0.671036,0.328964
152,124.0,0.671036,0.328964
153,668.0,0.671036,0.328964
154,367.0,0.671036,0.328964
155,767.0,0.671036,0.328964
156,215.0,0.671223,0.328777
157,610.0,0.672285,0.327715
158,283.0,0.718165,0.281835
159,781.0,0.738764,0.261236
160,724.0,0.738764,0.261236
161,766.0,0.738764,0.261236
162,589.0,0.738764,0.261236
163,65.0,0.747066,0.252934
164,206.0,0.75,0.25
165,331.0,0.752809,0.247191
166,629.0,0.752809,0.247191
167,71.0,0.8,0.2
168,757.0,0.8,0.2
169,470.0,0.821161,0.178839
170,641.0,0.822097,0.177903
171,201.0,0.828964,0.171036
172,502.0,0.828964,0.171036
173,817.0,0.828964,0.171036
174,160.0,0.828964,0.171036
175,295.0,0.828964,0.171036
176,262.0,0.838951,0.161049
177,207.0,0.842697,0.157303
178,547.0,0.842697,0.157303
179,506.0,0.842697,0.157303
180,185.0,0.842697,0.157303
181,639.0,0.842697,0.157303
182,814.0,0.842697,0.157303
183,712.0,0.842697,0.157303
184,150.0,0.879213,0.120787
185,739.0,0.879213,0.120787
186,454.0,0.879213,0.120787
187,596.0,1.0,0.0
188,620.0,1.0,0.0
189,482.0,1.0,0.0
190,481.0,1.0,0.0
191,497.0,1.0,0.0
192,621.0,1.0,0.0
193,499.0,1.0,0.0
194,597.0,1.0,0.0
195,480.0,1.0,0.0
196,602.0,1.0,0.0
197,599.0,1.0,0.0
198,623.0,1.0,0.0
199,598.0,1.0,0.0
200,624.0,1.0,0.0
201,622.0,1.0,0.0
202,601.0,1.0,0.0
203,491.0,1.0,0.0
204,495.0,1.0,0.0
205,612.0,1.0,0.0
206,492.0,1.0,0.0
207,493.0,1.0,0.0
208,611.0,1.0,0.0
209,489.0,1.0,0.0
210,614.0,1.0,0.0
211,615.0,1.0,0.0
212,487.0,1.0,0.0
213,486.0,1.0,0.0
214,494.0,1.0,0.0
215,609.0,1.0,0.0
216,618.0,1.0,0.0
217,619.0,1.0,0.0
218,608.0,1.0,0.0
219,607.0,1.0,0.0
220,484.0,1.0,0.0
221,606.0,1.0,0.0
222,605.0,1.0,0.0
223,604.0,1.0,0.0
224,603.0,1.0,0.0
225,503.0,1.0,0.0
226,496.0,1.0,0.0
227,613.0,1.0,0.0
228,539.0,1.0,0.0
229,593.0,1.0,0.0
230,565.0,1.0,0.0
231,521.0,1.0,0.0
232,564.0,1.0,0.0
233,522.0,1.0,0.0
234,523.0,1.0,0.0
235,562.0,1.0,0.0
236,525.0,1.0,0.0
237,526.0,1.0,0.0
238,559.0,1.0,0.0
239,558.0,1.0,0.0
240,527.0,1.0,0.0
241,556.0,1.0,0.0
242,555.0,1.0,0.0
243,528.0,1.0,0.0
244,566.0,1.0,0.0
245,529.0,1.0,0.0
246,530.0,1.0,0.0
247,532.0,1.0,0.0
248,550.0,1.0,0.0
249,533.0,1.0,0.0
250,534.0,1.0,0.0
251,549.0,1.0,0.0
252,548.0,1.0,0.0
253,535.0,1.0,0.0
254,536.0,1.0,0.0
255,546.0,1.0,0.0
256,537.0,1.0,0.0
257,544.0,1.0,0.0
258,543.0,1.0,0.0
259,538.0,1.0,0.0
260,552.0,1.0,0.0
261,520.0,1.0,0.0
262,519.0,1.0,0.0
263,567.0,1.0,0.0
264,505.0,1.0,0.0
265,592.0,1.0,0.0
266,591.0,1.0,0.0
267,590.0,1.0,0.0
268,507.0,1.0,0.0
269,508.0,1.0,0.0
270,588.0,1.0,0.0
271,509.0,1.0,0.0
272,587.0,1.0,0.0
273,540.0,1.0,0.0
274,586.0,1.0,0.0
275,585.0,1.0,0.0
276,584.0,1.0,0.0
277,583.0,1.0,0.0
278,582.0,1.0,0.0
279,511.0,1.0,0.0
280,581.0,1.0,0.0
281,518.0,1.0,0.0
282,517.0,1.0,0.0
283,570.0,1.0,0.0
284,571.0,1.0,0.0
285,516.0,1.0,0.0
286,573.0,1.0,0.0
287,504.0,1.0,0.0
288,515.0,1.0,0.0
289,575.0,1.0,0.0
290,576.0,1.0,0.0
291,577.0,1.0,0.0
292,513.0,1.0,0.0
293,512.0,1.0,0.0
294,580.0,1.0,0.0
295,514.0,1.0,0.0
296,1.0,1.0,0.0
297,669.0,1.0,0.0
298,627.0,1.0,0.0
299,779.0,1.0,0.0
300,780.0,1.0,0.0
301,782.0,1.0,0.0
302,783.0,1.0,0.0
303,784.0,1.0,0.0
304,785.0,1.0,0.0
305,786.0,1.0,0.0
306,787.0,1.0,0.0
307,778.0,1.0,0.0
308,790.0,1.0,0.0
309,793.0,1.0,0.0
310,794.0,1.0,0.0
311,795.0,1.0,0.0
312,796.0,1.0,0.0
313,798.0,1.0,0.0
314,799.0,1.0,0.0
315,800.0,1.0,0.0
316,801.0,1.0,0.0
317,791.0,1.0,0.0
318,775.0,1.0,0.0
319,774.0,1.0,0.0
320,772.0,1.0,0.0
321,742.0,1.0,0.0
322,743.0,1.0,0.0
323,745.0,1.0,0.0
324,746.0,1.0,0.0
325,748.0,1.0,0.0
326,750.0,1.0,0.0
327,751.0,1.0,0.0
328,752.0,1.0,0.0
329,753.0,1.0,0.0
330,754.0,1.0,0.0
331,755.0,1.0,0.0
332,758.0,1.0,0.0
333,762.0,1.0,0.0
334,763.0,1.0,0.0
335,764.0,1.0,0.0
336,768.0,1.0,0.0
337,769.0,1.0,0.0
338,770.0,1.0,0.0
339,771.0,1.0,0.0
340,802.0,1.0,0.0
341,740.0,1.0,0.0
342,803.0,1.0,0.0
343,805.0,1.0,0.0
344,838.0,1.0,0.0
345,839.0,1.0,0.0
346,840.0,1.0,0.0
347,841.0,1.0,0.0
348,842.0,1.0,0.0
349,843.0,1.0,0.0
350,844.0,1.0,0.0
351,845.0,1.0,0.0
352,837.0,1.0,0.0
353,846.0,1.0,0.0
354,849.0,1.0,0.0
355,850.0,1.0,0.0
356,851.0,1.0,0.0
357,854.0,1.0,0.0
358,855.0,1.0,0.0
359,856.0,1.0,0.0
360,857.0,1.0,0.0
361,858.0,1.0,0.0
362,847.0,1.0,0.0
363,834.0,1.0,0.0
364,832.0,1.0,0.0
365,831.0,1.0,0.0
366,806.0,1.0,0.0
367,807.0,1.0,0.0
368,808.0,1.0,0.0
369,809.0,1.0,0.0
370,811.0,1.0,0.0
371,813.0,1.0,0.0
372,815.0,1.0,0.0
373,816.0,1.0,0.0
374,818.0,1.0,0.0
375,819.0,1.0,0.0
376,820.0,1.0,0.0
377,821.0,1.0,0.0
378,822.0,1.0,0.0
379,823.0,1.0,0.0
380,825.0,1.0,0.0
381,826.0,1.0,0.0
382,827.0,1.0,0.0
383,828.0,1.0,0.0
384,830.0,1.0,0.0
385,804.0,1.0,0.0
386,625.0,1.0,0.0
387,738.0,1.0,0.0
388,736.0,1.0,0.0
389,659.0,1.0,0.0
390,660.0,1.0,0.0
391,661.0,1.0,0.0
392,662.0,1.0,0.0
393,663.0,1.0,0.0
394,664.0,1.0,0.0
395,666.0,1.0,0.0
396,667.0,1.0,0.0
397,658.0,1.0,0.0
398,670.0,1.0,0.0
399,672.0,1.0,0.0
400,673.0,1.0,0.0
401,674.0,1.0,0.0
402,675.0,1.0,0.0
403,677.0,1.0,0.0
404,678.0,1.0,0.0
405,679.0,1.0,0.0
406,680.0,1.0,0.0
407,671.0,1.0,0.0
408,657.0,1.0,0.0
409,656.0,1.0,0.0
410,655.0,1.0,0.0
411,628.0,1.0,0.0
412,630.0,1.0,0.0
413,631.0,1.0,0.0
414,632.0,1.0,0.0
415,633.0,1.0,0.0
416,634.0,1.0,0.0
417,636.0,1.0,0.0
418,637.0,1.0,0.0
419,643.0,1.0,0.0
420,644.0,1.0,0.0
421,645.0,1.0,0.0
422,646.0,1.0,0.0
423,647.0,1.0,0.0
424,648.0,1.0,0.0
425,650.0,1.0,0.0
426,651.0,1.0,0.0
427,652.0,1.0,0.0
428,653.0,1.0,0.0
429,654.0,1.0,0.0
430,681.0,1.0,0.0
431,737.0,1.0,0.0
432,682.0,1.0,0.0
433,684.0,1.0,0.0
434,714.0,1.0,0.0
435,715.0,1.0,0.0
436,716.0,1.0,0.0
437,717.0,1.0,0.0
438,718.0,1.0,0.0
439,719.0,1.0,0.0
440,720.0,1.0,0.0
441,721.0,1.0,0.0
442,713.0,1.0,0.0
443,722.0,1.0,0.0
444,726.0,1.0,0.0
445,727.0,1.0,0.0
446,728.0,1.0,0.0
447,730.0,1.0,0.0
448,732.0,1.0,0.0
449,733.0,1.0,0.0
450,734.0,1.0,0.0
451,735.0,1.0,0.0
452,723.0,1.0,0.0
453,711.0,1.0,0.0
454,710.0,1.0,0.0
455,709.0,1.0,0.0
456,685.0,1.0,0.0
457,686.0,1.0,0.0
458,690.0,1.0,0.0
459,691.0,1.0,0.0
460,692.0,1.0,0.0
461,694.0,1.0,0.0
462,695.0,1.0,0.0
463,696.0,1.0,0.0
464,697.0,1.0,0.0
465,698.0,1.0,0.0
466,699.0,1.0,0.0
467,700.0,1.0,0.0
468,701.0,1.0,0.0
469,702.0,1.0,0.0
470,703.0,1.0,0.0
471,704.0,1.0,0.0
472,705.0,1.0,0.0
473,706.0,1.0,0.0
474,708.0,1.0,0.0
475,683.0,1.0,0.0
476,478.0,1.0,0.0
477,430.0,1.0,0.0
478,476.0,1.0,0.0
479,149.0,1.0,0.0
480,151.0,1.0,0.0
481,153.0,1.0,0.0
482,154.0,1.0,0.0
483,155.0,1.0,0.0
484,156.0,1.0,0.0
485,157.0,1.0,0.0
486,158.0,1.0,0.0
487,159.0,1.0,0.0
488,162.0,1.0,0.0
489,163.0,1.0,0.0
490,164.0,1.0,0.0
491,165.0,1.0,0.0
492,166.0,1.0,0.0
493,167.0,1.0,0.0
494,168.0,1.0,0.0
495,169.0,1.0,0.0
496,170.0,1.0,0.0
497,172.0,1.0,0.0
498,146.0,1.0,0.0
499,145.0,1.0,0.0
500,144.0,1.0,0.0
501,143.0,1.0,0.0
502,117.0,1.0,0.0
503,118.0,1.0,0.0
504,120.0,1.0,0.0
505,121.0,1.0,0.0
506,122.0,1.0,0.0
507,125.0,1.0,0.0
508,126.0,1.0,0.0
509,127.0,1.0,0.0
510,128.0,1.0,0.0
511,173.0,1.0,0.0
512,130.0,1.0,0.0
513,132.0,1.0,0.0
514,133.0,1.0,0.0
515,134.0,1.0,0.0
516,135.0,1.0,0.0
517,136.0,1.0,0.0
518,137.0,1.0,0.0
519,138.0,1.0,0.0
520,139.0,1.0,0.0
521,141.0,1.0,0.0
522,131.0,1.0,0.0
523,175.0,1.0,0.0
524,177.0,1.0,0.0
525,178.0,1.0,0.0
526,211.0,1.0,0.0
527,213.0,1.0,0.0
528,214.0,1.0,0.0
529,216.0,1.0,0.0
530,218.0,1.0,0.0
531,220.0,1.0,0.0
532,221.0,1.0,0.0
533,222.0,1.0,0.0
534,223.0,1.0,0.0
535,209.0,1.0,0.0
536,224.0,1.0,0.0
537,228.0,1.0,0.0
538,229.0,1.0,0.0
539,230.0,1.0,0.0
540,231.0,1.0,0.0
541,232.0,1.0,0.0
542,233.0,1.0,0.0
543,234.0,1.0,0.0
544,235.0,1.0,0.0
545,236.0,1.0,0.0
546,226.0,1.0,0.0
547,115.0,1.0,0.0
548,208.0,1.0,0.0
549,204.0,1.0,0.0
550,179.0,1.0,0.0
551,180.0,1.0,0.0
552,181.0,1.0,0.0
553,182.0,1.0,0.0
554,183.0,1.0,0.0
555,184.0,1.0,0.0
556,186.0,1.0,0.0
557,187.0,1.0,0.0
558,189.0,1.0,0.0
559,205.0,1.0,0.0
560,190.0,1.0,0.0
561,193.0,1.0,0.0
562,194.0,1.0,0.0
563,195.0,1.0,0.0
564,196.0,1.0,0.0
565,197.0,1.0,0.0
566,198.0,1.0,0.0
567,200.0,1.0,0.0
568,202.0,1.0,0.0
569,203.0,1.0,0.0
570,192.0,1.0,0.0
571,114.0,1.0,0.0
572,113.0,1.0,0.0
573,112.0,1.0,0.0
574,30.0,1.0,0.0
575,33.0,1.0,0.0
576,34.0,1.0,0.0
577,35.0,1.0,0.0
578,36.0,1.0,0.0
579,37.0,1.0,0.0
580,38.0,1.0,0.0
581,39.0,1.0,0.0
582,40.0,1.0,0.0
583,29.0,1.0,0.0
584,42.0,1.0,0.0
585,44.0,1.0,0.0
586,45.0,1.0,0.0
587,46.0,1.0,0.0
588,48.0,1.0,0.0
589,49.0,1.0,0.0
590,50.0,1.0,0.0
591,51.0,1.0,0.0
592,53.0,1.0,0.0
593,55.0,1.0,0.0
594,43.0,1.0,0.0
595,56.0,1.0,0.0
596,28.0,1.0,0.0
597,26.0,1.0,0.0
598,3.0,1.0,0.0
599,4.0,1.0,0.0
600,6.0,1.0,0.0
601,7.0,1.0,0.0
602,8.0,1.0,0.0
603,9.0,1.0,0.0
604,10.0,1.0,0.0
605,11.0,1.0,0.0
606,12.0,1.0,0.0
607,27.0,1.0,0.0
608,15.0,1.0,0.0
609,17.0,1.0,0.0
610,18.0,1.0,0.0
611,19.0,1.0,0.0
612,20.0,1.0,0.0
613,21.0,1.0,0.0
614,22.0,1.0,0.0
615,23.0,1.0,0.0
616,24.0,1.0,0.0
617,25.0,1.0,0.0
618,16.0,1.0,0.0
619,237.0,1.0,0.0
620,57.0,1.0,0.0
621,59.0,1.0,0.0
622,92.0,1.0,0.0
623,93.0,1.0,0.0
624,94.0,1.0,0.0
625,95.0,1.0,0.0
626,96.0,1.0,0.0
627,97.0,1.0,0.0
628,98.0,1.0,0.0
629,99.0,1.0,0.0
630,100.0,1.0,0.0
631,91.0,1.0,0.0
632,101.0,1.0,0.0
633,103.0,1.0,0.0
634,104.0,1.0,0.0
635,105.0,1.0,0.0
636,106.0,1.0,0.0
637,107.0,1.0,0.0
638,108.0,1.0,0.0
639,109.0,1.0,0.0
640,110.0,1.0,0.0
641,111.0,1.0,0.0
642,102.0,1.0,0.0
643,58.0,1.0,0.0
644,90.0,1.0,0.0
645,88.0,1.0,0.0
646,60.0,1.0,0.0
647,62.0,1.0,0.0
648,64.0,1.0,0.0
649,66.0,1.0,0.0
650,68.0,1.0,0.0
651,69.0,1.0,0.0
652,70.0,1.0,0.0
653,72.0,1.0,0.0
654,73.0,1.0,0.0
655,89.0,1.0,0.0
656,74.0,1.0,0.0
657,76.0,1.0,0.0
658,77.0,1.0,0.0
659,78.0,1.0,0.0
660,79.0,1.0,0.0
661,81.0,1.0,0.0
662,82.0,1.0,0.0
663,83.0,1.0,0.0
664,85.0,1.0,0.0
665,87.0,1.0,0.0
666,75.0,1.0,0.0
667,238.0,1.0,0.0
668,239.0,1.0,0.0
669,240.0,1.0,0.0
670,394.0,1.0,0.0
671,395.0,1.0,0.0
672,396.0,1.0,0.0
673,397.0,1.0,0.0
674,399.0,1.0,0.0
675,400.0,1.0,0.0
676,401.0,1.0,0.0
677,402.0,1.0,0.0
678,403.0,1.0,0.0
679,393.0,1.0,0.0
680,404.0,1.0,0.0
681,406.0,1.0,0.0
682,407.0,1.0,0.0
683,408.0,1.0,0.0
684,409.0,1.0,0.0
685,410.0,1.0,0.0
686,411.0,1.0,0.0
687,412.0,1.0,0.0
688,413.0,1.0,0.0
689,414.0,1.0,0.0
690,405.0,1.0,0.0
691,415.0,1.0,0.0
692,392.0,1.0,0.0
693,390.0,1.0,0.0
694,366.0,1.0,0.0
695,368.0,1.0,0.0
696,369.0,1.0,0.0
697,370.0,1.0,0.0
698,371.0,1.0,0.0
699,373.0,1.0,0.0
700,374.0,1.0,0.0
701,375.0,1.0,0.0
702,376.0,1.0,0.0
703,391.0,1.0,0.0
704,378.0,1.0,0.0
705,380.0,1.0,0.0
706,382.0,1.0,0.0
707,383.0,1.0,0.0
708,384.0,1.0,0.0
709,385.0,1.0,0.0
710,386.0,1.0,0.0
711,387.0,1.0,0.0
712,388.0,1.0,0.0
713,389.0,1.0,0.0
714,379.0,1.0,0.0
715,365.0,1.0,0.0
716,417.0,1.0,0.0
717,420.0,1.0,0.0
718,447.0,1.0,0.0
719,448.0,1.0,0.0
720,450.0,1.0,0.0
721,452.0,1.0,0.0
722,453.0,1.0,0.0
723,455.0,1.0,0.0
724,457.0,1.0,0.0
725,458.0,1.0,0.0
726,459.0,1.0,0.0
727,446.0,1.0,0.0
728,461.0,1.0,0.0
729,463.0,1.0,0.0
730,464.0,1.0,0.0
731,466.0,1.0,0.0
732,467.0,1.0,0.0
733,468.0,1.0,0.0
734,469.0,1.0,0.0
735,472.0,1.0,0.0
736,473.0,1.0,0.0
737,474.0,1.0,0.0
738,462.0,1.0,0.0
739,419.0,1.0,0.0
740,445.0,1.0,0.0
741,443.0,1.0,0.0
742,422.0,1.0,0.0
743,423.0,1.0,0.0
744,424.0,1.0,0.0
745,425.0,1.0,0.0
746,427.0,1.0,0.0
747,428.0,1.0,0.0
748,429.0,1.0,0.0
749,859.0,1.0,0.0
750,431.0,1.0,0.0
751,444.0,1.0,0.0
752,432.0,1.0,0.0
753,434.0,1.0,0.0
754,435.0,1.0,0.0
755,436.0,1.0,0.0
756,437.0,1.0,0.0
757,438.0,1.0,0.0
758,439.0,1.0,0.0
759,440.0,1.0,0.0
760,441.0,1.0,0.0
761,442.0,1.0,0.0
762,433.0,1.0,0.0
763,477.0,1.0,0.0
764,364.0,1.0,0.0
765,362.0,1.0,0.0
766,273.0,1.0,0.0
767,274.0,1.0,0.0
768,275.0,1.0,0.0
769,276.0,1.0,0.0
770,278.0,1.0,0.0
771,279.0,1.0,0.0
772,280.0,1.0,0.0
773,281.0,1.0,0.0
774,284.0,1.0,0.0
775,272.0,1.0,0.0
776,285.0,1.0,0.0
777,289.0,1.0,0.0
778,290.0,1.0,0.0
779,291.0,1.0,0.0
780,292.0,1.0,0.0
781,293.0,1.0,0.0
782,294.0,1.0,0.0
783,297.0,1.0,0.0
784,298.0,1.0,0.0
785,299.0,1.0,0.0
786,286.0,1.0,0.0
787,301.0,1.0,0.0
788,271.0,1.0,0.0
789,268.0,1.0,0.0
790,241.0,1.0,0.0
791,242.0,1.0,0.0
792,243.0,1.0,0.0
793,244.0,1.0,0.0
794,245.0,1.0,0.0
795,246.0,1.0,0.0
796,247.0,1.0,0.0
797,248.0,1.0,0.0
798,249.0,1.0,0.0
799,270.0,1.0,0.0
800,251.0,1.0,0.0
801,253.0,1.0,0.0
802,257.0,1.0,0.0
803,258.0,1.0,0.0
804,259.0,1.0,0.0
805,260.0,1.0,0.0
806,263.0,1.0,0.0
807,264.0,1.0,0.0
808,265.0,1.0,0.0
809,267.0,1.0,0.0
810,252.0,1.0,0.0
811,363.0,1.0,0.0
812,303.0,1.0,0.0
813,306.0,1.0,0.0
814,339.0,1.0,0.0
815,340.0,1.0,0.0
816,341.0,1.0,0.0
817,342.0,1.0,0.0
818,343.0,1.0,0.0
819,345.0,1.0,0.0
820,346.0,1.0,0.0
821,347.0,1.0,0.0
822,348.0,1.0,0.0
823,338.0,1.0,0.0
824,350.0,1.0,0.0
825,352.0,1.0,0.0
826,353.0,1.0,0.0
827,354.0,1.0,0.0
828,355.0,1.0,0.0
829,356.0,1.0,0.0
830,357.0,1.0,0.0
831,358.0,1.0,0.0
832,359.0,1.0,0.0
833,360.0,1.0,0.0
834,351.0,1.0,0.0
835,304.0,1.0,0.0
836,337.0,1.0,0.0
837,334.0,1.0,0.0
838,308.0,1.0,0.0
839,309.0,1.0,0.0
840,310.0,1.0,0.0
841,311.0,1.0,0.0
842,312.0,1.0,0.0
843,313.0,1.0,0.0
844,314.0,1.0,0.0
845,315.0,1.0,0.0
846,317.0,1.0,0.0
847,336.0,1.0,0.0
848,319.0,1.0,0.0
849,321.0,1.0,0.0
850,322.0,1.0,0.0
851,323.0,1.0,0.0
852,324.0,1.0,0.0
853,325.0,1.0,0.0
854,327.0,1.0,0.0
855,330.0,1.0,0.0
856,332.0,1.0,0.0
857,333.0,1.0,0.0
858,320.0,1.0,0.0
859,860.0,1.0,0.0
