ground.truth,label
nominal,0
nominal,0
nominal,0
nominal,0
nominal,0
nominal,0
nominal,0
nominal,0
nominal,0
nominal,0
nominal,0
nominal,0
nominal,0
nominal,0
nominal,0
nominal,0
nominal,0
nominal,0
nominal,0
nominal,0
nominal,0
nominal,0
nominal,0
nominal,0
nominal,0
nominal,0
nominal,0
nominal,0
nominal,0
nominal,0
anomaly,1
nominal,0
nominal,0
nominal,0
nominal,0
nominal,0
nominal,0
nominal,0
nominal,0
nominal,0
anomaly,1
nominal,0
nominal,0
nominal,0
nominal,0
nominal,0
anomaly,1
nominal,0
nominal,0
nominal,0
nominal,0
anomaly,1
nominal,0
nominal,0
nominal,0
nominal,0
anomaly,1
nominal,0
nominal,0
nominal,0
anomaly,2
nominal,0
nominal,0
anomaly,1
nominal,0
nominal,0
nominal,0
nominal,0
anomaly,8
nominal,0
nominal,0
nominal,0
nominal,0
nominal,0
nominal,0
nominal,0
nominal,0
nominal,0
nominal,0
nominal,0
nominal,0
nominal,0
nominal,0
nominal,0
nominal,0
nominal,0
nominal,0
nominal,0
nominal,0
nominal,0
nominal,0
nominal,0
nominal,0
nominal,0
nominal,0
nominal,0
nominal,0
nominal,0
nominal,0
anomaly,1
nominal,0
nominal,0
nominal,0
nominal,0
nominal,0
nominal,0
nominal,0
nominal,0
nominal,0
nominal,0
nominal,0
anomaly,1
nominal,0
anomaly,1
anomaly,1
anomaly,1
nominal,0
nominal,0
nominal,0
nominal,0
nominal,0
nominal,0
nominal,0
nominal,0
nominal,0
nominal,0
nominal,0
nominal,0
nominal,0
anomaly,1
nominal,0
nominal,0
nominal,0
anomaly,1
anomaly,1
nominal,0
nominal,0
nominal,0
nominal,0
nominal,0
nominal,0
nominal,0
nominal,0
nominal,0
nominal,0
nominal,0
nominal,0
nominal,0
nominal,0
nominal,0
nominal,0
nominal,0
nominal,0
nominal,0
nominal,0
nominal,0
anomaly,1
nominal,0
nominal,0
nominal,0
nominal,0
nominal,0
nominal,0
nominal,0
nominal,0
nominal,0
nominal,0
nominal,0
nominal,0
anomaly,1
nominal,0
nominal,0
nominal,0
anomaly,1
nominal,0
nominal,0
nominal,0
nominal,0
nominal,0
nominal,0
nominal,0
nominal,0
nominal,0
nominal,0
nominal,0
nominal,0
anomaly,2
nominal,0
nominal,0
nominal,0
nominal,0
nominal,0
nominal,0
nominal,0
nominal,0
nominal,0
nominal,0
nominal,0
nominal,0
anomaly,1
nominal,0
nominal,0
nominal,0
nominal,0
nominal,0
anomaly,1
nominal,0
nominal,0
anomaly,1
anomaly,1
nominal,0
nominal,0
nominal,0
nominal,0
nominal,0
nominal,0
nominal,0
anomaly,1
nominal,0
nominal,0
nominal,0
nominal,0
anomaly,1
nominal,0
nominal,0
nominal,0
anomaly,1
nominal,0
nominal,0
nominal,0
nominal,0
nominal,0
nominal,0
anomaly,1
nominal,0
nominal,0
nominal,0
nominal,0
nominal,0
anomaly,3
nominal,0
nominal,0
nominal,0
nominal,0
nominal,0
nominal,0
nominal,0
anomaly,1
nominal,0
nominal,0
nominal,0
nominal,0
anomaly,1
nominal,0
nominal,0
nominal,0
nominal,0
anomaly,1
nominal,0
nominal,0
nominal,0
anomaly,1
nominal,0
nominal,0
nominal,0
nominal,0
anomaly,1
nominal,0
nominal,0
nominal,0
nominal,0
nominal,0
anomaly,1
nominal,0
nominal,0
nominal,0
nominal,0
nominal,0
nominal,0
nominal,0
nominal,0
nominal,0
nominal,0
nominal,0
nominal,0
nominal,0
nominal,0
nominal,0
nominal,0
anomaly,1
nominal,0
anomaly,2
nominal,0
nominal,0
nominal,0
nominal,0
nominal,0
nominal,0
nominal,0
nominal,0
nominal,0
nominal,0
nominal,0
nominal,0
nominal,0
nominal,0
nominal,0
nominal,0
nominal,0
nominal,0
nominal,0
nominal,0
nominal,0
nominal,0
nominal,0
nominal,0
anomaly,1
anomaly,1
nominal,0
nominal,0
nominal,0
nominal,0
nominal,0
nominal,0
nominal,0
nominal,0
anomaly,1
nominal,0
nominal,0
anomaly,1
nominal,0
nominal,0
anomaly,1
nominal,0
nominal,0
nominal,0
nominal,0
anomaly,1
anomaly,1
nominal,0
nominal,0
nominal,0
nominal,0
anomaly,1
nominal,0
nominal,0
nominal,0
nominal,0
nominal,0
nominal,0
nominal,0
nominal,0
nominal,0
nominal,0
nominal,0
nominal,0
nominal,0
anomaly,2
nominal,0
nominal,0
nominal,0
nominal,0
nominal,0
nominal,0
nominal,0
nominal,0
nominal,0
nominal,0
nominal,0
nominal,0
nominal,0
nominal,0
nominal,0
nominal,0
nominal,0
anomaly,3
nominal,0
nominal,0
nominal,0
nominal,0
anomaly,1
nominal,0
nominal,0
nominal,0
nominal,0
nominal,0
nominal,0
nominal,0
nominal,0
nominal,0
nominal,0
nominal,0
nominal,0
nominal,0
nominal,0
nominal,0
nominal,0
nominal,0
nominal,0
nominal,0
nominal,0
nominal,0
nominal,0
nominal,0
nominal,0
nominal,0
nominal,0
nominal,0
nominal,0
nominal,0
nominal,0
nominal,0
nominal,0
anomaly,3
nominal,0
nominal,0
nominal,0
nominal,0
nominal,0
nominal,0
nominal,0
nominal,0
nominal,0
anomaly,3
nominal,0
nominal,0
nominal,0
nominal,0
nominal,0
nominal,0
nominal,0
nominal,0
nominal,0
anomaly,2
nominal,0
nominal,0
nominal,0
nominal,0
nominal,0
nominal,0
nominal,0
anomaly,1
nominal,0
nominal,0
nominal,0
anomaly,1
nominal,0
nominal,0
nominal,0
nominal,0
anomaly,1
nominal,0
nominal,0
nominal,0
nominal,0
anomaly,1
nominal,0
nominal,0
nominal,0
anomaly,2
nominal,0
nominal,0
nominal,0
nominal,0
nominal,0
anomaly,2
nominal,0
nominal,0
nominal,0
anomaly,1
nominal,0
nominal,0
nominal,0
nominal,0
nominal,0
anomaly,2
nominal,0
nominal,0
nominal,0
nominal,0
nominal,0
nominal,0
nominal,0
nominal,0
nominal,0
nominal,0
anomaly,1
nominal,0
nominal,0
nominal,0
nominal,0
nominal,0
nominal,0
nominal,0
nominal,0
anomaly,1
nominal,0
nominal,0
anomaly,1
nominal,0
nominal,0
nominal,0
nominal,0
nominal,0
nominal,0
nominal,0
nominal,0
nominal,0
nominal,0
nominal,0
nominal,0
nominal,0
nominal,0
nominal,0
anomaly,1
nominal,0
anomaly,2
nominal,0
nominal,0
anomaly,1
nominal,0
anomaly,1
nominal,0
nominal,0
nominal,0
nominal,0
nominal,0
anomaly,1
anomaly,1
nominal,0
nominal,0
nominal,0
nominal,0
nominal,0
nominal,0
nominal,0
nominal,0
nominal,0
nominal,0
nominal,0
nominal,0
anomaly,1
nominal,0
anomaly,1
nominal,0
anomaly,1
nominal,0
nominal,0
nominal,0
nominal,0
nominal,0
nominal,0
anomaly,4
nominal,0
nominal,0
nominal,0
anomaly,2
anomaly,1
nominal,0
nominal,0
nominal,0
anomaly,1
nominal,0
nominal,0
nominal,0
nominal,0
nominal,0
nominal,0
nominal,0
nominal,0
nominal,0
nominal,0
nominal,0
nominal,0
nominal,0
nominal,0
anomaly,1
anomaly,1
nominal,0
nominal,0
nominal,0
nominal,0
nominal,0
nominal,0
nominal,0
nominal,0
nominal,0
anomaly,1
nominal,0
anomaly,1
nominal,0
nominal,0
nominal,0
nominal,0
nominal,0
anomaly,1
nominal,0
nominal,0
nominal,0
anomaly,1
anomaly,1
nominal,0
anomaly,1
nominal,0
nominal,0
nominal,0
nominal,0
anomaly,1
nominal,0
nominal,0
nominal,0
nominal,0
anomaly,1
nominal,0
nominal,0
nominal,0
nominal,0
nominal,0
nominal,0
anomaly,1
nominal,0
nominal,0
nominal,0
nominal,0
nominal,0
nominal,0
nominal,0
anomaly,2
nominal,0
nominal,0
nominal,0
nominal,0
nominal,0
nominal,0
nominal,0
anomaly,1
nominal,0
nominal,0
nominal,0
nominal,0
nominal,0
nominal,0
nominal,0
anomaly,1
nominal,0
nominal,0
nominal,0
nominal,0
nominal,0
nominal,0
nominal,0
nominal,0
anomaly,1
anomaly,1
nominal,0
nominal,0
nominal,0
nominal,0
nominal,0
nominal,0
nominal,0
nominal,0
nominal,0
nominal,0
nominal,0
nominal,0
nominal,0
nominal,0
nominal,0
anomaly,1
nominal,0
nominal,0
nominal,0
nominal,0
nominal,0
nominal,0
nominal,0
nominal,0
nominal,0
nominal,0
nominal,0
nominal,0
nominal,0
nominal,0
nominal,0
nominal,0
nominal,0
nominal,0
nominal,0
anomaly,1
nominal,0
nominal,0
nominal,0
nominal,0
nominal,0
nominal,0
nominal,0
anomaly,1
nominal,0
nominal,0
nominal,0
nominal,0
nominal,0
nominal,0
nominal,0
nominal,0
anomaly,2
nominal,0
nominal,0
nominal,0
nominal,0
nominal,0
nominal,0
nominal,0
nominal,0
nominal,0
nominal,0
nominal,0
nominal,0
nominal,0
nominal,0
nominal,0
nominal,0
nominal,0
nominal,0
nominal,0
anomaly,12
nominal,0
nominal,0
nominal,0
anomaly,1
nominal,0
nominal,0
nominal,0
nominal,0
nominal,0
nominal,0
nominal,0
nominal,0
nominal,0
nominal,0
nominal,0
nominal,0
nominal,0
nominal,0
nominal,0
nominal,0
nominal,0
nominal,0
nominal,0
nominal,0
nominal,0
nominal,0
nominal,0
nominal,0
nominal,0
nominal,0
nominal,0
nominal,0
nominal,0
nominal,0
nominal,0
nominal,0
nominal,0
nominal,0
nominal,0
anomaly,1
nominal,0
nominal,0
anomaly,1
nominal,0
nominal,0
nominal,0
nominal,0
nominal,0
nominal,0
nominal,0
nominal,0
nominal,0
nominal,0
nominal,0
nominal,0
nominal,0
nominal,0
nominal,0
anomaly,1
nominal,0
nominal,0
nominal,0
nominal,0
anomaly,1
anomaly,1
anomaly,2
nominal,0
nominal,0
nominal,0
nominal,0
nominal,0
nominal,0
nominal,0
nominal,0
nominal,0
nominal,0
nominal,0
nominal,0
nominal,0
nominal,0
nominal,0
nominal,0
nominal,0
nominal,0
anomaly,2
nominal,0
nominal,0
nominal,0
nominal,0
nominal,0
nominal,0
nominal,0
anomaly,1
nominal,0
anomaly,2
nominal,0
anomaly,1
nominal,0
nominal,0
nominal,0
nominal,0
nominal,0
nominal,0
anomaly,2
nominal,0
anomaly,1
nominal,0
nominal,0
nominal,0
anomaly,2
nominal,0
nominal,0
anomaly,1
nominal,0
nominal,0
nominal,0
nominal,0
anomaly,2
anomaly,1
nominal,0
nominal,0
nominal,0
nominal,0
nominal,0
nominal,0
nominal,0
nominal,0
nominal,0
nominal,0
anomaly,1
nominal,0
nominal,0
nominal,0
nominal,0
nominal,0
nominal,0
nominal,0
nominal,0
nominal,0
nominal,0
nominal,0
anomaly,1
nominal,0
nominal,0
anomaly,1
nominal,0
nominal,0
nominal,0
nominal,0
anomaly,1
anomaly,4
nominal,0
nominal,0
nominal,0
nominal,0
nominal,0
nominal,0
nominal,0
nominal,0
nominal,0
nominal,0
nominal,0
nominal,0
nominal,0
nominal,0
nominal,0
nominal,0
anomaly,2
nominal,0
nominal,0
anomaly,1
nominal,0
nominal,0
nominal,0
nominal,0
nominal,0
nominal,0
nominal,0
nominal,0
nominal,0
nominal,0
nominal,0
nominal,0
nominal,0
nominal,0
nominal,0
nominal,0
anomaly,2
nominal,0
nominal,0
nominal,0
nominal,0
nominal,0
nominal,0
nominal,0
nominal,0
nominal,0
nominal,0
nominal,0
nominal,0
nominal,0
anomaly,2
nominal,0
nominal,0
nominal,0
nominal,0
nominal,0
nominal,0
anomaly,1
nominal,0
nominal,0
nominal,0
nominal,0
nominal,0
nominal,0
nominal,0
nominal,0
nominal,0
nominal,0
nominal,0
nominal,0
nominal,0
nominal,0
nominal,0
anomaly,2
nominal,0
anomaly,1
nominal,0
anomaly,2
anomaly,1
nominal,0
nominal,0
nominal,0
nominal,0
nominal,0
nominal,0
nominal,0
nominal,0
nominal,0
nominal,0
nominal,0
nominal,0
nominal,0
nominal,0
nominal,0
nominal,0
anomaly,1
nominal,0
nominal,0
nominal,0
nominal,0
nominal,0
anomaly,1
nominal,0
nominal,0
nominal,0
anomaly,1
nominal,0
anomaly,1
nominal,0
nominal,0
nominal,0
nominal,0
nominal,0
nominal,0
nominal,0
nominal,0
nominal,0
anomaly,1
nominal,0
anomaly,1
nominal,0
anomaly,1
nominal,0
anomaly,1
nominal,0
nominal,0
nominal,0
anomaly,1
nominal,0
nominal,0
nominal,0
nominal,0
nominal,0
nominal,0
anomaly,2
nominal,0
anomaly,1
nominal,0
nominal,0
nominal,0
nominal,0
nominal,0
nominal,0
nominal,0
nominal,0
nominal,0
nominal,0
nominal,0
nominal,0
nominal,0
nominal,0
anomaly,1
nominal,0
anomaly,1
nominal,0
nominal,0
nominal,0
nominal,0
nominal,0
nominal,0
nominal,0
nominal,0
nominal,0
nominal,0
nominal,0
nominal,0
anomaly,2
nominal,0
nominal,0
nominal,0
nominal,0
nominal,0
nominal,0
nominal,0
nominal,0
nominal,0
nominal,0
nominal,0
nominal,0
nominal,0
nominal,0
nominal,0
nominal,0
nominal,0
nominal,0
nominal,0
nominal,0
nominal,0
nominal,0
nominal,0
nominal,0
nominal,0
nominal,0
nominal,0
nominal,0
nominal,0
nominal,0
nominal,0
nominal,0
anomaly,1
nominal,0
nominal,0
nominal,0
nominal,0
nominal,0
nominal,0
nominal,0
nominal,0
nominal,0
nominal,0
nominal,0
nominal,0
nominal,0
nominal,0
nominal,0
nominal,0
nominal,0
nominal,0
nominal,0
nominal,0
nominal,0
nominal,0
nominal,0
nominal,0
nominal,0
nominal,0
nominal,0
nominal,0
nominal,0
anomaly,1
nominal,0
nominal,0
nominal,0
nominal,0
nominal,0
nominal,0
nominal,0
nominal,0
nominal,0
nominal,0
nominal,0
nominal,0
nominal,0
nominal,0
nominal,0
nominal,0
nominal,0
nominal,0
nominal,0
anomaly,3
nominal,0
anomaly,1
nominal,0
nominal,0
nominal,0
nominal,0
nominal,0
nominal,0
nominal,0
nominal,0
nominal,0
anomaly,4
nominal,0
anomaly,1
nominal,0
nominal,0
nominal,0
nominal,0
nominal,0
nominal,0
anomaly,2
nominal,0
nominal,0
nominal,0
nominal,0
nominal,0
nominal,0
nominal,0
nominal,0
nominal,0
anomaly,1
nominal,0
anomaly,1
nominal,0
nominal,0
nominal,0
nominal,0
nominal,0
nominal,0
nominal,0
nominal,0
nominal,0
nominal,0
nominal,0
nominal,0
nominal,0
anomaly,1
nominal,0
nominal,0
nominal,0
nominal,0
nominal,0
nominal,0
nominal,0
nominal,0
nominal,0
nominal,0
anomaly,1
nominal,0
nominal,0
nominal,0
nominal,0
nominal,0
nominal,0
nominal,0
nominal,0
nominal,0
nominal,0
nominal,0
nominal,0
anomaly,1
nominal,0
nominal,0
nominal,0
nominal,0
nominal,0
anomaly,1
nominal,0
anomaly,1
nominal,0
nominal,0
nominal,0
nominal,0
nominal,0
nominal,0
nominal,0
nominal,0
nominal,0
nominal,0
nominal,0
nominal,0
anomaly,1
nominal,0
nominal,0
nominal,0
nominal,0
nominal,0
nominal,0
nominal,0
nominal,0
nominal,0
nominal,0
nominal,0
nominal,0
nominal,0
nominal,0
nominal,0
nominal,0
nominal,0
nominal,0
nominal,0
nominal,0
nominal,0
nominal,0
nominal,0
anomaly,1
nominal,0
nominal,0
nominal,0
nominal,0
nominal,0
nominal,0
nominal,0
nominal,0
nominal,0
nominal,0
nominal,0
nominal,0
anomaly,1
nominal,0
nominal,0
nominal,0
nominal,0
nominal,0
anomaly,1
nominal,0
nominal,0
nominal,0
nominal,0
nominal,0
anomaly,1
anomaly,1
nominal,0
nominal,0
nominal,0
nominal,0
nominal,0
nominal,0
nominal,0
nominal,0
nominal,0
nominal,0
nominal,0
nominal,0
nominal,0
anomaly,1
nominal,0
nominal,0
nominal,0
anomaly,1
anomaly,2
nominal,0
nominal,0
nominal,0
nominal,0
nominal,0
nominal,0
nominal,0
nominal,0
nominal,0
nominal,0
nominal,0
nominal,0
nominal,0
nominal,0
nominal,0
nominal,0
nominal,0
nominal,0
nominal,0
nominal,0
nominal,0
nominal,0
nominal,0
nominal,0
anomaly,1
nominal,0
nominal,0
nominal,0
nominal,0
nominal,0
nominal,0
nominal,0
nominal,0
nominal,0
nominal,0
nominal,0
nominal,0
nominal,0
nominal,0
anomaly,1
nominal,0
nominal,0
anomaly,1
anomaly,2
nominal,0
nominal,0
anomaly,1
nominal,0
nominal,0
nominal,0
nominal,0
nominal,0
nominal,0
anomaly,1
nominal,0
nominal,0
nominal,0
nominal,0
nominal,0
nominal,0
nominal,0
nominal,0
nominal,0
anomaly,1
nominal,0
nominal,0
nominal,0
nominal,0
nominal,0
nominal,0
nominal,0
nominal,0
anomaly,1
nominal,0
nominal,0
nominal,0
anomaly,2
anomaly,1
nominal,0
nominal,0
nominal,0
nominal,0
nominal,0
nominal,0
nominal,0
nominal,0
nominal,0
nominal,0
anomaly,1
anomaly,1
anomaly,1
anomaly,1
nominal,0
nominal,0
nominal,0
nominal,0
nominal,0
nominal,0
anomaly,2
nominal,0
nominal,0
nominal,0
nominal,0
nominal,0
nominal,0
nominal,0
anomaly,2
nominal,0
nominal,0
nominal,0
nominal,0
nominal,0
nominal,0
nominal,0
nominal,0
nominal,0
nominal,0
nominal,0
nominal,0
nominal,0
anomaly,1
nominal,0
anomaly,3
anomaly,1
nominal,0
nominal,0
nominal,0
nominal,0
nominal,0
nominal,0
nominal,0
nominal,0
nominal,0
nominal,0
nominal,0
nominal,0
nominal,0
nominal,0
nominal,0
nominal,0
nominal,0
nominal,0
nominal,0
nominal,0
nominal,0
nominal,0
nominal,0
nominal,0
nominal,0
nominal,0
nominal,0
nominal,0
anomaly,1
anomaly,1
nominal,0
nominal,0
nominal,0
nominal,0
nominal,0
nominal,0
nominal,0
nominal,0
nominal,0
nominal,0
nominal,0
nominal,0
nominal,0
nominal,0
nominal,0
nominal,0
nominal,0
anomaly,1
anomaly,4
nominal,0
nominal,0
nominal,0
anomaly,1
anomaly,2
nominal,0
anomaly,1
nominal,0
nominal,0
anomaly,1
nominal,0
nominal,0
nominal,0
nominal,0
nominal,0
anomaly,3
nominal,0
nominal,0
nominal,0
nominal,0
anomaly,1
nominal,0
nominal,0
nominal,0
nominal,0
nominal,0
nominal,0
anomaly,2
anomaly,1
nominal,0
nominal,0
anomaly,1
anomaly,1
nominal,0
nominal,0
nominal,0
anomaly,1
nominal,0
nominal,0
nominal,0
nominal,0
nominal,0
anomaly,1
nominal,0
nominal,0
nominal,0
nominal,0
nominal,0
nominal,0
nominal,0
nominal,0
nominal,0
nominal,0
anomaly,1
anomaly,1
nominal,0
nominal,0
nominal,0
nominal,0
nominal,0
nominal,0
nominal,0
nominal,0
nominal,0
nominal,0
nominal,0
nominal,0
nominal,0
nominal,0
nominal,0
nominal,0
nominal,0
nominal,0
nominal,0
nominal,0
nominal,0
nominal,0
nominal,0
nominal,0
nominal,0
anomaly,1
nominal,0
nominal,0
nominal,0
nominal,0
nominal,0
nominal,0
nominal,0
nominal,0
nominal,0
nominal,0
nominal,0
nominal,0
nominal,0
anomaly,1
nominal,0
nominal,0
nominal,0
nominal,0
anomaly,1
nominal,0
nominal,0
nominal,0
anomaly,1
nominal,0
nominal,0
nominal,0
nominal,0
nominal,0
nominal,0
nominal,0
nominal,0
anomaly,3
nominal,0
anomaly,3
nominal,0
nominal,0
nominal,0
nominal,0
nominal,0
nominal,0
nominal,0
nominal,0
nominal,0
anomaly,3
nominal,0
nominal,0
nominal,0
nominal,0
nominal,0
nominal,0
nominal,0
nominal,0
nominal,0
nominal,0
nominal,0
nominal,0
nominal,0
nominal,0
nominal,0
nominal,0
nominal,0
nominal,0
nominal,0
nominal,0
nominal,0
nominal,0
nominal,0
nominal,0
nominal,0
nominal,0
nominal,0
nominal,0
nominal,0
nominal,0
nominal,0
nominal,0
nominal,0
nominal,0
nominal,0
nominal,0
nominal,0
nominal,0
nominal,0
nominal,0
nominal,0
nominal,0
anomaly,1
anomaly,3
nominal,0
anomaly,1
nominal,0
nominal,0
nominal,0
nominal,0
nominal,0
nominal,0
nominal,0
nominal,0
nominal,0
nominal,0
nominal,0
nominal,0
anomaly,2
nominal,0
nominal,0
nominal,0
anomaly,1
nominal,0
nominal,0
nominal,0
nominal,0
nominal,0
anomaly,2
nominal,0
nominal,0
nominal,0
nominal,0
nominal,0
nominal,0
nominal,0
nominal,0
nominal,0
nominal,0
anomaly,1
nominal,0
anomaly,2
nominal,0
anomaly,1
nominal,0
nominal,0
nominal,0
nominal,0
anomaly,3
anomaly,1
nominal,0
nominal,0
nominal,0
anomaly,1
nominal,0
anomaly,2
nominal,0
nominal,0
nominal,0
nominal,0
nominal,0
nominal,0
nominal,0
nominal,0
nominal,0
nominal,0
nominal,0
nominal,0
nominal,0
nominal,0
anomaly,1
nominal,0
nominal,0
anomaly,1
nominal,0
nominal,0
nominal,0
nominal,0
nominal,0
nominal,0
nominal,0
nominal,0
nominal,0
nominal,0
nominal,0
nominal,0
nominal,0
anomaly,2
nominal,0
nominal,0
nominal,0
nominal,0
nominal,0
nominal,0
nominal,0
nominal,0
nominal,0
nominal,0
anomaly,1
nominal,0
nominal,0
nominal,0
nominal,0
nominal,0
nominal,0
anomaly,1
nominal,0
nominal,0
nominal,0
nominal,0
nominal,0
nominal,0
nominal,0
nominal,0
nominal,0
nominal,0
nominal,0
nominal,0
nominal,0
nominal,0
nominal,0
nominal,0
nominal,0
nominal,0
nominal,0
nominal,0
nominal,0
nominal,0
nominal,0
anomaly,1
nominal,0
nominal,0
anomaly,2
nominal,0
nominal,0
nominal,0
nominal,0
nominal,0
nominal,0
nominal,0
nominal,0
nominal,0
nominal,0
nominal,0
nominal,0
nominal,0
nominal,0
nominal,0
nominal,0
anomaly,2
nominal,0
nominal,0
nominal,0
nominal,0
nominal,0
nominal,0
nominal,0
anomaly,2
nominal,0
anomaly,1
nominal,0
anomaly,1
nominal,0
nominal,0
nominal,0
nominal,0
nominal,0
nominal,0
anomaly,1
nominal,0
nominal,0
nominal,0
anomaly,1
nominal,0
nominal,0
nominal,0
nominal,0
nominal,0
nominal,0
anomaly,1
nominal,0
anomaly,1
nominal,0
nominal,0
nominal,0
nominal,0
nominal,0
nominal,0
nominal,0
nominal,0
nominal,0
nominal,0
anomaly,1
nominal,0
nominal,0
nominal,0
nominal,0
nominal,0
nominal,0
anomaly,1
nominal,0
nominal,0
nominal,0
nominal,0
anomaly,1
nominal,0
nominal,0
anomaly,1
anomaly,1
nominal,0
nominal,0
nominal,0
nominal,0
nominal,0
anomaly,1
nominal,0
nominal,0
nominal,0
nominal,0
nominal,0
nominal,0
nominal,0
nominal,0
anomaly,1
nominal,0
nominal,0
nominal,0
nominal,0
anomaly,1
nominal,0
nominal,0
nominal,0
anomaly,1
nominal,0
nominal,0
