,idx,nominal,anomaly
0,367.0,0.159363,0.840637
1,266.0,0.195219,0.804781
2,413.0,0.199203,0.800797
3,348.0,0.199203,0.800797
4,20.0,0.219124,0.780876
5,257.0,0.227092,0.772908
6,87.0,0.247012,0.752988
7,443.0,0.247012,0.752988
8,584.0,0.247012,0.752988
9,166.0,0.258964,0.741036
10,60.0,0.262948,0.737052
11,312.0,0.266932,0.733068
12,56.0,0.270916,0.729084
13,63.0,0.270916,0.729084
14,114.0,0.2749,0.7251
15,115.0,0.302789,0.697211
16,503.0,0.310757,0.689243
17,75.0,0.310757,0.689243
18,298.0,0.314741,0.685259
19,620.0,0.314741,0.685259
20,211.0,0.318725,0.681275
21,143.0,0.318725,0.681275
22,491.0,0.318725,0.681275
23,601.0,0.322709,0.677291
24,396.0,0.322709,0.677291
25,184.0,0.322709,0.677291
26,157.0,0.326693,0.673307
27,210.0,0.330677,0.669323
28,177.0,0.342629,0.657371
29,373.0,0.342629,0.657371
30,394.0,0.342629,0.657371
31,203.0,0.346614,0.653386
32,452.0,0.358566,0.641434
33,483.0,0.358566,0.641434
34,52.0,0.36255,0.63745
35,332.0,0.370518,0.629482
36,256.0,0.374502,0.625498
37,397.0,0.378486,0.621514
38,167.0,0.378486,0.621514
39,74.0,0.378486,0.621514
40,134.0,0.38247,0.61753
41,83.0,0.386454,0.613546
42,576.0,0.386454,0.613546
43,581.0,0.390438,0.609562
44,473.0,0.390438,0.609562
45,600.0,0.394422,0.605578
46,447.0,0.394422,0.605578
47,392.0,0.398406,0.601594
48,65.0,0.398406,0.601594
49,106.0,0.40239,0.59761
50,574.0,0.40239,0.59761
51,181.0,0.40239,0.59761
52,606.0,0.40239,0.59761
53,594.0,0.406375,0.593625
54,500.0,0.410359,0.589641
55,538.0,0.414343,0.585657
56,545.0,0.422311,0.577689
57,441.0,0.422311,0.577689
58,621.0,0.430279,0.569721
59,451.0,0.434263,0.565737
60,314.0,0.446215,0.553785
61,588.0,0.446215,0.553785
62,553.0,0.446215,0.553785
63,369.0,0.450199,0.549801
64,328.0,0.458167,0.541833
65,40.0,0.458167,0.541833
66,91.0,0.466135,0.533865
67,519.0,0.474104,0.525896
68,27.0,0.474104,0.525896
69,401.0,0.474104,0.525896
70,214.0,0.480744,0.519256
71,320.0,0.482072,0.517928
72,304.0,0.486056,0.513944
73,200.0,0.49004,0.50996
74,357.0,0.490704,0.509296
75,612.0,0.498008,0.501992
76,481.0,0.501328,0.498672
77,341.0,0.501992,0.498008
78,219.0,0.501992,0.498008
79,512.0,0.501992,0.498008
80,426.0,0.502656,0.497344
81,62.0,0.505976,0.494024
82,305.0,0.50996,0.49004
83,186.0,0.511952,0.488048
84,569.0,0.513944,0.486056
85,406.0,0.513944,0.486056
86,423.0,0.517928,0.482072
87,340.0,0.521912,0.478088
88,428.0,0.521912,0.478088
89,627.0,0.521912,0.478088
90,117.0,0.525896,0.474104
91,368.0,0.52988,0.47012
92,400.0,0.52988,0.47012
93,88.0,0.534529,0.465471
94,253.0,0.537849,0.462151
95,425.0,0.537849,0.462151
96,480.0,0.541833,0.458167
97,561.0,0.541833,0.458167
98,615.0,0.542686,0.457314
99,302.0,0.542686,0.457314
100,449.0,0.545817,0.454183
101,387.0,0.549801,0.450199
102,370.0,0.553785,0.446215
103,527.0,0.557769,0.442231
104,589.0,0.559761,0.440239
105,608.0,0.565471,0.434529
106,147.0,0.569721,0.430279
107,326.0,0.573705,0.426295
108,520.0,0.573705,0.426295
109,532.0,0.573705,0.426295
110,50.0,0.573705,0.426295
111,522.0,0.577689,0.422311
112,457.0,0.577689,0.422311
113,3.0,0.577689,0.422311
114,464.0,0.577689,0.422311
115,537.0,0.580345,0.419655
116,171.0,0.581673,0.418327
117,152.0,0.583665,0.416335
118,390.0,0.584329,0.415671
119,376.0,0.585657,0.414343
120,142.0,0.585657,0.414343
121,46.0,0.587649,0.412351
122,26.0,0.587649,0.412351
123,346.0,0.589641,0.410359
124,417.0,0.591633,0.408367
125,61.0,0.593625,0.406375
126,39.0,0.593625,0.406375
127,318.0,0.593625,0.406375
128,572.0,0.59429,0.40571
129,193.0,0.59761,0.40239
130,55.0,0.59761,0.40239
131,226.0,0.59761,0.40239
132,499.0,0.601594,0.398406
133,616.0,0.601594,0.398406
134,212.0,0.60425,0.39575
135,497.0,0.605578,0.394422
136,227.0,0.60757,0.39243
137,139.0,0.608765,0.391235
138,159.0,0.609419,0.390581
139,372.0,0.609562,0.390438
140,38.0,0.609562,0.390438
141,475.0,0.609562,0.390438
142,567.0,0.611554,0.388446
143,161.0,0.611726,0.388274
144,430.0,0.613546,0.386454
145,53.0,0.613546,0.386454
146,287.0,0.613546,0.386454
147,216.0,0.613546,0.386454
148,58.0,0.613546,0.386454
149,556.0,0.61753,0.38247
150,105.0,0.61753,0.38247
151,109.0,0.61753,0.38247
152,362.0,0.61753,0.38247
153,431.0,0.62417,0.37583
154,191.0,0.629482,0.370518
155,605.0,0.629482,0.370518
156,141.0,0.629482,0.370518
157,399.0,0.630146,0.369854
158,249.0,0.631474,0.368526
159,294.0,0.635458,0.364542
160,402.0,0.638114,0.361886
161,286.0,0.639442,0.360558
162,578.0,0.641434,0.358566
163,516.0,0.645418,0.354582
164,461.0,0.645418,0.354582
165,339.0,0.650455,0.349545
166,15.0,0.650455,0.349545
167,316.0,0.65166,0.34834
168,315.0,0.653386,0.346614
169,229.0,0.656042,0.343958
170,539.0,0.658035,0.341965
171,102.0,0.659894,0.340106
172,282.0,0.661355,0.338645
173,54.0,0.664985,0.335015
174,275.0,0.665339,0.334661
175,69.0,0.665339,0.334661
176,531.0,0.665339,0.334661
177,358.0,0.669323,0.330677
178,542.0,0.673307,0.326693
179,19.0,0.673307,0.326693
180,467.0,0.673307,0.326693
181,185.0,0.673971,0.326029
182,345.0,0.676627,0.323373
183,515.0,0.677291,0.322709
184,353.0,0.677291,0.322709
185,614.0,0.678619,0.321381
186,151.0,0.681275,0.318725
187,250.0,0.686587,0.313413
188,575.0,0.686587,0.313413
189,427.0,0.687251,0.312749
190,416.0,0.68869,0.31131
191,48.0,0.692563,0.307437
192,450.0,0.693227,0.306773
193,489.0,0.693227,0.306773
194,97.0,0.693227,0.306773
195,57.0,0.697211,0.302789
196,440.0,0.697211,0.302789
197,421.0,0.697211,0.302789
198,228.0,0.697211,0.302789
199,241.0,0.697211,0.302789
200,549.0,0.697211,0.302789
201,496.0,0.697211,0.302789
202,322.0,0.697211,0.302789
203,381.0,0.697211,0.302789
204,560.0,0.697211,0.302789
205,140.0,0.701195,0.298805
206,454.0,0.703386,0.296614
207,437.0,0.705179,0.294821
208,471.0,0.705843,0.294157
209,517.0,0.706507,0.293493
210,112.0,0.707238,0.292762
211,444.0,0.709163,0.290837
212,379.0,0.709163,0.290837
213,530.0,0.710226,0.289774
214,403.0,0.710491,0.289509
215,245.0,0.710491,0.289509
216,80.0,0.712483,0.287517
217,596.0,0.713147,0.286853
218,424.0,0.714475,0.285525
219,89.0,0.717131,0.282869
220,325.0,0.717131,0.282869
221,164.0,0.719788,0.280212
222,192.0,0.721116,0.278884
223,313.0,0.722178,0.277822
224,308.0,0.7251,0.2749
225,541.0,0.7251,0.2749
226,182.0,0.726361,0.273639
227,309.0,0.726361,0.273639
228,239.0,0.727025,0.272975
229,609.0,0.729084,0.270916
230,82.0,0.730412,0.269588
231,422.0,0.733068,0.266932
232,179.0,0.734064,0.265936
233,208.0,0.734064,0.265936
234,355.0,0.736255,0.263745
235,543.0,0.737052,0.262948
236,585.0,0.73838,0.26162
237,563.0,0.73957,0.26043
238,25.0,0.741036,0.258964
239,448.0,0.741036,0.258964
240,71.0,0.744356,0.255644
241,562.0,0.74502,0.25498
242,552.0,0.74502,0.25498
243,276.0,0.745883,0.254117
244,352.0,0.749004,0.250996
245,446.0,0.749004,0.250996
246,570.0,0.749004,0.250996
247,68.0,0.750664,0.249336
248,281.0,0.751726,0.248274
249,382.0,0.756972,0.243028
250,125.0,0.756972,0.243028
251,410.0,0.758964,0.241036
252,278.0,0.758964,0.241036
253,493.0,0.75923,0.24077
254,244.0,0.760819,0.239181
255,419.0,0.760956,0.239044
256,359.0,0.760956,0.239044
257,624.0,0.760956,0.239044
258,629.0,0.762948,0.237052
259,33.0,0.764807,0.235193
260,1.0,0.76494,0.23506
261,252.0,0.76494,0.23506
262,127.0,0.766799,0.233201
263,566.0,0.768924,0.231076
264,260.0,0.770916,0.229084
265,36.0,0.770916,0.229084
266,323.0,0.772908,0.227092
267,555.0,0.772908,0.227092
268,490.0,0.77463,0.22537
269,415.0,0.774834,0.225166
270,195.0,0.7749,0.2251
271,8.0,0.775564,0.224436
272,99.0,0.776428,0.223572
273,324.0,0.776892,0.223108
274,110.0,0.778884,0.221116
275,180.0,0.779548,0.220452
276,564.0,0.780844,0.219156
277,577.0,0.780876,0.219124
278,96.0,0.780876,0.219124
279,90.0,0.780876,0.219124
280,591.0,0.782869,0.217131
281,613.0,0.782869,0.217131
282,207.0,0.787517,0.212483
283,354.0,0.788845,0.211155
284,506.0,0.788845,0.211155
285,119.0,0.788845,0.211155
286,251.0,0.792165,0.207835
287,198.0,0.792165,0.207835
288,16.0,0.792165,0.207835
289,579.0,0.792829,0.207171
290,557.0,0.792829,0.207171
291,100.0,0.792829,0.207171
292,188.0,0.792829,0.207171
293,526.0,0.792829,0.207171
294,232.0,0.794821,0.205179
295,505.0,0.795945,0.204055
296,435.0,0.795945,0.204055
297,218.0,0.79668,0.20332
298,146.0,0.79668,0.20332
299,12.0,0.796813,0.203187
300,144.0,0.797871,0.202129
301,199.0,0.800797,0.199203
302,272.0,0.800797,0.199203
303,299.0,0.800797,0.199203
304,568.0,0.803984,0.196016
305,548.0,0.804117,0.195883
306,442.0,0.805445,0.194555
307,603.0,0.810093,0.189907
308,477.0,0.810093,0.189907
309,498.0,0.812749,0.187251
310,595.0,0.812749,0.187251
311,285.0,0.813643,0.186357
312,523.0,0.813643,0.186357
313,262.0,0.814741,0.185259
314,265.0,0.815595,0.184405
315,513.0,0.816733,0.183267
316,602.0,0.817862,0.182138
317,248.0,0.817862,0.182138
318,98.0,0.819124,0.180876
319,466.0,0.820717,0.179283
320,486.0,0.820717,0.179283
321,158.0,0.820717,0.179283
322,571.0,0.823904,0.176096
323,479.0,0.826693,0.173307
324,277.0,0.826693,0.173307
325,243.0,0.827888,0.172112
326,321.0,0.828685,0.171315
327,453.0,0.832669,0.167331
328,204.0,0.832669,0.167331
329,168.0,0.832869,0.167131
330,535.0,0.836653,0.163347
331,374.0,0.838645,0.161355
332,470.0,0.838645,0.161355
333,162.0,0.840637,0.159363
334,623.0,0.840637,0.159363
335,628.0,0.841833,0.158167
336,197.0,0.842456,0.157544
337,261.0,0.842456,0.157544
338,474.0,0.844622,0.155378
339,18.0,0.84595,0.15405
340,514.0,0.849934,0.150066
341,136.0,0.85259,0.14741
342,625.0,0.85259,0.14741
343,42.0,0.859761,0.140239
344,132.0,0.860558,0.139442
345,78.0,0.861018,0.138982
346,409.0,0.861018,0.138982
347,73.0,0.861018,0.138982
348,488.0,0.861018,0.138982
349,593.0,0.861421,0.138579
350,224.0,0.86255,0.13745
351,206.0,0.863546,0.136454
352,385.0,0.864267,0.135733
353,92.0,0.867198,0.132802
354,160.0,0.868526,0.131474
355,540.0,0.868526,0.131474
356,233.0,0.869057,0.130943
357,84.0,0.874369,0.125631
358,293.0,0.874676,0.125324
359,126.0,0.874768,0.125232
360,360.0,0.877357,0.122643
361,242.0,0.880478,0.119522
362,163.0,0.881735,0.118265
363,111.0,0.881735,0.118265
364,487.0,0.881735,0.118265
365,429.0,0.883333,0.116667
366,43.0,0.886321,0.113679
367,246.0,0.888446,0.111554
368,418.0,0.89243,0.10757
369,343.0,0.89243,0.10757
370,271.0,0.89243,0.10757
371,45.0,0.89243,0.10757
372,236.0,0.89243,0.10757
373,31.0,0.894847,0.105153
374,187.0,0.895286,0.104714
375,234.0,0.89926,0.10074
376,306.0,0.908367,0.091633
377,478.0,0.912351,0.087649
378,221.0,0.913214,0.086786
379,255.0,0.914343,0.085657
380,148.0,0.914343,0.085657
381,472.0,0.914343,0.085657
382,436.0,0.915206,0.084794
383,223.0,0.915206,0.084794
384,565.0,0.916335,0.083665
385,79.0,0.920319,0.079681
386,365.0,0.920319,0.079681
387,349.0,0.924303,0.075697
388,196.0,0.928287,0.071713
389,463.0,0.928287,0.071713
390,118.0,0.931474,0.068526
391,377.0,0.931474,0.068526
392,439.0,0.933275,0.066725
393,405.0,0.934927,0.065073
394,599.0,0.934927,0.065073
395,393.0,0.937695,0.062305
396,366.0,0.945551,0.054449
397,289.0,0.948539,0.051461
398,29.0,0.956175,0.043825
399,215.0,0.956175,0.043825
400,130.0,0.956743,0.043257
401,107.0,0.958784,0.041216
402,482.0,0.958784,0.041216
403,22.0,0.959669,0.040331
404,225.0,0.960159,0.039841
405,175.0,0.961417,0.038583
406,528.0,0.961417,0.038583
407,617.0,0.961417,0.038583
408,384.0,0.965569,0.034431
409,101.0,0.966135,0.033865
410,300.0,0.966932,0.033068
411,459.0,0.968695,0.031305
412,511.0,0.968695,0.031305
413,76.0,0.968739,0.031261
414,113.0,0.970053,0.029947
415,434.0,0.971612,0.028388
416,269.0,0.971612,0.028388
417,375.0,0.971612,0.028388
418,334.0,0.971974,0.028026
419,524.0,0.972311,0.027689
420,445.0,0.974932,0.025068
421,533.0,0.976663,0.023337
422,388.0,0.976663,0.023337
423,432.0,0.976663,0.023337
424,342.0,0.976663,0.023337
425,131.0,0.976663,0.023337
426,72.0,0.976663,0.023337
427,217.0,0.976663,0.023337
428,108.0,0.976924,0.023076
429,544.0,0.977354,0.022646
430,274.0,0.977932,0.022068
431,4.0,0.977932,0.022068
432,408.0,0.977932,0.022068
433,630.0,0.977932,0.022068
434,124.0,0.977932,0.022068
435,259.0,0.978481,0.021519
436,273.0,0.97958,0.02042
437,303.0,0.979896,0.020104
438,610.0,0.980856,0.019144
439,633.0,0.980856,0.019144
440,330.0,0.980856,0.019144
441,288.0,0.980856,0.019144
442,327.0,0.980856,0.019144
443,67.0,0.980856,0.019144
444,138.0,0.980856,0.019144
445,222.0,0.980856,0.019144
446,150.0,0.980856,0.019144
447,292.0,0.980856,0.019144
448,170.0,0.981572,0.018428
449,155.0,0.982895,0.017105
450,104.0,0.983007,0.016993
451,21.0,0.983007,0.016993
452,631.0,0.983564,0.016436
453,213.0,0.98388,0.01612
454,209.0,0.98388,0.01612
455,235.0,0.984418,0.015582
456,247.0,0.985025,0.014975
457,438.0,0.985443,0.014557
458,295.0,0.985443,0.014557
459,371.0,0.985443,0.014557
460,28.0,0.985443,0.014557
461,607.0,0.985443,0.014557
462,2.0,0.985443,0.014557
463,611.0,0.985443,0.014557
464,462.0,0.98558,0.01442
465,383.0,0.985981,0.014019
466,94.0,0.985981,0.014019
467,484.0,0.98685,0.01315
468,311.0,0.98685,0.01315
469,507.0,0.98685,0.01315
470,205.0,0.98685,0.01315
471,598.0,0.98685,0.01315
472,189.0,0.98685,0.01315
473,492.0,0.98685,0.01315
474,44.0,0.98685,0.01315
475,504.0,0.98685,0.01315
476,307.0,0.98685,0.01315
477,86.0,0.98685,0.01315
478,169.0,0.98685,0.01315
479,351.0,0.98685,0.01315
480,120.0,0.98685,0.01315
481,456.0,0.98685,0.01315
482,337.0,0.98685,0.01315
483,338.0,0.98685,0.01315
484,5.0,0.98685,0.01315
485,156.0,0.98685,0.01315
486,559.0,0.98685,0.01315
487,331.0,0.98685,0.01315
488,85.0,0.98685,0.01315
489,356.0,0.98685,0.01315
490,590.0,0.98685,0.01315
491,404.0,0.98685,0.01315
492,395.0,0.98685,0.01315
493,280.0,0.988048,0.011952
494,525.0,0.989156,0.010844
495,122.0,0.990556,0.009444
496,149.0,0.990556,0.009444
497,586.0,0.990556,0.009444
498,386.0,0.990556,0.009444
499,501.0,0.991274,0.008726
500,389.0,0.991274,0.008726
501,14.0,0.991778,0.008222
502,476.0,0.991778,0.008222
503,165.0,0.992895,0.007105
504,64.0,0.992895,0.007105
505,263.0,0.993433,0.006567
506,407.0,0.995583,0.004417
507,116.0,0.995583,0.004417
508,135.0,0.995594,0.004406
509,361.0,0.995594,0.004406
510,632.0,0.995594,0.004406
511,336.0,0.995594,0.004406
512,279.0,0.995876,0.004124
513,220.0,0.995941,0.004059
514,573.0,0.995941,0.004059
515,268.0,0.995941,0.004059
516,510.0,0.995941,0.004059
517,329.0,0.996522,0.003478
518,49.0,0.996522,0.003478
519,7.0,0.996522,0.003478
520,558.0,0.996522,0.003478
521,23.0,0.996522,0.003478
522,6.0,0.996522,0.003478
523,291.0,0.996522,0.003478
524,335.0,0.996522,0.003478
525,458.0,0.996522,0.003478
526,378.0,0.996522,0.003478
527,121.0,0.996522,0.003478
528,455.0,0.996522,0.003478
529,10.0,0.996522,0.003478
530,310.0,0.996522,0.003478
531,580.0,0.996522,0.003478
532,237.0,0.996522,0.003478
533,398.0,0.996522,0.003478
534,240.0,0.996522,0.003478
535,521.0,0.996522,0.003478
536,11.0,0.996522,0.003478
537,254.0,0.996522,0.003478
538,420.0,0.996522,0.003478
539,380.0,0.996522,0.003478
540,51.0,0.996522,0.003478
541,178.0,0.996757,0.003243
542,350.0,0.99702,0.00298
543,626.0,0.99702,0.00298
544,258.0,0.99702,0.00298
545,364.0,0.99702,0.00298
546,129.0,0.99702,0.00298
547,391.0,0.99702,0.00298
548,103.0,0.99702,0.00298
549,582.0,0.99702,0.00298
550,137.0,0.99702,0.00298
551,123.0,0.99702,0.00298
552,317.0,0.99702,0.00298
553,230.0,0.99702,0.00298
554,290.0,0.99702,0.00298
555,283.0,0.99702,0.00298
556,173.0,0.99702,0.00298
557,508.0,0.99702,0.00298
558,30.0,0.99702,0.00298
559,231.0,0.99702,0.00298
560,622.0,0.99702,0.00298
561,468.0,0.998875,0.001125
562,201.0,0.998875,0.001125
563,93.0,0.998875,0.001125
564,587.0,0.998875,0.001125
565,604.0,0.998875,0.001125
566,37.0,0.999567,0.000433
567,32.0,0.999567,0.000433
568,24.0,0.999567,0.000433
569,35.0,0.999567,0.000433
570,70.0,0.999567,0.000433
571,81.0,0.999567,0.000433
572,17.0,0.999567,0.000433
573,47.0,0.999567,0.000433
574,618.0,0.999567,0.000433
575,59.0,0.999567,0.000433
576,9.0,0.999567,0.000433
577,77.0,0.999567,0.000433
578,592.0,0.999567,0.000433
579,619.0,0.999567,0.000433
580,597.0,0.999567,0.000433
581,66.0,0.999567,0.000433
582,34.0,0.999567,0.000433
583,41.0,0.999567,0.000433
584,13.0,0.999567,0.000433
585,433.0,0.999567,0.000433
586,95.0,0.999567,0.000433
587,509.0,0.999567,0.000433
588,284.0,0.999567,0.000433
589,502.0,0.999567,0.000433
590,495.0,0.999567,0.000433
591,494.0,0.999567,0.000433
592,296.0,0.999567,0.000433
593,297.0,0.999567,0.000433
594,301.0,0.999567,0.000433
595,485.0,0.999567,0.000433
596,270.0,0.999567,0.000433
597,319.0,0.999567,0.000433
598,344.0,0.999567,0.000433
599,347.0,0.999567,0.000433
600,469.0,0.999567,0.000433
601,465.0,0.999567,0.000433
602,363.0,0.999567,0.000433
603,460.0,0.999567,0.000433
604,411.0,0.999567,0.000433
605,412.0,0.999567,0.000433
606,414.0,0.999567,0.000433
607,333.0,0.999567,0.000433
608,583.0,0.999567,0.000433
609,267.0,0.999567,0.000433
610,518.0,0.999567,0.000433
611,128.0,0.999567,0.000433
612,133.0,0.999567,0.000433
613,145.0,0.999567,0.000433
614,153.0,0.999567,0.000433
615,154.0,0.999567,0.000433
616,554.0,0.999567,0.000433
617,551.0,0.999567,0.000433
618,550.0,0.999567,0.000433
619,172.0,0.999567,0.000433
620,264.0,0.999567,0.000433
621,547.0,0.999567,0.000433
622,174.0,0.999567,0.000433
623,176.0,0.999567,0.000433
624,183.0,0.999567,0.000433
625,190.0,0.999567,0.000433
626,194.0,0.999567,0.000433
627,536.0,0.999567,0.000433
628,534.0,0.999567,0.000433
629,529.0,0.999567,0.000433
630,238.0,0.999567,0.000433
631,546.0,0.999567,0.000433
632,202.0,0.999567,0.000433
