ground.truth,label
nominal,0
nominal,0
nominal,0
nominal,0
anomaly,1
anomaly,5
nominal,0
anomaly,2
nominal,0
nominal,0
nominal,0
nominal,0
nominal,0
nominal,0
nominal,0
nominal,0
nominal,0
nominal,0
nominal,0
nominal,0
nominal,0
nominal,0
nominal,0
nominal,0
nominal,0
nominal,0
anomaly,1
nominal,0
nominal,0
anomaly,2
nominal,0
nominal,0
anomaly,1
anomaly,3
nominal,0
nominal,0
nominal,0
nominal,0
nominal,0
nominal,0
nominal,0
nominal,0
nominal,0
nominal,0
nominal,0
anomaly,5
nominal,0
anomaly,4
nominal,0
anomaly,1
nominal,0
nominal,0
nominal,0
nominal,0
anomaly,2
nominal,0
nominal,0
nominal,0
nominal,0
nominal,0
nominal,0
nominal,0
nominal,0
nominal,0
nominal,0
nominal,0
anomaly,1
nominal,0
nominal,0
nominal,0
nominal,0
nominal,0
nominal,0
nominal,0
nominal,0
nominal,0
nominal,0
anomaly,1
nominal,0
nominal,0
nominal,0
nominal,0
nominal,0
nominal,0
anomaly,2
nominal,0
nominal,0
nominal,0
nominal,0
nominal,0
nominal,0
nominal,0
nominal,0
nominal,0
nominal,0
nominal,0
anomaly,1
nominal,0
nominal,0
anomaly,1
nominal,0
nominal,0
nominal,0
nominal,0
anomaly,1
nominal,0
nominal,0
nominal,0
nominal,0
nominal,0
nominal,0
nominal,0
nominal,0
nominal,0
nominal,0
nominal,0
nominal,0
nominal,0
nominal,0
nominal,0
nominal,0
nominal,0
nominal,0
nominal,0
nominal,0
nominal,0
nominal,0
nominal,0
nominal,0
nominal,0
anomaly,1
nominal,0
nominal,0
anomaly,2
nominal,0
anomaly,1
anomaly,1
nominal,0
nominal,0
nominal,0
nominal,0
nominal,0
nominal,0
nominal,0
anomaly,1
nominal,0
nominal,0
nominal,0
nominal,0
nominal,0
anomaly,17
nominal,0
anomaly,5
nominal,0
nominal,0
nominal,0
nominal,0
nominal,0
nominal,0
nominal,0
nominal,0
nominal,0
nominal,0
anomaly,1
nominal,0
nominal,0
nominal,0
nominal,0
nominal,0
nominal,0
nominal,0
anomaly,1
nominal,0
anomaly,1
nominal,0
nominal,0
nominal,0
nominal,0
anomaly,1
anomaly,1
anomaly,1
anomaly,4
anomaly,1
nominal,0
nominal,0
nominal,0
nominal,0
nominal,0
nominal,0
nominal,0
nominal,0
nominal,0
anomaly,1
nominal,0
nominal,0
nominal,0
anomaly,4
nominal,0
nominal,0
nominal,0
nominal,0
anomaly,1
nominal,0
nominal,0
nominal,0
anomaly,1
nominal,0
nominal,0
anomaly,1
nominal,0
anomaly,1
nominal,0
nominal,0
nominal,0
nominal,0
anomaly,1
nominal,0
nominal,0
nominal,0
nominal,0
anomaly,3
nominal,0
nominal,0
nominal,0
nominal,0
nominal,0
nominal,0
nominal,0
nominal,0
nominal,0
nominal,0
nominal,0
nominal,0
anomaly,8
nominal,0
nominal,0
nominal,0
nominal,0
nominal,0
nominal,0
nominal,0
nominal,0
anomaly,7
anomaly,1
nominal,0
nominal,0
nominal,0
nominal,0
nominal,0
nominal,0
nominal,0
nominal,0
nominal,0
nominal,0
nominal,0
nominal,0
nominal,0
nominal,0
nominal,0
nominal,0
nominal,0
nominal,0
anomaly,2
nominal,0
nominal,0
nominal,0
anomaly,7
nominal,0
nominal,0
anomaly,1
nominal,0
nominal,0
nominal,0
nominal,0
anomaly,1
nominal,0
nominal,0
nominal,0
nominal,0
anomaly,1
nominal,0
nominal,0
anomaly,2
nominal,0
nominal,0
nominal,0
nominal,0
anomaly,1
nominal,0
nominal,0
nominal,0
anomaly,1
nominal,0
nominal,0
nominal,0
nominal,0
nominal,0
nominal,0
nominal,0
nominal,0
nominal,0
nominal,0
nominal,0
nominal,0
nominal,0
nominal,0
nominal,0
nominal,0
nominal,0
nominal,0
anomaly,4
anomaly,11
nominal,0
anomaly,2
anomaly,11
nominal,0
anomaly,10
anomaly,1
nominal,0
nominal,0
nominal,0
nominal,0
nominal,0
nominal,0
nominal,0
nominal,0
nominal,0
anomaly,3
nominal,0
nominal,0
nominal,0
nominal,0
nominal,0
nominal,0
nominal,0
anomaly,2
anomaly,2
nominal,0
nominal,0
nominal,0
nominal,0
nominal,0
nominal,0
anomaly,4
nominal,0
nominal,0
nominal,0
nominal,0
nominal,0
nominal,0
nominal,0
anomaly,1
anomaly,3
nominal,0
nominal,0
nominal,0
nominal,0
nominal,0
nominal,0
nominal,0
anomaly,1
anomaly,1
nominal,0
nominal,0
nominal,0
anomaly,2
nominal,0
nominal,0
nominal,0
nominal,0
nominal,0
nominal,0
nominal,0
nominal,0
nominal,0
nominal,0
nominal,0
nominal,0
nominal,0
nominal,0
nominal,0
nominal,0
nominal,0
nominal,0
nominal,0
nominal,0
anomaly,1
nominal,0
anomaly,2
nominal,0
nominal,0
nominal,0
nominal,0
nominal,0
anomaly,1
nominal,0
anomaly,1
nominal,0
nominal,0
nominal,0
nominal,0
nominal,0
nominal,0
nominal,0
nominal,0
nominal,0
anomaly,1
nominal,0
nominal,0
nominal,0
nominal,0
nominal,0
nominal,0
nominal,0
nominal,0
nominal,0
nominal,0
nominal,0
nominal,0
nominal,0
anomaly,2
anomaly,1
nominal,0
nominal,0
nominal,0
anomaly,3
nominal,0
nominal,0
nominal,0
nominal,0
nominal,0
nominal,0
nominal,0
nominal,0
nominal,0
nominal,0
nominal,0
nominal,0
nominal,0
nominal,0
nominal,0
nominal,0
nominal,0
nominal,0
nominal,0
nominal,0
nominal,0
nominal,0
nominal,0
nominal,0
nominal,0
nominal,0
nominal,0
nominal,0
nominal,0
nominal,0
nominal,0
anomaly,4
nominal,0
nominal,0
anomaly,1
nominal,0
nominal,0
nominal,0
anomaly,1
nominal,0
nominal,0
nominal,0
nominal,0
nominal,0
anomaly,1
anomaly,2
nominal,0
nominal,0
anomaly,1
nominal,0
nominal,0
nominal,0
nominal,0
nominal,0
anomaly,1
nominal,0
anomaly,1
nominal,0
nominal,0
nominal,0
nominal,0
nominal,0
nominal,0
nominal,0
nominal,0
nominal,0
nominal,0
nominal,0
nominal,0
anomaly,2
nominal,0
anomaly,2
nominal,0
nominal,0
nominal,0
nominal,0
nominal,0
nominal,0
nominal,0
nominal,0
nominal,0
nominal,0
nominal,0
anomaly,4
nominal,0
anomaly,5
nominal,0
anomaly,1
nominal,0
nominal,0
nominal,0
nominal,0
nominal,0
anomaly,1
nominal,0
anomaly,1
nominal,0
anomaly,2
nominal,0
nominal,0
nominal,0
nominal,0
anomaly,1
nominal,0
nominal,0
nominal,0
nominal,0
nominal,0
nominal,0
nominal,0
nominal,0
nominal,0
nominal,0
nominal,0
nominal,0
nominal,0
nominal,0
nominal,0
nominal,0
nominal,0
nominal,0
nominal,0
nominal,0
nominal,0
anomaly,9
nominal,0
nominal,0
anomaly,1
nominal,0
nominal,0
nominal,0
anomaly,2
anomaly,2
nominal,0
nominal,0
anomaly,1
nominal,0
nominal,0
nominal,0
nominal,0
nominal,0
nominal,0
nominal,0
nominal,0
nominal,0
nominal,0
nominal,0
nominal,0
nominal,0
anomaly,1
nominal,0
nominal,0
nominal,0
nominal,0
nominal,0
nominal,0
nominal,0
nominal,0
nominal,0
nominal,0
nominal,0
nominal,0
nominal,0
nominal,0
nominal,0
nominal,0
nominal,0
nominal,0
nominal,0
anomaly,1
nominal,0
anomaly,1
nominal,0
nominal,0
anomaly,7
nominal,0
nominal,0
nominal,0
nominal,0
nominal,0
nominal,0
nominal,0
nominal,0
nominal,0
nominal,0
nominal,0
nominal,0
nominal,0
nominal,0
nominal,0
nominal,0
nominal,0
nominal,0
nominal,0
nominal,0
nominal,0
nominal,0
nominal,0
nominal,0
nominal,0
nominal,0
nominal,0
nominal,0
nominal,0
anomaly,1
nominal,0
anomaly,3
anomaly,1
anomaly,1
nominal,0
nominal,0
nominal,0
nominal,0
anomaly,2
nominal,0
nominal,0
nominal,0
nominal,0
nominal,0
nominal,0
nominal,0
nominal,0
nominal,0
nominal,0
nominal,0
nominal,0
nominal,0
nominal,0
nominal,0
nominal,0
nominal,0
nominal,0
nominal,0
nominal,0
nominal,0
nominal,0
nominal,0
anomaly,2
nominal,0
nominal,0
nominal,0
nominal,0
nominal,0
nominal,0
nominal,0
nominal,0
nominal,0
nominal,0
nominal,0
nominal,0
nominal,0
anomaly,1
nominal,0
anomaly,6
nominal,0
nominal,0
nominal,0
nominal,0
anomaly,8
nominal,0
nominal,0
nominal,0
nominal,0
nominal,0
nominal,0
nominal,0
nominal,0
nominal,0
nominal,0
nominal,0
nominal,0
nominal,0
nominal,0
nominal,0
anomaly,3
nominal,0
anomaly,1
anomaly,5
anomaly,1
nominal,0
nominal,0
anomaly,4
nominal,0
nominal,0
nominal,0
nominal,0
anomaly,3
nominal,0
nominal,0
nominal,0
nominal,0
nominal,0
nominal,0
nominal,0
nominal,0
nominal,0
nominal,0
nominal,0
nominal,0
nominal,0
nominal,0
nominal,0
nominal,0
nominal,0
nominal,0
nominal,0
anomaly,1
nominal,0
anomaly,4
nominal,0
nominal,0
nominal,0
nominal,0
nominal,0
nominal,0
nominal,0
nominal,0
nominal,0
nominal,0
nominal,0
nominal,0
nominal,0
anomaly,4
nominal,0
nominal,0
nominal,0
nominal,0
nominal,0
nominal,0
nominal,0
nominal,0
nominal,0
nominal,0
nominal,0
nominal,0
nominal,0
nominal,0
nominal,0
nominal,0
nominal,0
nominal,0
nominal,0
nominal,0
nominal,0
nominal,0
nominal,0
nominal,0
nominal,0
nominal,0
nominal,0
nominal,0
anomaly,4
nominal,0
nominal,0
nominal,0
nominal,0
anomaly,1
nominal,0
nominal,0
nominal,0
nominal,0
nominal,0
nominal,0
anomaly,1
nominal,0
nominal,0
nominal,0
nominal,0
nominal,0
nominal,0
nominal,0
nominal,0
nominal,0
anomaly,2
nominal,0
nominal,0
nominal,0
nominal,0
nominal,0
anomaly,1
nominal,0
nominal,0
nominal,0
nominal,0
nominal,0
nominal,0
nominal,0
nominal,0
nominal,0
nominal,0
nominal,0
nominal,0
nominal,0
nominal,0
anomaly,6
nominal,0
nominal,0
nominal,0
nominal,0
nominal,0
nominal,0
nominal,0
nominal,0
nominal,0
nominal,0
nominal,0
anomaly,1
anomaly,1
nominal,0
anomaly,3
anomaly,1
nominal,0
nominal,0
nominal,0
nominal,0
nominal,0
nominal,0
nominal,0
nominal,0
nominal,0
nominal,0
anomaly,2
nominal,0
nominal,0
nominal,0
nominal,0
nominal,0
nominal,0
nominal,0
nominal,0
nominal,0
nominal,0
nominal,0
nominal,0
nominal,0
nominal,0
nominal,0
anomaly,5
nominal,0
nominal,0
nominal,0
nominal,0
nominal,0
nominal,0
anomaly,3
anomaly,1
nominal,0
nominal,0
anomaly,1
nominal,0
nominal,0
nominal,0
nominal,0
nominal,0
nominal,0
anomaly,4
nominal,0
nominal,0
nominal,0
nominal,0
nominal,0
nominal,0
nominal,0
nominal,0
nominal,0
nominal,0
nominal,0
nominal,0
anomaly,1
anomaly,2
nominal,0
nominal,0
nominal,0
nominal,0
nominal,0
anomaly,1
nominal,0
anomaly,3
nominal,0
nominal,0
anomaly,1
anomaly,3
nominal,0
nominal,0
nominal,0
nominal,0
nominal,0
nominal,0
nominal,0
nominal,0
nominal,0
nominal,0
anomaly,1
nominal,0
anomaly,1
nominal,0
nominal,0
nominal,0
nominal,0
nominal,0
nominal,0
nominal,0
nominal,0
nominal,0
nominal,0
nominal,0
nominal,0
anomaly,18
anomaly,2
nominal,0
nominal,0
nominal,0
nominal,0
nominal,0
nominal,0
nominal,0
nominal,0
nominal,0
nominal,0
nominal,0
nominal,0
nominal,0
nominal,0
nominal,0
nominal,0
nominal,0
nominal,0
nominal,0
nominal,0
nominal,0
nominal,0
nominal,0
nominal,0
anomaly,3
nominal,0
nominal,0
nominal,0
nominal,0
nominal,0
anomaly,1
nominal,0
nominal,0
nominal,0
nominal,0
nominal,0
nominal,0
nominal,0
nominal,0
nominal,0
nominal,0
nominal,0
nominal,0
nominal,0
nominal,0
nominal,0
nominal,0
nominal,0
nominal,0
nominal,0
nominal,0
nominal,0
nominal,0
nominal,0
nominal,0
nominal,0
nominal,0
anomaly,1
nominal,0
nominal,0
nominal,0
nominal,0
nominal,0
nominal,0
nominal,0
nominal,0
nominal,0
nominal,0
nominal,0
nominal,0
anomaly,1
nominal,0
nominal,0
nominal,0
nominal,0
nominal,0
nominal,0
nominal,0
nominal,0
nominal,0
nominal,0
nominal,0
nominal,0
nominal,0
nominal,0
nominal,0
nominal,0
nominal,0
nominal,0
anomaly,1
nominal,0
nominal,0
nominal,0
nominal,0
nominal,0
anomaly,11
nominal,0
nominal,0
nominal,0
nominal,0
anomaly,1
nominal,0
nominal,0
nominal,0
nominal,0
anomaly,1
nominal,0
nominal,0
nominal,0
nominal,0
nominal,0
nominal,0
nominal,0
nominal,0
nominal,0
nominal,0
nominal,0
nominal,0
nominal,0
anomaly,1
anomaly,3
nominal,0
nominal,0
anomaly,2
anomaly,2
nominal,0
nominal,0
nominal,0
anomaly,1
anomaly,1
nominal,0
nominal,0
nominal,0
nominal,0
nominal,0
anomaly,13
nominal,0
nominal,0
nominal,0
nominal,0
nominal,0
nominal,0
nominal,0
anomaly,1
nominal,0
nominal,0
nominal,0
nominal,0
nominal,0
nominal,0
nominal,0
nominal,0
nominal,0
nominal,0
nominal,0
nominal,0
anomaly,28
nominal,0
anomaly,1
nominal,0
nominal,0
nominal,0
nominal,0
nominal,0
nominal,0
nominal,0
nominal,0
nominal,0
nominal,0
nominal,0
anomaly,1
anomaly,1
nominal,0
nominal,0
nominal,0
nominal,0
nominal,0
anomaly,1
nominal,0
nominal,0
nominal,0
nominal,0
nominal,0
nominal,0
nominal,0
nominal,0
nominal,0
nominal,0
nominal,0
nominal,0
nominal,0
anomaly,4
nominal,0
nominal,0
nominal,0
anomaly,8
nominal,0
nominal,0
anomaly,3
nominal,0
nominal,0
nominal,0
nominal,0
nominal,0
anomaly,3
nominal,0
nominal,0
nominal,0
nominal,0
nominal,0
nominal,0
nominal,0
nominal,0
nominal,0
nominal,0
nominal,0
nominal,0
nominal,0
nominal,0
anomaly,1
anomaly,1
nominal,0
nominal,0
anomaly,1
nominal,0
nominal,0
nominal,0
nominal,0
nominal,0
nominal,0
nominal,0
anomaly,2
nominal,0
nominal,0
nominal,0
nominal,0
nominal,0
nominal,0
nominal,0
anomaly,1
nominal,0
anomaly,2
nominal,0
nominal,0
nominal,0
nominal,0
nominal,0
nominal,0
nominal,0
nominal,0
nominal,0
nominal,0
anomaly,1
nominal,0
nominal,0
nominal,0
nominal,0
nominal,0
nominal,0
nominal,0
nominal,0
nominal,0
nominal,0
nominal,0
nominal,0
nominal,0
nominal,0
nominal,0
nominal,0
nominal,0
anomaly,1
nominal,0
nominal,0
nominal,0
nominal,0
nominal,0
anomaly,2
nominal,0
nominal,0
anomaly,1
nominal,0
nominal,0
nominal,0
anomaly,8
nominal,0
nominal,0
anomaly,2
nominal,0
nominal,0
nominal,0
nominal,0
anomaly,1
nominal,0
nominal,0
nominal,0
nominal,0
nominal,0
nominal,0
nominal,0
nominal,0
nominal,0
nominal,0
nominal,0
nominal,0
nominal,0
nominal,0
nominal,0
anomaly,1
nominal,0
nominal,0
anomaly,1
anomaly,4
anomaly,1
anomaly,8
nominal,0
anomaly,2
nominal,0
